ПОЧЕТНО ВРЕМЕ	ПОЧЕТНА ДАТА		КРАЈНА ДАТА					ВРЕМЕТРАЕЊЕ				НАСЛОВ			
17:45			01-05-2016			01-05-2016 18:00			15 м. (900 с.)			Спортски вести			
18:00			01-05-2016			01-05-2016 18:02			2 м. (120 с.)			Вести - Макфакс			
18:02			01-05-2016			01-05-2016 19:00			58 м. (3480 с.)			Тренд			
19:00			01-05-2016			01-05-2016 19:10			10 м. (600 с.)			Вести 19			
19:10			01-05-2016			01-05-2016 20:00			50 м. (3000 с.)			Перу во знакот на зелениот лист - документарна програма			
20:00			01-05-2016			01-05-2016 21:00			60 м. (3600 с.)			Дневник 20			
21:00			01-05-2016			01-05-2016 22:00			60 м. (3600 с.)			Работна сабота			
22:00			01-05-2016			01-05-2016 22:45			45 м. (2700 с.)			Дневник 22			
22:45			01-05-2016			01-05-2016 23:00			15 м. (900 с.)			Спортски вести			
23:00			01-05-2016			01-05-2016 23:02			2 м. (120 с.)			Вести			
23:02			01-05-2016			01-05-2016 23:15			13 м. (780 с.)			Телешоп			
23:15			01-05-2016			02-05-2016 00:00			45 м. (2700 с.)			Документарна програма			
00:00			02-05-2016			02-05-2016 01:00			60 м. (3600 с.)			Дневник			
01:00			02-05-2016			02-05-2016 02:00			60 м. (3600 с.)			24 Вести 01:00			
02:00			02-05-2016			02-05-2016 06:00			240 м. (14400 с.)			24 Вести 02:00			
06:00			02-05-2016			02-05-2016 07:00			60 м. (3600 с.)			24 Вести 06:00			
07:00			02-05-2016			02-05-2016 07:02			2 м. (120 с.)			Вести			
07:02			02-05-2016			02-05-2016 07:15			13 м. (780 с.)			Телешоп			
07:15			02-05-2016			02-05-2016 08:00			45 м. (2700 с.)			Народна музика			
08:00			02-05-2016			02-05-2016 08:02			2 м. (120 с.)			Вести			
08:02			02-05-2016			02-05-2016 08:05			3 м. (180 с.)			Најава на програмата			
08:05			02-05-2016			02-05-2016 09:00			55 м. (3300 с.)			Очи в очи - контактна емисија			
09:00			02-05-2016			02-05-2016 09:10			10 м. (600 с.)			Вести			
09:10			02-05-2016			02-05-2016 10:00			50 м. (3000 с.)			24 Од се срце - живо			
10:00			02-05-2016			02-05-2016 10:10			10 м. (600 с.)			Вести			
10:10			02-05-2016			02-05-2016 10:30			20 м. (1200 с.)			Телешоп			
10:30			02-05-2016			02-05-2016 11:00			30 м. (1800 с.)			Културна матрица			
11:00			02-05-2016			02-05-2016 11:02			2 м. (120 с.)			Вести			
11:02			02-05-2016			02-05-2016 12:00			58 м. (3480 с.)			Вин Вин - дебатна емисија			
12:00			02-05-2016			02-05-2016 12:15			15 м. (900 с.)			Вести			
12:15			02-05-2016			02-05-2016 12:30			15 м. (900 с.)			Телешоп			
12:30			02-05-2016			02-05-2016 13:00			30 м. (1800 с.)			Поп Рок ритам - музичка емисија			
13:00			02-05-2016			02-05-2016 13:02			2 м. (120 с.)			Вести			
13:02			02-05-2016			02-05-2016 14:00			58 м. (3480 с.)			Тренд – реприза			
14:00			02-05-2016			02-05-2016 14:10			10 м. (600 с.)			Вести 14			
14:10			02-05-2016			02-05-2016 15:00			50 м. (3000 с.)			24 За Животот			
15:00			02-05-2016			02-05-2016 15:10			10 м. (600 с.)			Вести			
15:10			02-05-2016			02-05-2016 16:00			50 м. (3000 с.)			Фактор Здравје			
16:00			02-05-2016			02-05-2016 16:10			10 м. (600 с.)			Вести 16			
16:10			02-05-2016			02-05-2016 17:00			50 м. (3000 с.)			Документарен филм			
17:00			02-05-2016			02-05-2016 17:45			45 м. (2700 с.)			Дневник 17			
17:45			02-05-2016			02-05-2016 18:00			15 м. (900 с.)			Спортски вести			
18:00			02-05-2016			02-05-2016 18:02			2 м. (120 с.)			Вести			
18:02			02-05-2016			02-05-2016 18:30			28 м. (1680 с.)			Топ форма - забавна емсија			
18:30			02-05-2016			02-05-2016 19:00			30 м. (1800 с.)			Телешоп			
19:00			02-05-2016			02-05-2016 19:15			15 м. (900 с.)			Вести 19			
19:15			02-05-2016			02-05-2016 19:40			25 м. (1500 с.)			Трето полувреме - спортска емисија			
19:40			02-05-2016			02-05-2016 20:00			20 м. (1200 с.)			Гласот на Америка			
20:00			02-05-2016			02-05-2016 20:40			40 м. (2400 с.)			Дневник 20			
20:40			02-05-2016			02-05-2016 22:00			80 м. (4800 с.)			Концерт			
22:00			02-05-2016			02-05-2016 22:45			45 м. (2700 с.)			Дневник 22			
22:45			02-05-2016			02-05-2016 23:00			15 м. (900 с.)			Спортски вести			
23:00			02-05-2016			02-05-2016 23:02			2 м. (120 с.)			Вести			
23:02			02-05-2016			02-05-2016 23:15			13 м. (780 с.)			Телешоп			
23:15			02-05-2016			03-05-2016 00:00			45 м. (2700 с.)			Поп рок ритам - музичка емисија			
00:00			03-05-2016			03-05-2016 01:00			60 м. (3600 с.)			Дневник			
01:00			03-05-2016			03-05-2016 02:00			60 м. (3600 с.)			24 Вести 01:00			
02:00			03-05-2016			03-05-2016 06:00			240 м. (14400 с.)			24 Вести 02:00			
06:00			03-05-2016			03-05-2016 07:00			60 м. (3600 с.)			24 Вести 06:00			
07:00			03-05-2016			03-05-2016 07:02			2 м. (120 с.)			Вести			
07:02			03-05-2016			03-05-2016 07:15			13 м. (780 с.)			Телешоп			
07:15			03-05-2016			03-05-2016 08:00			45 м. (2700 с.)			Пеам да се натпеам - народна миузика			
08:00			03-05-2016			03-05-2016 08:02			2 м. (120 с.)			Вести			
08:02			03-05-2016			03-05-2016 08:05			3 м. (180 с.)			24 најава на програма			
08:05			03-05-2016			03-05-2016 09:00			55 м. (3300 с.)			Очи в очи - контактна емисија			
09:00			03-05-2016			03-05-2016 09:10			10 м. (600 с.)			Вести			
09:10			03-05-2016			03-05-2016 10:00			50 м. (3000 с.)			24 Од се срце - контактна емисија			
10:00			03-05-2016			03-05-2016 10:10			10 м. (600 с.)			Вести			
10:10			03-05-2016			03-05-2016 11:00			50 м. (3000 с.)			Телешоп			
11:00			03-05-2016			03-05-2016 12:00			60 м. (3600 с.)			24 Анализа - дебатна емисија			
12:00			03-05-2016			03-05-2016 12:15			15 м. (900 с.)			Вести 12			
12:15			03-05-2016			03-05-2016 12:30			15 м. (900 с.)			Телешоп			
12:30			03-05-2016			03-05-2016 13:00			30 м. (1800 с.)			Поп рок ритам - музичка емисија			
13:00			03-05-2016			03-05-2016 13:02			2 м. (120 с.)			Вести			
13:02			03-05-2016			03-05-2016 14:00			58 м. (3480 с.)			Патот до успехот - тематска емисија			
14:00			03-05-2016			03-05-2016 14:10			10 м. (600 с.)			Вести 14			
14:10			03-05-2016			03-05-2016 15:00			50 м. (3000 с.)			24 За животот - контактна емисија			
15:00			03-05-2016			03-05-2016 15:10			10 м. (600 с.)			Вести			
15:10			03-05-2016			03-05-2016 16:00			50 м. (3000 с.)			Фактор Здравје – контактна емисија			
16:00			03-05-2016			03-05-2016 16:10			10 м. (600 с.)			Вести 16			
16:10			03-05-2016			03-05-2016 17:00			50 м. (3000 с.)			Очи в очи - контактна емисија - живо			
17:00			03-05-2016			03-05-2016 17:45			45 м. (2700 с.)			Дневник 17			
17:45			03-05-2016			03-05-2016 18:00			15 м. (900 с.)			Спортски вести			
18:00			03-05-2016			03-05-2016 18:02			2 м. (120 с.)			Вести			
18:02			03-05-2016			03-05-2016 18:30			28 м. (1680 с.)			Магична сцена			
18:30			03-05-2016			03-05-2016 19:00			30 м. (1800 с.)			Телешоп			
19:00			03-05-2016			03-05-2016 19:15			15 м. (900 с.)			Вести 19			
19:15			03-05-2016			03-05-2016 19:40			25 м. (1500 с.)			Евромакс - магазин			
19:40			03-05-2016			03-05-2016 20:00			20 м. (1200 с.)			Гласот на Америка			
20:00			03-05-2016			03-05-2016 20:40			40 м. (2400 с.)			Дневник 20			
20:40			03-05-2016			03-05-2016 21:00			20 м. (1200 с.)			Германија денес - магазин			
21:00			03-05-2016			03-05-2016 22:00			60 м. (3600 с.)			Аанализа - дебатна емисија			
22:00			03-05-2016			03-05-2016 22:45			45 м. (2700 с.)			Дневник 22			
22:45			03-05-2016			03-05-2016 23:00			15 м. (900 с.)			Спортски вести			
23:00			03-05-2016			03-05-2016 23:02			2 м. (120 с.)			Вести			
23:02			03-05-2016			03-05-2016 23:15			13 м. (780 с.)			Телешоп			
23:15			03-05-2016			04-05-2016 00:00			45 м. (2700 с.)			Живот со стил - забавна емисија			
00:00			04-05-2016			04-05-2016 01:00			60 м. (3600 с.)			Дневник			
01:00			04-05-2016			04-05-2016 02:00			60 м. (3600 с.)			24 Вести 01:00			
02:00			04-05-2016			04-05-2016 06:00			240 м. (14400 с.)			24 Вести 02:00			
06:00			04-05-2016			04-05-2016 07:00			60 м. (3600 с.)			24 Вести 06:00			
07:00			04-05-2016			04-05-2016 07:02			2 м. (120 с.)			Вести			
07:02			04-05-2016			04-05-2016 07:10			8 м. (480 с.)			Телешоп			
07:10			04-05-2016			04-05-2016 07:45			35 м. (2100 с.)			Народна музика			
07:45			04-05-2016			04-05-2016 08:00			15 м. (900 с.)			Германија денес			
08:00			04-05-2016			04-05-2016 08:02			2 м. (120 с.)			Вести			
08:02			04-05-2016			04-05-2016 08:05			3 м. (180 с.)			Најава на програмата			
08:05			04-05-2016			04-05-2016 09:00			55 м. (3300 с.)			Очи в очи - контактна емисија			
09:00			04-05-2016			04-05-2016 09:10			10 м. (600 с.)			Вести			
09:10			04-05-2016			04-05-2016 10:00			50 м. (3000 с.)			24 Од се срце - контактна емисија			
10:00			04-05-2016			04-05-2016 10:10			10 м. (600 с.)			Вести			
10:10			04-05-2016			04-05-2016 10:45			35 м. (2100 с.)			Телешоп			
10:45			04-05-2016			04-05-2016 12:00			75 м. (4500 с.)			Отворено - дебатна емисија			
12:00			04-05-2016			04-05-2016 12:15			15 м. (900 с.)			Вести 12			
12:15			04-05-2016			04-05-2016 12:30			15 м. (900 с.)			Телешоп			
12:30			04-05-2016			04-05-2016 13:00			30 м. (1800 с.)			Слушни ја мојата песна - забавна музика			
13:00			04-05-2016			04-05-2016 13:02			2 м. (120 с.)			Вести			
13:02			04-05-2016			04-05-2016 14:00			58 м. (3480 с.)			Второ мислење - емисија за здрав живот			
14:00			04-05-2016			04-05-2016 14:10			10 м. (600 с.)			Вести 14			
14:10			04-05-2016			04-05-2016 15:00			50 м. (3000 с.)			24 За животот - контактна емисија			
15:00			04-05-2016			04-05-2016 15:10			10 м. (600 с.)			Вести			
15:10			04-05-2016			04-05-2016 16:00			50 м. (3000 с.)			Фактор Здравје – контактна емисија			
16:00			04-05-2016			04-05-2016 16:10			10 м. (600 с.)			Вести 16			
16:10			04-05-2016			04-05-2016 17:00			50 м. (3000 с.)			Очи в очи - контактна емисија во живо			
17:00			04-05-2016			04-05-2016 17:45			45 м. (2700 с.)			Дневник 17			
17:45			04-05-2016			04-05-2016 18:00			15 м. (900 с.)			Спортски вести			
18:00			04-05-2016			04-05-2016 18:02			2 м. (120 с.)			Вести			
18:02			04-05-2016			04-05-2016 18:30			28 м. (1680 с.)			Документарна емисија			
18:30			04-05-2016			04-05-2016 19:00			30 м. (1800 с.)			Телешоп			
19:00			04-05-2016			04-05-2016 19:15			15 м. (900 с.)			Вести 19			
19:15			04-05-2016			04-05-2016 19:40			25 м. (1500 с.)			Трета порта			
19:40			04-05-2016			04-05-2016 20:00			20 м. (1200 с.)			Гласот на Америка			
20:00			04-05-2016			04-05-2016 20:40			40 м. (2400 с.)			Дневник 20			
20:40			04-05-2016			04-05-2016 21:00			20 м. (1200 с.)			Германија денес - магазин			
21:00			04-05-2016			04-05-2016 22:00			60 м. (3600 с.)			Анализа - дебатна емисија			
22:00			04-05-2016			04-05-2016 22:45			45 м. (2700 с.)			Дневник 22			
22:45			04-05-2016			04-05-2016 23:00			15 м. (900 с.)			Спортски вести			
23:00			04-05-2016			04-05-2016 23:02			2 м. (120 с.)			Вести			
23:02			04-05-2016			04-05-2016 23:15			13 м. (780 с.)			Телешоп			
23:15			04-05-2016			05-05-2016 00:00			45 м. (2700 с.)			Автоплус - емисија за автомобилизам			
00:00			05-05-2016			05-05-2016 01:00			60 м. (3600 с.)			Дневник			
01:00			05-05-2016			05-05-2016 02:00			60 м. (3600 с.)			24 Вести 01:00			
02:00			05-05-2016			05-05-2016 06:00			240 м. (14400 с.)			24 Вести 02:00			
06:00			05-05-2016			05-05-2016 07:00			60 м. (3600 с.)			24 Вести 06:00			
07:00			05-05-2016			05-05-2016 07:02			2 м. (120 с.)			Вести			
07:02			05-05-2016			05-05-2016 07:15			13 м. (780 с.)			Телешоп			
07:15			05-05-2016			05-05-2016 07:45			30 м. (1800 с.)			Песна до песна - народна музика			
07:45			05-05-2016			05-05-2016 08:00			15 м. (900 с.)			Германија денес - магазин			
08:00			05-05-2016			05-05-2016 08:02			2 м. (120 с.)			Вести			
08:02			05-05-2016			05-05-2016 08:05			3 м. (180 с.)			24 Најава на програма			
08:05			05-05-2016			05-05-2016 09:00			55 м. (3300 с.)			Очи в очи - контактна емисија - реприза			
09:00			05-05-2016			05-05-2016 09:10			10 м. (600 с.)			Вести			
09:10			05-05-2016			05-05-2016 10:00			50 м. (3000 с.)			24 Од се срце - контактна емисија			
10:00			05-05-2016			05-05-2016 10:10			10 м. (600 с.)			Вести			
10:10			05-05-2016			05-05-2016 10:30			20 м. (1200 с.)			Телешоп			
10:30			05-05-2016			05-05-2016 11:00			30 м. (1800 с.)			Трета порта			
11:00			05-05-2016			05-05-2016 11:02			2 м. (120 с.)			Вести			
11:02			05-05-2016			05-05-2016 12:00			58 м. (3480 с.)			Анализа - дебатна емисија			
12:00			05-05-2016			05-05-2016 12:15			15 м. (900 с.)			Вести 12			
12:15			05-05-2016			05-05-2016 12:30			15 м. (900 с.)			Телешоп			
12:30			05-05-2016			05-05-2016 13:00			30 м. (1800 с.)			Слушни ја мојата песна - забавна музика			
13:00			05-05-2016			05-05-2016 13:02			2 м. (120 с.)			Вести			
13:02			05-05-2016			05-05-2016 13:30			28 м. (1680 с.)			Во добра форма - магазин			
13:30			05-05-2016			05-05-2016 14:00			30 м. (1800 с.)			Магична сцена - емисија за култура			
14:00			05-05-2016			05-05-2016 14:10			10 м. (600 с.)			Вести 14			
14:10			05-05-2016			05-05-2016 15:00			50 м. (3000 с.)			24 За животот - контактна емисија			
15:00			05-05-2016			05-05-2016 15:10			10 м. (600 с.)			Вести			
15:10			05-05-2016			05-05-2016 16:00			50 м. (3000 с.)			Фактор Здравје – контактна емисија			
16:00			05-05-2016			05-05-2016 16:10			10 м. (600 с.)			Вести 16			
16:10			05-05-2016			05-05-2016 17:00			50 м. (3000 с.)			Очи в очи - контактна емисија во живо			
17:00			05-05-2016			05-05-2016 17:45			45 м. (2700 с.)			Дневник 17			
17:45			05-05-2016			05-05-2016 18:00			15 м. (900 с.)			Спортски вести			
18:00			05-05-2016			05-05-2016 18:02			2 м. (120 с.)			Вести			
18:02			05-05-2016			05-05-2016 19:00			58 м. (3480 с.)			Документарна програма			
19:00			05-05-2016			05-05-2016 19:15			15 м. (900 с.)			Вести 19			
19:15			05-05-2016			05-05-2016 19:40			25 м. (1500 с.)			Евродрум - надворешно политичка емисија			
19:40			05-05-2016			05-05-2016 20:00			20 м. (1200 с.)			Гласот на Америка			
20:00			05-05-2016			05-05-2016 20:45			45 м. (2700 с.)			Дневник 20			
20:45			05-05-2016			05-05-2016 21:00			15 м. (900 с.)			Германија денес			
21:00			05-05-2016			05-05-2016 22:00			60 м. (3600 с.)			Вин Вин - дебатна емисија			
22:00			05-05-2016			05-05-2016 22:45			45 м. (2700 с.)			Дневник 22			
22:45			05-05-2016			05-05-2016 23:00			15 м. (900 с.)			Спортски вести			
23:00			05-05-2016			05-05-2016 23:02			2 м. (120 с.)			Вести			
23:02			05-05-2016			05-05-2016 23:15			13 м. (780 с.)			Телешоп			
23:15			05-05-2016			06-05-2016 00:00			45 м. (2700 с.)			Магична сцена - емисија за култура			
00:00			06-05-2016			06-05-2016 01:00			60 м. (3600 с.)			Дневник			
01:00			06-05-2016			06-05-2016 02:00			60 м. (3600 с.)			24 Вести 01:00			
02:00			06-05-2016			06-05-2016 06:00			240 м. (14400 с.)			24 Вести 02:00			
06:00			06-05-2016			06-05-2016 07:00			60 м. (3600 с.)			24 Вести 06:00			
07:00			06-05-2016			06-05-2016 07:02			2 м. (120 с.)			Вести			
07:02			06-05-2016			06-05-2016 07:15			13 м. (780 с.)			Телешоп			
07:15			06-05-2016			06-05-2016 07:45			30 м. (1800 с.)			Народна музика			
07:45			06-05-2016			06-05-2016 08:00			15 м. (900 с.)			Германија денес - магазин			
08:00			06-05-2016			06-05-2016 08:02			2 м. (120 с.)			Вести			
08:02			06-05-2016			06-05-2016 08:05			3 м. (180 с.)			24 најава на програма			
08:05			06-05-2016			06-05-2016 09:00			55 м. (3300 с.)			Очи в очи - контактна емисија			
09:00			06-05-2016			06-05-2016 09:10			10 м. (600 с.)			Вести			
09:10			06-05-2016			06-05-2016 10:00			50 м. (3000 с.)			24 Од се срце - контактна емисија			
10:00			06-05-2016			06-05-2016 10:10			10 м. (600 с.)			Вести			
10:10			06-05-2016			06-05-2016 10:30			20 м. (1200 с.)			Телешоп			
10:30			06-05-2016			06-05-2016 11:00			30 м. (1800 с.)			Ретро во ретро			
11:00			06-05-2016			06-05-2016 11:02			2 м. (120 с.)			Вести			
11:02			06-05-2016			06-05-2016 12:00			58 м. (3480 с.)			Анализа - дебатна емисија			
12:00			06-05-2016			06-05-2016 12:20			20 м. (1200 с.)			Вести 12			
12:20			06-05-2016			06-05-2016 12:30			10 м. (600 с.)			Временска прогноза			
12:30			06-05-2016			06-05-2016 13:00			30 м. (1800 с.)			Хит топ 7 - забавна музика			
13:00			06-05-2016			06-05-2016 13:02			2 м. (120 с.)			Вести			
13:02			06-05-2016			06-05-2016 13:30			28 м. (1680 с.)			Авто плус - емисија за автомобилизам			
13:30			06-05-2016			06-05-2016 14:00			30 м. (1800 с.)			Шифт - магазин			
14:00			06-05-2016			06-05-2016 14:10			10 м. (600 с.)			Вести 14			
14:10			06-05-2016			06-05-2016 15:00			50 м. (3000 с.)			24 За животот - контактна емисија			
15:00			06-05-2016			06-05-2016 15:10			10 м. (600 с.)			Вести			
15:10			06-05-2016			06-05-2016 16:00			50 м. (3000 с.)			Фактор Здравје – контактна емисија			
16:00			06-05-2016			06-05-2016 16:10			10 м. (600 с.)			Вести 16			
16:10			06-05-2016			06-05-2016 17:00			50 м. (3000 с.)			Очи в Очи - контактна емисија			
17:00			06-05-2016			06-05-2016 17:45			45 м. (2700 с.)			Дневник 17			
17:45			06-05-2016			06-05-2016 18:00			15 м. (900 с.)			Спортски вести			
18:00			06-05-2016			06-05-2016 18:02			2 м. (120 с.)			Вести - Макфакс			
18:02			06-05-2016			06-05-2016 18:30			28 м. (1680 с.)			На Шанк - забавна емисија			
18:30			06-05-2016			06-05-2016 19:00			30 м. (1800 с.)			Телешоп			
19:00			06-05-2016			06-05-2016 19:15			15 м. (900 с.)			Вести 19			
19:15			06-05-2016			06-05-2016 19:40			25 м. (1500 с.)			Културна матрица - емисија за култура			
19:40			06-05-2016			06-05-2016 20:00			20 м. (1200 с.)			Гласот на Америка			
20:00			06-05-2016			06-05-2016 20:45			45 м. (2700 с.)			Дневник 20			
20:45			06-05-2016			06-05-2016 21:00			15 м. (900 с.)			Германија денес			
21:00			06-05-2016			06-05-2016 22:00			60 м. (3600 с.)			24 Анализа - дебатна емисија			
22:00			06-05-2016			06-05-2016 22:45			45 м. (2700 с.)			Дневник 22			
22:45			06-05-2016			06-05-2016 23:00			15 м. (900 с.)			Спортски вести			
23:00			06-05-2016			06-05-2016 23:02			2 м. (120 с.)			Вести			
23:02			06-05-2016			06-05-2016 23:15			13 м. (780 с.)			Телешоп			
23:15			06-05-2016			07-05-2016 00:00			45 м. (2700 с.)			На Шанк - забавна емисија			
00:00			07-05-2016			07-05-2016 01:00			60 м. (3600 с.)			Дневник			
01:00			07-05-2016			07-05-2016 02:00			60 м. (3600 с.)			24 Вести 01:00			
02:00			07-05-2016			07-05-2016 06:00			240 м. (14400 с.)			24 Вести 02:00			
06:00			07-05-2016			07-05-2016 07:00			60 м. (3600 с.)			24 Вести 06:00			
07:00			07-05-2016			07-05-2016 07:02			2 м. (120 с.)			Вести			
07:02			07-05-2016			07-05-2016 07:10			8 м. (480 с.)			Најава на програмата			
07:10			07-05-2016			07-05-2016 08:30			80 м. (4800 с.)			Народна музика			
08:30			07-05-2016			07-05-2016 09:00			30 м. (1800 с.)			Телешоп			
09:00			07-05-2016			07-05-2016 09:02			2 м. (120 с.)			Вести			
09:02			07-05-2016			07-05-2016 09:10			8 м. (480 с.)			Најава на програмата			
09:10			07-05-2016			07-05-2016 10:00			50 м. (3000 с.)			Живот со стил - забавна емисија			
10:00			07-05-2016			07-05-2016 10:02			2 м. (120 с.)			Макфакс - вести			
10:02			07-05-2016			07-05-2016 11:00			58 м. (3480 с.)			Патот до успехот			
11:00			07-05-2016			07-05-2016 11:02			2 м. (120 с.)			Вести			
11:02			07-05-2016			07-05-2016 12:00			58 м. (3480 с.)			Второ мислење - емисија за здрав живот			
12:00			07-05-2016			07-05-2016 12:15			15 м. (900 с.)			Вести 12			
12:15			07-05-2016			07-05-2016 12:30			15 м. (900 с.)			Телешоп			
12:30			07-05-2016			07-05-2016 13:00			30 м. (1800 с.)			Ретро во ретро			
13:00			07-05-2016			07-05-2016 14:00			60 м. (3600 с.)			Урбан Блок - забавна емисија			
14:00			07-05-2016			07-05-2016 14:15			15 м. (900 с.)			Вести 14			
14:15			07-05-2016			07-05-2016 14:30			15 м. (900 с.)			Телешоп			
14:30			07-05-2016			07-05-2016 15:30			60 м. (3600 с.)			Работна Сабота - забавна емисија			
15:30			07-05-2016			07-05-2016 16:00			30 м. (1800 с.)			Возење - магазин			
16:00			07-05-2016			07-05-2016 16:10			10 м. (600 с.)			Вести 16			
16:10			07-05-2016			07-05-2016 17:00			50 м. (3000 с.)			Магична сцена			
17:00			07-05-2016			07-05-2016 17:45			45 м. (2700 с.)			Дневник 17			
17:45			07-05-2016			07-05-2016 18:00			15 м. (900 с.)			Спортски вести			
18:00			07-05-2016			07-05-2016 18:02			2 м. (120 с.)			Вести - Макфакс			
18:02			07-05-2016			07-05-2016 19:00			58 м. (3480 с.)			Патот до успехот			
19:00			07-05-2016			07-05-2016 19:10			10 м. (600 с.)			Вести 19			
19:10			07-05-2016			07-05-2016 20:00			50 м. (3000 с.)			Мозаик на факти - документарна програма			
20:00			07-05-2016			07-05-2016 21:00			60 м. (3600 с.)			Дневник 20			
21:00			07-05-2016			07-05-2016 22:00			60 м. (3600 с.)			10 x 10+10 x10 Анализа			
22:00			07-05-2016			07-05-2016 22:45			45 м. (2700 с.)			Дневник 22			
22:45			07-05-2016			07-05-2016 23:00			15 м. (900 с.)			Спортски вести			
23:00			07-05-2016			07-05-2016 23:02			2 м. (120 с.)			Вести			
23:02			07-05-2016			07-05-2016 23:15			13 м. (780 с.)			Телешоп			
23:15			07-05-2016			08-05-2016 00:00			45 м. (2700 с.)			Документарна програма			
00:00			08-05-2016			08-05-2016 01:00			60 м. (3600 с.)			Дневник			
01:00			08-05-2016			08-05-2016 02:00			60 м. (3600 с.)			24 Вести 01:00			
02:00			08-05-2016			08-05-2016 06:00			240 м. (14400 с.)			24 Вести 02:00			
06:00			08-05-2016			08-05-2016 07:00			60 м. (3600 с.)			24 Вести 06:00			
07:00			08-05-2016			08-05-2016 07:02			2 м. (120 с.)			Вести			
07:02			08-05-2016			08-05-2016 07:10			8 м. (480 с.)			Најава на програмата			
07:10			08-05-2016			08-05-2016 08:30			80 м. (4800 с.)			Народна музика			
08:30			08-05-2016			08-05-2016 09:00			30 м. (1800 с.)			Телешоп			
09:00			08-05-2016			08-05-2016 09:02			2 м. (120 с.)			Вести			
09:02			08-05-2016			08-05-2016 10:00			58 м. (3480 с.)			Урбан Блок - забавна емисија			
10:00			08-05-2016			08-05-2016 10:02			2 м. (120 с.)			Вести			
10:02			08-05-2016			08-05-2016 11:00			58 м. (3480 с.)			Тренд – реприза			
11:00			08-05-2016			08-05-2016 11:02			2 м. (120 с.)			Вести			
11:02			08-05-2016			08-05-2016 12:00			58 м. (3480 с.)			Скај Селекшн - забавна емисија			
12:00			08-05-2016			08-05-2016 12:15			15 м. (900 с.)			Вести 12			
12:15			08-05-2016			08-05-2016 12:30			15 м. (900 с.)			Телешоп			
12:30			08-05-2016			08-05-2016 13:20			50 м. (3000 с.)			Патот до успехот			
13:20			08-05-2016			08-05-2016 13:30			10 м. (600 с.)			Радио Слободна Европа			
13:30			08-05-2016			08-05-2016 14:00			30 м. (1800 с.)			Документарна програма			
14:00			08-05-2016			08-05-2016 14:15			15 м. (900 с.)			Вести 14			
14:15			08-05-2016			08-05-2016 14:30			15 м. (900 с.)			Телешоп			
14:30			08-05-2016			08-05-2016 15:05			35 м. (2100 с.)			Автоплус - автомагазин			
15:05			08-05-2016			08-05-2016 16:00			55 м. (3300 с.)			Концерт			
16:00			08-05-2016			08-05-2016 16:10			10 м. (600 с.)			Вести 16			
16:10			08-05-2016			08-05-2016 17:00			50 м. (3000 с.)			Живот со стил – забавна емисија			
17:00			08-05-2016			08-05-2016 17:45			45 м. (2700 с.)			Дневник 17			
17:45			08-05-2016			08-05-2016 18:00			15 м. (900 с.)			Спортски вести			
18:00			08-05-2016			08-05-2016 18:02			2 м. (120 с.)			Вести - Макфакс			
18:02			08-05-2016			08-05-2016 19:00			58 м. (3480 с.)			Тренд			
19:00			08-05-2016			08-05-2016 19:10			10 м. (600 с.)			Вести 19			
19:10			08-05-2016			08-05-2016 20:00			50 м. (3000 с.)			Јас сум Самир од Дамаск - документарна програма			
20:00			08-05-2016			08-05-2016 21:00			60 м. (3600 с.)			Дневник 20			
21:00			08-05-2016			08-05-2016 22:00			60 м. (3600 с.)			Работна сабота			
22:00			08-05-2016			08-05-2016 22:45			45 м. (2700 с.)			Дневник 22			
22:45			08-05-2016			08-05-2016 23:00			15 м. (900 с.)			Спортски вести			
23:00			08-05-2016			08-05-2016 23:02			2 м. (120 с.)			Вести			
23:02			08-05-2016			08-05-2016 23:15			13 м. (780 с.)			Телешоп			
23:15			08-05-2016			09-05-2016 00:00			45 м. (2700 с.)			Документарна програма			
00:00			09-05-2016			09-05-2016 01:00			60 м. (3600 с.)			Дневник			
01:00			09-05-2016			09-05-2016 02:00			60 м. (3600 с.)			24 Вести 01:00			
02:00			09-05-2016			09-05-2016 06:00			240 м. (14400 с.)			24 Вести 02:00			
06:00			09-05-2016			09-05-2016 07:00			60 м. (3600 с.)			24 Вести 06:00			
07:00			09-05-2016			09-05-2016 07:02			2 м. (120 с.)			Вести			
07:02			09-05-2016			09-05-2016 07:15			13 м. (780 с.)			Телешоп			
07:15			09-05-2016			09-05-2016 08:00			45 м. (2700 с.)			Народна музика			
08:00			09-05-2016			09-05-2016 08:02			2 м. (120 с.)			Вести			
08:02			09-05-2016			09-05-2016 08:05			3 м. (180 с.)			Најава на програмата			
08:05			09-05-2016			09-05-2016 09:00			55 м. (3300 с.)			Очи в очи - контактана емисија			
09:00			09-05-2016			09-05-2016 09:10			10 м. (600 с.)			Вести			
09:10			09-05-2016			09-05-2016 10:00			50 м. (3000 с.)			24 Од се срце - живо			
10:00			09-05-2016			09-05-2016 10:10			10 м. (600 с.)			Вести			
10:10			09-05-2016			09-05-2016 10:30			20 м. (1200 с.)			Телешоп			
10:30			09-05-2016			09-05-2016 11:00			30 м. (1800 с.)			Културна матрица			
11:00			09-05-2016			09-05-2016 11:02			2 м. (120 с.)			Вести			
11:02			09-05-2016			09-05-2016 12:00			58 м. (3480 с.)			Вин Вин - дебатна емисија			
12:00			09-05-2016			09-05-2016 12:15			15 м. (900 с.)			Вести			
12:15			09-05-2016			09-05-2016 12:30			15 м. (900 с.)			Телешоп			
12:30			09-05-2016			09-05-2016 13:00			30 м. (1800 с.)			Поп Рок ритам - музичка емисија			
13:00			09-05-2016			09-05-2016 13:02			2 м. (120 с.)			Вести			
13:02			09-05-2016			09-05-2016 14:00			58 м. (3480 с.)			Тренд – реприза			
14:00			09-05-2016			09-05-2016 14:10			10 м. (600 с.)			Вести 14			
14:10			09-05-2016			09-05-2016 15:00			50 м. (3000 с.)			24 За Животот - контактна емисија			
15:00			09-05-2016			09-05-2016 15:10			10 м. (600 с.)			Вести			
15:10			09-05-2016			09-05-2016 16:00			50 м. (3000 с.)			Фактор Здравје – контактна емисија			
16:00			09-05-2016			09-05-2016 16:10			10 м. (600 с.)			Вести 16			
16:10			09-05-2016			09-05-2016 17:00			50 м. (3000 с.)			Очи в очи - контактна емисија			
17:00			09-05-2016			09-05-2016 17:45			45 м. (2700 с.)			Дневник 17			
17:45			09-05-2016			09-05-2016 18:00			15 м. (900 с.)			Спортски вести			
18:00			09-05-2016			09-05-2016 18:02			2 м. (120 с.)			Вести			
18:02			09-05-2016			09-05-2016 18:30			28 м. (1680 с.)			Топ форма - забавна емсија			
18:30			09-05-2016			09-05-2016 19:00			30 м. (1800 с.)			Телешоп			
19:00			09-05-2016			09-05-2016 19:15			15 м. (900 с.)			Вести 19			
19:15			09-05-2016			09-05-2016 19:40			25 м. (1500 с.)			Трето полувреме - спортска емисија			
19:40			09-05-2016			09-05-2016 20:00			20 м. (1200 с.)			Гласот на Америка			
20:00			09-05-2016			09-05-2016 20:40			40 м. (2400 с.)			Дневник 20			
20:40			09-05-2016			09-05-2016 22:00			80 м. (4800 с.)			Отворено - дебатна емисија			
22:00			09-05-2016			09-05-2016 22:45			45 м. (2700 с.)			Дневник 22			
22:45			09-05-2016			09-05-2016 23:00			15 м. (900 с.)			Спортски вести			
23:00			09-05-2016			09-05-2016 23:02			2 м. (120 с.)			Вести			
23:02			09-05-2016			09-05-2016 23:15			13 м. (780 с.)			Телешоп			
23:15			09-05-2016			10-05-2016 00:00			45 м. (2700 с.)			Поп рок ритам - музичка емисија			
00:00			10-05-2016			10-05-2016 01:00			60 м. (3600 с.)			Дневник			
01:00			10-05-2016			10-05-2016 02:00			60 м. (3600 с.)			24 Вести 01:00			
02:00			10-05-2016			10-05-2016 06:00			240 м. (14400 с.)			24 Вести 02:00			
06:00			10-05-2016			10-05-2016 07:00			60 м. (3600 с.)			24 Вести 06:00			
07:00			10-05-2016			10-05-2016 07:02			2 м. (120 с.)			Вести			
07:02			10-05-2016			10-05-2016 07:15			13 м. (780 с.)			Телешоп			
07:15			10-05-2016			10-05-2016 08:00			45 м. (2700 с.)			Пеам да се натпеам - народна миузика			
08:00			10-05-2016			10-05-2016 08:02			2 м. (120 с.)			Вести			
08:02			10-05-2016			10-05-2016 08:05			3 м. (180 с.)			24 најава на програма			
08:05			10-05-2016			10-05-2016 09:00			55 м. (3300 с.)			Очи в очи - контактана емисија			
09:00			10-05-2016			10-05-2016 09:10			10 м. (600 с.)			Вести			
09:10			10-05-2016			10-05-2016 10:00			50 м. (3000 с.)			24 Од се срце - контактна емисија			
10:00			10-05-2016			10-05-2016 10:10			10 м. (600 с.)			Вести			
10:10			10-05-2016			10-05-2016 11:00			50 м. (3000 с.)			Телешоп			
11:00			10-05-2016			10-05-2016 12:00			60 м. (3600 с.)			24 Анализа - дебатна емисија			
12:00			10-05-2016			10-05-2016 12:15			15 м. (900 с.)			Вести 12			
12:15			10-05-2016			10-05-2016 12:30			15 м. (900 с.)			Телешоп			
12:30			10-05-2016			10-05-2016 13:00			30 м. (1800 с.)			Поп рок ритам - музичка емисија			
13:00			10-05-2016			10-05-2016 13:02			2 м. (120 с.)			Вести			
13:02			10-05-2016			10-05-2016 14:00			58 м. (3480 с.)			Патот до успехот - тематска емисија			
14:00			10-05-2016			10-05-2016 14:10			10 м. (600 с.)			Вести 14			
14:10			10-05-2016			10-05-2016 15:00			50 м. (3000 с.)			24 За животот - контактна емисија			
15:00			10-05-2016			10-05-2016 15:10			10 м. (600 с.)			Вести			
15:10			10-05-2016			10-05-2016 16:00			50 м. (3000 с.)			Фактор Здравје – контактна емисија			
16:00			10-05-2016			10-05-2016 16:10			10 м. (600 с.)			Вести 16			
16:10			10-05-2016			10-05-2016 17:00			50 м. (3000 с.)			Очи в очи - контактна емисија - живо			
17:00			10-05-2016			10-05-2016 17:45			45 м. (2700 с.)			Дневник 17			
17:45			10-05-2016			10-05-2016 18:00			15 м. (900 с.)			Спортски вести			
18:00			10-05-2016			10-05-2016 18:02			2 м. (120 с.)			Вести			
18:02			10-05-2016			10-05-2016 18:30			28 м. (1680 с.)			Магична сцена			
18:30			10-05-2016			10-05-2016 19:00			30 м. (1800 с.)			Телешоп			
19:00			10-05-2016			10-05-2016 19:15			15 м. (900 с.)			Вести 19			
19:15			10-05-2016			10-05-2016 19:40			25 м. (1500 с.)			Евромакс - магазин			
19:40			10-05-2016			10-05-2016 20:00			20 м. (1200 с.)			Гласот на Америка			
20:00			10-05-2016			10-05-2016 20:40			40 м. (2400 с.)			Дневник 20			
20:40			10-05-2016			10-05-2016 21:00			20 м. (1200 с.)			Германија денес - магазин			
21:00			10-05-2016			10-05-2016 22:00			60 м. (3600 с.)			Анализа - дебатна емисија			
22:00			10-05-2016			10-05-2016 22:45			45 м. (2700 с.)			Дневник 22			
22:45			10-05-2016			10-05-2016 23:00			15 м. (900 с.)			Спортски вести			
23:00			10-05-2016			10-05-2016 23:02			2 м. (120 с.)			Вести			
23:02			10-05-2016			10-05-2016 23:15			13 м. (780 с.)			Телешоп			
23:15			10-05-2016			11-05-2016 00:00			45 м. (2700 с.)			Живот со стил - забавна емисија			
00:00			11-05-2016			11-05-2016 01:00			60 м. (3600 с.)			Дневник			
01:00			11-05-2016			11-05-2016 02:00			60 м. (3600 с.)			24 Вести 01:00			
02:00			11-05-2016			11-05-2016 06:00			240 м. (14400 с.)			24 Вести 02:00			
06:00			11-05-2016			11-05-2016 07:00			60 м. (3600 с.)			24 Вести 06:00			
07:00			11-05-2016			11-05-2016 07:02			2 м. (120 с.)			Вести			
07:02			11-05-2016			11-05-2016 07:10			8 м. (480 с.)			Телешоп			
07:10			11-05-2016			11-05-2016 07:45			35 м. (2100 с.)			Народна музика			
07:45			11-05-2016			11-05-2016 08:00			15 м. (900 с.)			Германија денес			
08:00			11-05-2016			11-05-2016 08:02			2 м. (120 с.)			Вести			
08:02			11-05-2016			11-05-2016 08:05			3 м. (180 с.)			Најава на програмата			
08:05			11-05-2016			11-05-2016 09:00			55 м. (3300 с.)			Очи в очи - контактна емисија			
09:00			11-05-2016			11-05-2016 09:10			10 м. (600 с.)			Вести			
09:10			11-05-2016			11-05-2016 10:00			50 м. (3000 с.)			24 Од се срце - контактна емисија			
10:00			11-05-2016			11-05-2016 10:10			10 м. (600 с.)			Вести			
10:10			11-05-2016			11-05-2016 10:45			35 м. (2100 с.)			Телешоп			
10:45			11-05-2016			11-05-2016 12:00			75 м. (4500 с.)			Отворено - дебатна емисија			
12:00			11-05-2016			11-05-2016 12:15			15 м. (900 с.)			Вести 12			
12:15			11-05-2016			11-05-2016 12:30			15 м. (900 с.)			Телешоп			
12:30			11-05-2016			11-05-2016 13:00			30 м. (1800 с.)			Слушни ја мојата песна - забавна музика			
13:00			11-05-2016			11-05-2016 13:02			2 м. (120 с.)			Вести			
13:02			11-05-2016			11-05-2016 14:00			58 м. (3480 с.)			Второ мислење - емисија за здрав живот			
14:00			11-05-2016			11-05-2016 14:10			10 м. (600 с.)			Вести 14			
14:10			11-05-2016			11-05-2016 15:00			50 м. (3000 с.)			24 За животот - контактна емисија			
15:00			11-05-2016			11-05-2016 15:10			10 м. (600 с.)			Вести			
15:10			11-05-2016			11-05-2016 16:00			50 м. (3000 с.)			Фактор Здравје – контактна емисија			
16:00			11-05-2016			11-05-2016 16:10			10 м. (600 с.)			Вести 16			
16:10			11-05-2016			11-05-2016 17:00			50 м. (3000 с.)			Очи в очи - контактна емисија во живо			
17:00			11-05-2016			11-05-2016 17:45			45 м. (2700 с.)			Дневник 17			
17:45			11-05-2016			11-05-2016 18:00			15 м. (900 с.)			Спортски вести			
18:00			11-05-2016			11-05-2016 18:02			2 м. (120 с.)			Вести			
18:02			11-05-2016			11-05-2016 18:30			28 м. (1680 с.)			Документарна емисија			
18:30			11-05-2016			11-05-2016 19:00			30 м. (1800 с.)			Телешоп			
19:00			11-05-2016			11-05-2016 19:15			15 м. (900 с.)			Вести 19			
19:15			11-05-2016			11-05-2016 19:40			25 м. (1500 с.)			Трета порта			
19:40			11-05-2016			11-05-2016 20:00			20 м. (1200 с.)			Гласот на Америка			
20:00			11-05-2016			11-05-2016 20:40			40 м. (2400 с.)			Дневник 20			
20:40			11-05-2016			11-05-2016 21:00			20 м. (1200 с.)			Германија денес - магазин			
21:00			11-05-2016			11-05-2016 22:00			60 м. (3600 с.)			Анализа - дебатна емисија			
22:00			11-05-2016			11-05-2016 22:45			45 м. (2700 с.)			Дневник 22			
22:45			11-05-2016			11-05-2016 23:00			15 м. (900 с.)			Спортски вести			
23:00			11-05-2016			11-05-2016 23:02			2 м. (120 с.)			Вести			
23:02			11-05-2016			11-05-2016 23:15			13 м. (780 с.)			Телешоп			
23:15			11-05-2016			12-05-2016 00:00			45 м. (2700 с.)			Автоплус - емисија за автомобилизам			
00:00			12-05-2016			12-05-2016 01:00			60 м. (3600 с.)			Дневник			
01:00			12-05-2016			12-05-2016 02:00			60 м. (3600 с.)			24 Вести 01:00			
02:00			12-05-2016			12-05-2016 06:00			240 м. (14400 с.)			24 Вести 02:00			
06:00			12-05-2016			12-05-2016 07:00			60 м. (3600 с.)			24 Вести 06:00			
07:00			12-05-2016			12-05-2016 07:02			2 м. (120 с.)			Вести			
07:02			12-05-2016			12-05-2016 07:15			13 м. (780 с.)			Телешоп			
07:15			12-05-2016			12-05-2016 07:45			30 м. (1800 с.)			Песна до песна - народна музика			
07:45			12-05-2016			12-05-2016 08:00			15 м. (900 с.)			Германија денес - магазин			
08:00			12-05-2016			12-05-2016 08:02			2 м. (120 с.)			Вести			
08:02			12-05-2016			12-05-2016 08:05			3 м. (180 с.)			24 Најава на програма			
08:05			12-05-2016			12-05-2016 09:00			55 м. (3300 с.)			Очи в очи - контактна емисија			
09:00			12-05-2016			12-05-2016 09:10			10 м. (600 с.)			Вести			
09:10			12-05-2016			12-05-2016 10:00			50 м. (3000 с.)			24 Од се срце - контактна емисија			
10:00			12-05-2016			12-05-2016 10:10			10 м. (600 с.)			Вести			
10:10			12-05-2016			12-05-2016 10:30			20 м. (1200 с.)			Телешоп			
10:30			12-05-2016			12-05-2016 11:00			30 м. (1800 с.)			Трета порта			
11:00			12-05-2016			12-05-2016 11:02			2 м. (120 с.)			Вести			
11:02			12-05-2016			12-05-2016 12:00			58 м. (3480 с.)			Анализа - дебатна емисија			
12:00			12-05-2016			12-05-2016 12:15			15 м. (900 с.)			Вести 12			
12:15			12-05-2016			12-05-2016 12:30			15 м. (900 с.)			Телешоп			
12:30			12-05-2016			12-05-2016 13:00			30 м. (1800 с.)			Слушни ја мојата песна - забавна музика			
13:00			12-05-2016			12-05-2016 13:02			2 м. (120 с.)			Вести			
13:02			12-05-2016			12-05-2016 14:00			58 м. (3480 с.)			Скаи Селекшн - забавна емисија			
14:00			12-05-2016			12-05-2016 14:10			10 м. (600 с.)			Вести 14			
14:10			12-05-2016			12-05-2016 15:00			50 м. (3000 с.)			24 За животот - контактна емисија			
15:00			12-05-2016			12-05-2016 15:10			10 м. (600 с.)			Вести			
15:10			12-05-2016			12-05-2016 16:00			50 м. (3000 с.)			Фактор Здравје – контактна емисија			
16:00			12-05-2016			12-05-2016 16:10			10 м. (600 с.)			Вести 16			
16:10			12-05-2016			12-05-2016 17:00			50 м. (3000 с.)			Очи в очи - контактна емисија во живо			
17:00			12-05-2016			12-05-2016 17:45			45 м. (2700 с.)			Дневник 17			
17:45			12-05-2016			12-05-2016 18:00			15 м. (900 с.)			Спортски вести			
18:00			12-05-2016			12-05-2016 18:02			2 м. (120 с.)			Вести			
18:02			12-05-2016			12-05-2016 19:00			58 м. (3480 с.)			Документарна програма			
19:00			12-05-2016			12-05-2016 19:15			15 м. (900 с.)			Вести 19			
19:15			12-05-2016			12-05-2016 19:40			25 м. (1500 с.)			Евродрум - надворешно политичка емисија			
19:40			12-05-2016			12-05-2016 20:00			20 м. (1200 с.)			Гласот на Америка			
20:00			12-05-2016			12-05-2016 20:45			45 м. (2700 с.)			Дневник 20			
20:45			12-05-2016			12-05-2016 21:00			15 м. (900 с.)			Германија денес			
21:00			12-05-2016			12-05-2016 22:00			60 м. (3600 с.)			Вин Вин - дебатна емисија			
22:00			12-05-2016			12-05-2016 22:45			45 м. (2700 с.)			Дневник 22			
22:45			12-05-2016			12-05-2016 23:00			15 м. (900 с.)			Спортски вести			
23:00			12-05-2016			12-05-2016 23:02			2 м. (120 с.)			Вести			
23:02			12-05-2016			12-05-2016 23:15			13 м. (780 с.)			Телешоп			
23:15			12-05-2016			13-05-2016 00:00			45 м. (2700 с.)			Магична сцена - емисија за култура			
00:00			13-05-2016			13-05-2016 01:00			60 м. (3600 с.)			Дневник			
01:00			13-05-2016			13-05-2016 02:00			60 м. (3600 с.)			24 Вести 01:00			
02:00			13-05-2016			13-05-2016 06:00			240 м. (14400 с.)			24 Вести 02:00			
06:00			13-05-2016			13-05-2016 07:00			60 м. (3600 с.)			24 Вести 06:00			
07:00			13-05-2016			13-05-2016 07:02			2 м. (120 с.)			Вести			
07:02			13-05-2016			13-05-2016 07:15			13 м. (780 с.)			Телешоп			
07:15			13-05-2016			13-05-2016 07:45			30 м. (1800 с.)			Народна музика			
07:45			13-05-2016			13-05-2016 08:00			15 м. (900 с.)			Германија денес - магазин			
08:00			13-05-2016			13-05-2016 08:02			2 м. (120 с.)			Вести			
08:02			13-05-2016			13-05-2016 08:05			3 м. (180 с.)			24 најава на програма			
08:05			13-05-2016			13-05-2016 09:00			55 м. (3300 с.)			Очи в очи - контактна емисија			
09:00			13-05-2016			13-05-2016 09:10			10 м. (600 с.)			Вести			
09:10			13-05-2016			13-05-2016 10:00			50 м. (3000 с.)			24 Од се срце - контактна емисија			
10:00			13-05-2016			13-05-2016 10:10			10 м. (600 с.)			Вести			
10:10			13-05-2016			13-05-2016 10:30			20 м. (1200 с.)			Телешоп			
10:30			13-05-2016			13-05-2016 11:00			30 м. (1800 с.)			Ретро во ретро			
11:00			13-05-2016			13-05-2016 11:02			2 м. (120 с.)			Вести			
11:02			13-05-2016			13-05-2016 12:00			58 м. (3480 с.)			Анализа - дебатна емисија			
12:00			13-05-2016			13-05-2016 12:20			20 м. (1200 с.)			Вести 12			
12:20			13-05-2016			13-05-2016 12:30			10 м. (600 с.)			Временска прогноза			
12:30			13-05-2016			13-05-2016 13:00			30 м. (1800 с.)			Хит топ 7 - забавна музика			
13:00			13-05-2016			13-05-2016 13:02			2 м. (120 с.)			Вести			
13:02			13-05-2016			13-05-2016 13:30			28 м. (1680 с.)			Авто плус - емисија за автомобилизам			
13:30			13-05-2016			13-05-2016 14:00			30 м. (1800 с.)			Шифт - магазин			
14:00			13-05-2016			13-05-2016 14:10			10 м. (600 с.)			Вести 14			
14:10			13-05-2016			13-05-2016 15:00			50 м. (3000 с.)			24 За животот - контактна емисија			
15:00			13-05-2016			13-05-2016 15:10			10 м. (600 с.)			Вести			
15:10			13-05-2016			13-05-2016 16:00			50 м. (3000 с.)			Фактор Здравје – контактна емисија			
16:00			13-05-2016			13-05-2016 16:10			10 м. (600 с.)			Вести 16			
16:10			13-05-2016			13-05-2016 17:00			50 м. (3000 с.)			Очи в Очи - контактна емисија			
17:00			13-05-2016			13-05-2016 17:45			45 м. (2700 с.)			Дневник 17			
17:45			13-05-2016			13-05-2016 18:00			15 м. (900 с.)			Спортски вести			
18:00			13-05-2016			13-05-2016 18:02			2 м. (120 с.)			Вести - Макфакс			
18:02			13-05-2016			13-05-2016 18:30			28 м. (1680 с.)			На Шанк - забавна емисија			
18:30			13-05-2016			13-05-2016 19:00			30 м. (1800 с.)			Телешоп			
19:00			13-05-2016			13-05-2016 19:15			15 м. (900 с.)			Вести 19			
19:15			13-05-2016			13-05-2016 19:40			25 м. (1500 с.)			Културна матрица - емисија за култура			
19:40			13-05-2016			13-05-2016 20:00			20 м. (1200 с.)			Гласот на Америка			
20:00			13-05-2016			13-05-2016 20:45			45 м. (2700 с.)			Дневник 20			
20:45			13-05-2016			13-05-2016 21:00			15 м. (900 с.)			Германија денес			
21:00			13-05-2016			13-05-2016 22:00			60 м. (3600 с.)			24 Анализа - дебатна емисија			
22:00			13-05-2016			13-05-2016 22:45			45 м. (2700 с.)			Дневник 22			
22:45			13-05-2016			13-05-2016 23:00			15 м. (900 с.)			Спортски вести			
23:00			13-05-2016			13-05-2016 23:02			2 м. (120 с.)			Вести			
23:02			13-05-2016			13-05-2016 23:15			13 м. (780 с.)			Телешоп			
23:15			13-05-2016			14-05-2016 00:00			45 м. (2700 с.)			На Шанк - забавна емисија			
00:00			14-05-2016			14-05-2016 02:00			120 м. (7200 с.)			Дневник			
02:00			14-05-2016			14-05-2016 04:00			120 м. (7200 с.)			24 Вести 02:00			
04:00			14-05-2016			14-05-2016 08:00			240 м. (14400 с.)			24 Вести 04:00			
08:00			14-05-2016			14-05-2016 12:00			240 м. (14400 с.)			24 Вести 08:00			
12:00			14-05-2016			14-05-2016 16:00			240 м. (14400 с.)			24 Вести 12:00			
16:00			14-05-2016			14-05-2016 20:00			240 м. (14400 с.)			24 Вести 16:00			
20:00			14-05-2016			15-05-2016 00:00			240 м. (14400 с.)			24 Вести 20:00			
00:00			15-05-2016			15-05-2016 04:00			240 м. (14400 с.)			24 Вести 00:00			
04:00			15-05-2016			15-05-2016 08:00			240 м. (14400 с.)			24 Вести 04:00			
08:00			15-05-2016			15-05-2016 12:00			240 м. (14400 с.)			24 Вести 08:00			
12:00			15-05-2016			15-05-2016 16:00			240 м. (14400 с.)			24 Вести 12:00			
16:00			15-05-2016			15-05-2016 20:00			240 м. (14400 с.)			24 Вести 16:00			
20:00			15-05-2016			16-05-2016 00:00			240 м. (14400 с.)			24 Вести 20:00			
00:00			16-05-2016			16-05-2016 04:00			240 м. (14400 с.)			24 Вести 00:00			
04:00			16-05-2016			16-05-2016 08:00			240 м. (14400 с.)			24 Вести 04:00			
08:00			16-05-2016			16-05-2016 12:00			240 м. (14400 с.)			24 Вести 08:00			
12:00			16-05-2016			16-05-2016 16:00			240 м. (14400 с.)			24 Вести 12:00			
16:00			16-05-2016			16-05-2016 20:00			240 м. (14400 с.)			24 Вести 16:00			
20:00			16-05-2016			17-05-2016 00:00			240 м. (14400 с.)			24 Вести 20:00			
00:00			17-05-2016			17-05-2016 04:00			240 м. (14400 с.)			24 Вести 00:00			
04:00			17-05-2016			17-05-2016 08:00			240 м. (14400 с.)			24 Вести 04:00			
08:00			17-05-2016			17-05-2016 12:00			240 м. (14400 с.)			24 Вести 08:00			
12:00			17-05-2016			17-05-2016 16:00			240 м. (14400 с.)			24 Вести 12:00			
16:00			17-05-2016			17-05-2016 20:00			240 м. (14400 с.)			24 Вести 16:00			
20:00			17-05-2016			18-05-2016 00:00			240 м. (14400 с.)			24 Вести 20:00			
00:00			18-05-2016			18-05-2016 04:00			240 м. (14400 с.)			24 Вести 00:00			
04:00			18-05-2016			18-05-2016 08:00			240 м. (14400 с.)			24 Вести 04:00			
08:00			18-05-2016			18-05-2016 12:00			240 м. (14400 с.)			24 Вести 08:00			
12:00			18-05-2016			18-05-2016 16:00			240 м. (14400 с.)			24 Вести 12:00			
16:00			18-05-2016			18-05-2016 20:00			240 м. (14400 с.)			24 Вести 16:00			
20:00			18-05-2016			19-05-2016 00:00			240 м. (14400 с.)			24 Вести 20:00			
00:00			19-05-2016			19-05-2016 04:00			240 м. (14400 с.)			24 Вести 00:00			
04:00			19-05-2016			19-05-2016 08:00			240 м. (14400 с.)			24 Вести 04:00			
08:00			19-05-2016			19-05-2016 12:00			240 м. (14400 с.)			24 Вести 08:00			
12:00			19-05-2016			19-05-2016 16:00			240 м. (14400 с.)			24 Вести 12:00			
16:00			19-05-2016			19-05-2016 20:00			240 м. (14400 с.)			24 Вести 16:00			
20:00			19-05-2016			20-05-2016 00:00			240 м. (14400 с.)			24 Вести 20:00			
00:00			20-05-2016			20-05-2016 04:00			240 м. (14400 с.)			24 Вести 00:00			
04:00			20-05-2016			20-05-2016 08:00			240 м. (14400 с.)			24 Вести 04:00			
08:00			20-05-2016			20-05-2016 12:00			240 м. (14400 с.)			24 Вести 08:00			
12:00			20-05-2016			20-05-2016 16:00			240 м. (14400 с.)			24 Вести 12:00			
16:00			20-05-2016			20-05-2016 20:00			240 м. (14400 с.)			24 Вести 16:00			
20:00			20-05-2016			21-05-2016 00:00			240 м. (14400 с.)			24 Вести 20:00			
00:00			21-05-2016			21-05-2016 04:00			240 м. (14400 с.)			24 Вести 00:00			
04:00			21-05-2016			21-05-2016 08:00			240 м. (14400 с.)			24 Вести 04:00			
08:00			21-05-2016			21-05-2016 12:00			240 м. (14400 с.)			24 Вести 08:00			
12:00			21-05-2016			21-05-2016 16:00			240 м. (14400 с.)			24 Вести 12:00			
16:00			21-05-2016			21-05-2016 20:00			240 м. (14400 с.)			24 Вести 16:00			
20:00			21-05-2016			22-05-2016 00:00			240 м. (14400 с.)			24 Вести 20:00			
00:00			22-05-2016			22-05-2016 04:00			240 м. (14400 с.)			24 Вести 00:00			
04:00			22-05-2016			22-05-2016 08:00			240 м. (14400 с.)			24 Вести 04:00			
08:00			22-05-2016			22-05-2016 12:00			240 м. (14400 с.)			24 Вести 08:00			
12:00			22-05-2016			22-05-2016 16:00			240 м. (14400 с.)			24 Вести 12:00			
16:00			22-05-2016			22-05-2016 20:00			240 м. (14400 с.)			24 Вести 16:00			
20:00			22-05-2016			23-05-2016 00:00			240 м. (14400 с.)			24 Вести 20:00			
00:00			23-05-2016			23-05-2016 04:00			240 м. (14400 с.)			24 Вести 00:00			
04:00			23-05-2016			23-05-2016 08:00			240 м. (14400 с.)			24 Вести 04:00			
08:00			23-05-2016			23-05-2016 12:00			240 м. (14400 с.)			24 Вести 08:00			
12:00			23-05-2016			23-05-2016 16:00			240 м. (14400 с.)			24 Вести 12:00			
16:00			23-05-2016			23-05-2016 20:00			240 м. (14400 с.)			24 Вести 16:00			
20:00			23-05-2016			24-05-2016 00:00			240 м. (14400 с.)			24 Вести 20:00			
00:00			24-05-2016			24-05-2016 04:00			240 м. (14400 с.)			24 Вести 00:00			
04:00			24-05-2016			24-05-2016 08:00			240 м. (14400 с.)			24 Вести 04:00			
08:00			24-05-2016			24-05-2016 12:00			240 м. (14400 с.)			24 Вести 08:00			
12:00			24-05-2016			24-05-2016 16:00			240 м. (14400 с.)			24 Вести 12:00			
16:00			24-05-2016			24-05-2016 20:00			240 м. (14400 с.)			24 Вести 16:00			
20:00			24-05-2016			25-05-2016 00:00			240 м. (14400 с.)			24 Вести 20:00			
00:00			25-05-2016			25-05-2016 04:00			240 м. (14400 с.)			24 Вести 00:00			
04:00			25-05-2016			25-05-2016 08:00			240 м. (14400 с.)			24 Вести 04:00			
08:00			25-05-2016			25-05-2016 12:00			240 м. (14400 с.)			24 Вести 08:00			
12:00			25-05-2016			25-05-2016 16:00			240 м. (14400 с.)			24 Вести 12:00			
16:00			25-05-2016			25-05-2016 20:00			240 м. (14400 с.)			24 Вести 16:00			
20:00			25-05-2016			26-05-2016 00:00			240 м. (14400 с.)			24 Вести 20:00			
00:00			26-05-2016			26-05-2016 04:00			240 м. (14400 с.)			24 Вести 00:00			
04:00			26-05-2016			26-05-2016 08:00			240 м. (14400 с.)			24 Вести 04:00			
08:00			26-05-2016			26-05-2016 12:00			240 м. (14400 с.)			24 Вести 08:00			
12:00			26-05-2016			26-05-2016 16:00			240 м. (14400 с.)			24 Вести 12:00			
16:00			26-05-2016			26-05-2016 20:00			240 м. (14400 с.)			24 Вести 16:00			
20:00			26-05-2016			27-05-2016 00:00			240 м. (14400 с.)			24 Вести 20:00			
00:00			27-05-2016			27-05-2016 04:00			240 м. (14400 с.)			24 Вести 00:00			
04:00			27-05-2016			27-05-2016 08:00			240 м. (14400 с.)			24 Вести 04:00			
08:00			27-05-2016			27-05-2016 12:00			240 м. (14400 с.)			24 Вести 08:00			
12:00			27-05-2016			27-05-2016 16:00			240 м. (14400 с.)			24 Вести 12:00			
16:00			27-05-2016			27-05-2016 20:00			240 м. (14400 с.)			24 Вести 16:00			
20:00			27-05-2016			28-05-2016 00:00			240 м. (14400 с.)			24 Вести 20:00			
00:00			28-05-2016			28-05-2016 04:00			240 м. (14400 с.)			24 Вести 00:00			
04:00			28-05-2016			28-05-2016 08:00			240 м. (14400 с.)			24 Вести 04:00			
08:00			28-05-2016			28-05-2016 12:00			240 м. (14400 с.)			24 Вести 08:00			
12:00			28-05-2016			28-05-2016 16:00			240 м. (14400 с.)			24 Вести 12:00			
16:00			28-05-2016			28-05-2016 20:00			240 м. (14400 с.)			24 Вести 16:00			
20:00			28-05-2016			29-05-2016 00:00			240 м. (14400 с.)			24 Вести 20:00			
00:00			29-05-2016			29-05-2016 04:00			240 м. (14400 с.)			24 Вести 00:00			
04:00			29-05-2016			29-05-2016 08:00			240 м. (14400 с.)			24 Вести 04:00			
08:00			29-05-2016			29-05-2016 12:00			240 м. (14400 с.)			24 Вести 08:00			
12:00			29-05-2016			29-05-2016 16:00			240 м. (14400 с.)			24 Вести 12:00			
16:00			29-05-2016			29-05-2016 20:00			240 м. (14400 с.)			24 Вести 16:00			
20:00			29-05-2016			30-05-2016 00:00			240 м. (14400 с.)			24 Вести 20:00			
00:00			30-05-2016			30-05-2016 04:00			240 м. (14400 с.)			24 Вести 00:00			
04:00			30-05-2016			30-05-2016 08:00			240 м. (14400 с.)			24 Вести 04:00			
08:00			30-05-2016			30-05-2016 12:00			240 м. (14400 с.)			24 Вести 08:00			
12:00			30-05-2016			30-05-2016 16:00			240 м. (14400 с.)			24 Вести 12:00			
16:00			30-05-2016			30-05-2016 20:00			240 м. (14400 с.)			24 Вести 16:00			
20:00			30-05-2016			31-05-2016 00:00			240 м. (14400 с.)			24 Вести 20:00			
00:00			31-05-2016			31-05-2016 04:00			240 м. (14400 с.)			24 Вести 00:00			
04:00			31-05-2016			31-05-2016 08:00			240 м. (14400 с.)			24 Вести 04:00			
08:00			31-05-2016			31-05-2016 12:00			240 м. (14400 с.)			24 Вести 08:00			
12:00			31-05-2016			31-05-2016 16:00			240 м. (14400 с.)			24 Вести 12:00			
16:00			31-05-2016			31-05-2016 20:00			240 м. (14400 с.)			24 Вести 16:00			
20:00			31-05-2016			01-06-2016 00:00			240 м. (14400 с.)			24 Вести 20:00			
