ПОЧЕТНО ВРЕМЕ	ПОЧЕТНА ДАТА		КРАЈНА ДАТА					ВРЕМЕТРАЕЊЕ				НАСЛОВ			
17:40			01-05-2016			01-05-2016 18:10			30 м. (1800 с.)			Мелница			
18:10			01-05-2016			01-05-2016 19:01			51 м. (3060 с.)			Квантико			
19:01			01-05-2016			01-05-2016 19:56			55 м. (3300 с.)			Квантико			
19:56			01-05-2016			01-05-2016 20:52			56 м. (3360 с.)			Империја			
20:52			01-05-2016			01-05-2016 22:10			78 м. (4680 с.)			Народот против О’Џеј Симпсон: Американска криминална п...			
22:10			01-05-2016			02-05-2016 00:31			141 м. (8460 с.)			За 60 секунди			
00:31			02-05-2016			02-05-2016 02:08			97 м. (5820 с.)			Икс-фактор САД			
02:08			02-05-2016			02-05-2016 02:56			48 м. (2880 с.)			Икс-фактор САД			
02:56			02-05-2016			02-05-2016 03:44			48 м. (2880 с.)			НЦИС			
03:44			02-05-2016			02-05-2016 04:31			47 м. (2820 с.)			НЦИС			
04:31			02-05-2016			02-05-2016 05:16			45 м. (2700 с.)			НЦИС			
05:16			02-05-2016			02-05-2016 05:20			4 м. (240 с.)			НЦИС			
05:20			02-05-2016			02-05-2016 06:00			40 м. (2400 с.)			НЦИС			
06:00			02-05-2016			02-05-2016 06:25			25 м. (1500 с.)			Најсмешните домашни видеа			
06:25			02-05-2016			02-05-2016 07:10			45 м. (2700 с.)			НЦИС			
07:10			02-05-2016			02-05-2016 08:05			55 м. (3300 с.)			НЦИС			
08:05			02-05-2016			02-05-2016 09:10			65 м. (3900 с.)			Татковина			
09:10			02-05-2016			02-05-2016 09:35			25 м. (1500 с.)			Современо семејство			
09:35			02-05-2016			02-05-2016 10:00			25 м. (1500 с.)			Современо семејство			
10:00			02-05-2016			02-05-2016 10:50			50 м. (3000 с.)			Коски			
10:50			02-05-2016			02-05-2016 11:40			50 м. (3000 с.)			Коски			
11:40			02-05-2016			02-05-2016 12:10			30 м. (1800 с.)			Голдбергови			
12:10			02-05-2016			02-05-2016 12:40			30 м. (1800 с.)			Голдбергови			
12:40			02-05-2016			02-05-2016 14:55			135 м. (8100 с.)			За 60 секунди			
14:55			02-05-2016			02-05-2016 15:20			25 м. (1500 с.)			Најсмешните домашни видеа			
15:20			02-05-2016			02-05-2016 15:50			30 м. (1800 с.)			Мелница			
15:50			02-05-2016			02-05-2016 16:15			25 м. (1500 с.)			Мелница			
16:15			02-05-2016			02-05-2016 17:05			50 м. (3000 с.)			НЦИС			
17:05			02-05-2016			02-05-2016 18:00			55 м. (3300 с.)			НЦИС			
18:00			02-05-2016			02-05-2016 18:30			30 м. (1800 с.)			Современо семејство			
18:30			02-05-2016			02-05-2016 19:00			30 м. (1800 с.)			Современо семејство			
19:00			02-05-2016			02-05-2016 19:30			30 м. (1800 с.)			Симпсонови			
19:30			02-05-2016			02-05-2016 20:00			30 м. (1800 с.)			Семеен човек			
20:00			02-05-2016			02-05-2016 20:30			30 м. (1800 с.)			Голдбергови			
20:30			02-05-2016			02-05-2016 21:00			30 м. (1800 с.)			Голдбергови			
21:00			02-05-2016			02-05-2016 22:00			60 м. (3600 с.)			Квантико			
22:00			02-05-2016			02-05-2016 22:55			55 м. (3300 с.)			11.22.63			
22:55			02-05-2016			02-05-2016 23:50			55 м. (3300 с.)			Криминалци во костуми			
23:50			02-05-2016			03-05-2016 00:45			55 м. (3300 с.)			Касл			
00:45			03-05-2016			03-05-2016 01:55			70 м. (4200 с.)			Татковина			
01:55			03-05-2016			03-05-2016 02:40			45 м. (2700 с.)			Коски			
02:40			03-05-2016			03-05-2016 03:25			45 м. (2700 с.)			Коски			
03:25			03-05-2016			03-05-2016 04:10			45 м. (2700 с.)			Касл			
04:10			03-05-2016			03-05-2016 04:55			45 м. (2700 с.)			Татковина			
04:55			03-05-2016			03-05-2016 05:20			25 м. (1500 с.)			Таму некаде			
05:20			03-05-2016			03-05-2016 05:40			20 м. (1200 с.)			Семеен човек			
05:40			03-05-2016			03-05-2016 06:00			20 м. (1200 с.)			Симпсонови			
06:00			03-05-2016			03-05-2016 06:25			25 м. (1500 с.)			Најсмешните домашни видеа			
06:25			03-05-2016			03-05-2016 07:10			45 м. (2700 с.)			НЦИС			
07:10			03-05-2016			03-05-2016 08:05			55 м. (3300 с.)			НЦИС			
08:05			03-05-2016			03-05-2016 09:10			65 м. (3900 с.)			Татковина			
09:10			03-05-2016			03-05-2016 09:35			25 м. (1500 с.)			Современо семејство			
09:35			03-05-2016			03-05-2016 10:00			25 м. (1500 с.)			Современо семејство			
10:00			03-05-2016			03-05-2016 10:50			50 м. (3000 с.)			Коски			
10:50			03-05-2016			03-05-2016 11:40			50 м. (3000 с.)			Коски			
11:40			03-05-2016			03-05-2016 12:10			30 м. (1800 с.)			Голдбергови			
12:10			03-05-2016			03-05-2016 12:35			25 м. (1500 с.)			Голдбергови			
12:35			03-05-2016			03-05-2016 13:30			55 м. (3300 с.)			Квантико			
13:30			03-05-2016			03-05-2016 14:25			55 м. (3300 с.)			11.22.63			
14:25			03-05-2016			03-05-2016 14:55			30 м. (1800 с.)			Симпсонови			
14:55			03-05-2016			03-05-2016 15:20			25 м. (1500 с.)			Најсмешните домашни видеа			
15:20			03-05-2016			03-05-2016 16:15			55 м. (3300 с.)			Криминалци во костуми			
16:15			03-05-2016			03-05-2016 17:05			50 м. (3000 с.)			НЦИС			
17:05			03-05-2016			03-05-2016 18:00			55 м. (3300 с.)			НЦИС			
18:00			03-05-2016			03-05-2016 18:30			30 м. (1800 с.)			Современо семејство			
18:30			03-05-2016			03-05-2016 19:00			30 м. (1800 с.)			Современо семејство			
19:00			03-05-2016			03-05-2016 19:30			30 м. (1800 с.)			Симпсонови			
19:30			03-05-2016			03-05-2016 20:00			30 м. (1800 с.)			Семеен човек			
20:00			03-05-2016			03-05-2016 20:30			30 м. (1800 с.)			Голдбергови			
20:30			03-05-2016			03-05-2016 21:00			30 м. (1800 с.)			Голдбергови			
21:00			03-05-2016			03-05-2016 22:00			60 м. (3600 с.)			Квантико			
22:00			03-05-2016			03-05-2016 22:55			55 м. (3300 с.)			Касл			
22:55			03-05-2016			03-05-2016 23:50			55 м. (3300 с.)			Криминалци во костуми			
23:50			03-05-2016			04-05-2016 00:45			55 м. (3300 с.)			Касл			
00:45			04-05-2016			04-05-2016 01:35			50 м. (3000 с.)			Татковина			
01:35			04-05-2016			04-05-2016 01:55			20 м. (1200 с.)			Таму некаде			
01:55			04-05-2016			04-05-2016 02:40			45 м. (2700 с.)			Коски			
02:40			04-05-2016			04-05-2016 03:25			45 м. (2700 с.)			Коски			
03:25			04-05-2016			04-05-2016 04:10			45 м. (2700 с.)			Касл			
04:10			04-05-2016			04-05-2016 04:55			45 м. (2700 с.)			Татковина			
04:55			04-05-2016			04-05-2016 05:20			25 м. (1500 с.)			Таму некаде			
05:20			04-05-2016			04-05-2016 05:40			20 м. (1200 с.)			Семеен човек			
05:40			04-05-2016			04-05-2016 06:00			20 м. (1200 с.)			Симпсонови			
06:00			04-05-2016			04-05-2016 06:25			25 м. (1500 с.)			Најсмешните домашни видеа			
06:25			04-05-2016			04-05-2016 07:10			45 м. (2700 с.)			НЦИС			
07:10			04-05-2016			04-05-2016 08:05			55 м. (3300 с.)			НЦИС			
08:05			04-05-2016			04-05-2016 09:10			65 м. (3900 с.)			Татковина			
09:10			04-05-2016			04-05-2016 09:35			25 м. (1500 с.)			Современо семејство			
09:35			04-05-2016			04-05-2016 10:00			25 м. (1500 с.)			Современо семејство			
10:00			04-05-2016			04-05-2016 10:50			50 м. (3000 с.)			Коски			
10:50			04-05-2016			04-05-2016 11:40			50 м. (3000 с.)			Коски			
11:40			04-05-2016			04-05-2016 12:10			30 м. (1800 с.)			Голдбергови			
12:10			04-05-2016			04-05-2016 12:35			25 м. (1500 с.)			Голдбергови			
12:35			04-05-2016			04-05-2016 13:30			55 м. (3300 с.)			Квантико			
13:30			04-05-2016			04-05-2016 14:25			55 м. (3300 с.)			Касл			
14:25			04-05-2016			04-05-2016 14:55			30 м. (1800 с.)			Симпсонови			
14:55			04-05-2016			04-05-2016 15:20			25 м. (1500 с.)			Најсмешните домашни видеа			
15:20			04-05-2016			04-05-2016 16:15			55 м. (3300 с.)			Криминалци во костуми			
16:15			04-05-2016			04-05-2016 17:05			50 м. (3000 с.)			НЦИС			
17:05			04-05-2016			04-05-2016 18:00			55 м. (3300 с.)			НЦИС			
18:00			04-05-2016			04-05-2016 18:30			30 м. (1800 с.)			Современо семејство			
18:30			04-05-2016			04-05-2016 19:00			30 м. (1800 с.)			Современо семејство			
19:00			04-05-2016			04-05-2016 19:30			30 м. (1800 с.)			Симпсонови			
19:30			04-05-2016			04-05-2016 20:00			30 м. (1800 с.)			Семеен човек			
20:00			04-05-2016			04-05-2016 20:30			30 м. (1800 с.)			Голдбергови			
20:30			04-05-2016			04-05-2016 21:00			30 м. (1800 с.)			Голдбергови			
21:00			04-05-2016			04-05-2016 22:00			60 м. (3600 с.)			Квантико			
22:00			04-05-2016			04-05-2016 22:55			55 м. (3300 с.)			Касл			
22:55			04-05-2016			04-05-2016 23:50			55 м. (3300 с.)			Криминалци во костуми			
23:50			04-05-2016			05-05-2016 00:45			55 м. (3300 с.)			Касл			
00:45			05-05-2016			05-05-2016 01:35			50 м. (3000 с.)			Татковина			
01:35			05-05-2016			05-05-2016 01:55			20 м. (1200 с.)			Таму некаде			
01:55			05-05-2016			05-05-2016 02:40			45 м. (2700 с.)			Коски			
02:40			05-05-2016			05-05-2016 03:25			45 м. (2700 с.)			Коски			
03:25			05-05-2016			05-05-2016 04:10			45 м. (2700 с.)			Касл			
04:10			05-05-2016			05-05-2016 04:55			45 м. (2700 с.)			Татковина			
04:55			05-05-2016			05-05-2016 05:20			25 м. (1500 с.)			Таму некаде			
05:20			05-05-2016			05-05-2016 05:40			20 м. (1200 с.)			Семеен човек			
05:40			05-05-2016			05-05-2016 06:00			20 м. (1200 с.)			Симпсонови			
06:00			05-05-2016			05-05-2016 06:25			25 м. (1500 с.)			Најсмешните домашни видеа			
06:25			05-05-2016			05-05-2016 07:10			45 м. (2700 с.)			НЦИС			
07:10			05-05-2016			05-05-2016 08:05			55 м. (3300 с.)			НЦИС			
08:05			05-05-2016			05-05-2016 09:10			65 м. (3900 с.)			Татковина			
09:10			05-05-2016			05-05-2016 09:35			25 м. (1500 с.)			Современо семејство			
09:35			05-05-2016			05-05-2016 10:00			25 м. (1500 с.)			Современо семејство			
10:00			05-05-2016			05-05-2016 10:50			50 м. (3000 с.)			Коски			
10:50			05-05-2016			05-05-2016 11:40			50 м. (3000 с.)			Коски			
11:40			05-05-2016			05-05-2016 12:10			30 м. (1800 с.)			Голдбергови			
12:10			05-05-2016			05-05-2016 12:35			25 м. (1500 с.)			Голдбергови			
12:35			05-05-2016			05-05-2016 13:30			55 м. (3300 с.)			Квантико			
13:30			05-05-2016			05-05-2016 14:25			55 м. (3300 с.)			Касл			
14:25			05-05-2016			05-05-2016 14:55			30 м. (1800 с.)			Симпсонови			
14:55			05-05-2016			05-05-2016 15:20			25 м. (1500 с.)			Најсмешните домашни видеа			
15:20			05-05-2016			05-05-2016 16:15			55 м. (3300 с.)			Криминалци во костуми			
16:15			05-05-2016			05-05-2016 17:05			50 м. (3000 с.)			НЦИС			
17:05			05-05-2016			05-05-2016 18:00			55 м. (3300 с.)			НЦИС			
18:00			05-05-2016			05-05-2016 18:30			30 м. (1800 с.)			Современо семејство			
18:30			05-05-2016			05-05-2016 19:00			30 м. (1800 с.)			Современо семејство			
19:00			05-05-2016			05-05-2016 19:30			30 м. (1800 с.)			Симпсонови			
19:30			05-05-2016			05-05-2016 20:00			30 м. (1800 с.)			Семеен човек			
20:00			05-05-2016			05-05-2016 20:30			30 м. (1800 с.)			Голдбергови			
20:30			05-05-2016			05-05-2016 21:00			30 м. (1800 с.)			Голдбергови			
21:00			05-05-2016			05-05-2016 22:00			60 м. (3600 с.)			Квантико			
22:00			05-05-2016			05-05-2016 22:55			55 м. (3300 с.)			Империја			
22:55			05-05-2016			05-05-2016 23:50			55 м. (3300 с.)			Црн список			
23:50			05-05-2016			06-05-2016 00:45			55 м. (3300 с.)			Касл			
00:45			06-05-2016			06-05-2016 01:35			50 м. (3000 с.)			Татковина			
01:35			06-05-2016			06-05-2016 01:55			20 м. (1200 с.)			Таму некаде			
01:55			06-05-2016			06-05-2016 02:40			45 м. (2700 с.)			Коски			
02:40			06-05-2016			06-05-2016 03:25			45 м. (2700 с.)			Коски			
03:25			06-05-2016			06-05-2016 04:10			45 м. (2700 с.)			Касл			
04:10			06-05-2016			06-05-2016 04:55			45 м. (2700 с.)			Татковина			
04:55			06-05-2016			06-05-2016 05:20			25 м. (1500 с.)			Таму некаде			
05:20			06-05-2016			06-05-2016 05:40			20 м. (1200 с.)			Семеен човек			
05:40			06-05-2016			06-05-2016 06:00			20 м. (1200 с.)			Симпсонови			
06:00			06-05-2016			06-05-2016 06:25			25 м. (1500 с.)			Најсмешните домашни видеа			
06:25			06-05-2016			06-05-2016 07:10			45 м. (2700 с.)			НЦИС			
07:10			06-05-2016			06-05-2016 08:05			55 м. (3300 с.)			НЦИС			
08:05			06-05-2016			06-05-2016 09:10			65 м. (3900 с.)			Татковина			
09:10			06-05-2016			06-05-2016 09:35			25 м. (1500 с.)			Современо семејство			
09:35			06-05-2016			06-05-2016 10:00			25 м. (1500 с.)			Современо семејство			
10:00			06-05-2016			06-05-2016 10:50			50 м. (3000 с.)			Коски			
10:50			06-05-2016			06-05-2016 11:40			50 м. (3000 с.)			Коски			
11:40			06-05-2016			06-05-2016 12:10			30 м. (1800 с.)			Голдбергови			
12:10			06-05-2016			06-05-2016 12:35			25 м. (1500 с.)			Голдбергови			
12:35			06-05-2016			06-05-2016 13:30			55 м. (3300 с.)			Квантико			
13:30			06-05-2016			06-05-2016 14:25			55 м. (3300 с.)			Империја			
14:25			06-05-2016			06-05-2016 14:55			30 м. (1800 с.)			Симпсонови			
14:55			06-05-2016			06-05-2016 15:20			25 м. (1500 с.)			Најсмешните домашни видеа			
15:20			06-05-2016			06-05-2016 16:15			55 м. (3300 с.)			Црн список			
16:15			06-05-2016			06-05-2016 17:05			50 м. (3000 с.)			НЦИС			
17:05			06-05-2016			06-05-2016 18:00			55 м. (3300 с.)			НЦИС			
18:00			06-05-2016			06-05-2016 18:30			30 м. (1800 с.)			Современо семејство			
18:30			06-05-2016			06-05-2016 19:00			30 м. (1800 с.)			Современо семејство			
19:00			06-05-2016			06-05-2016 19:30			30 м. (1800 с.)			Симпсонови			
19:30			06-05-2016			06-05-2016 20:00			30 м. (1800 с.)			Семеен човек			
20:00			06-05-2016			06-05-2016 20:30			30 м. (1800 с.)			Голдбергови			
20:30			06-05-2016			06-05-2016 21:00			30 м. (1800 с.)			Голдбергови			
21:00			06-05-2016			06-05-2016 21:30			30 м. (1800 с.)			Мелница			
21:30			06-05-2016			06-05-2016 22:00			30 м. (1800 с.)			Мелница			
22:00			06-05-2016			06-05-2016 23:50			110 м. (6600 с.)			Дус Бигалоу: Жиголо			
23:50			06-05-2016			07-05-2016 00:45			55 м. (3300 с.)			Касл			
00:45			07-05-2016			07-05-2016 01:35			50 м. (3000 с.)			Татковина			
01:35			07-05-2016			07-05-2016 01:55			20 м. (1200 с.)			Таму некаде			
01:55			07-05-2016			07-05-2016 02:40			45 м. (2700 с.)			Коски			
02:40			07-05-2016			07-05-2016 03:25			45 м. (2700 с.)			Коски			
03:25			07-05-2016			07-05-2016 04:10			45 м. (2700 с.)			Касл			
04:10			07-05-2016			07-05-2016 04:55			45 м. (2700 с.)			Татковина			
04:55			07-05-2016			07-05-2016 05:20			25 м. (1500 с.)			Таму некаде			
05:20			07-05-2016			07-05-2016 05:40			20 м. (1200 с.)			Семеен човек			
05:40			07-05-2016			07-05-2016 06:00			20 м. (1200 с.)			Симпсонови			
06:00			07-05-2016			07-05-2016 06:45			45 м. (2700 с.)			Криминалци во костуми			
06:45			07-05-2016			07-05-2016 07:35			50 м. (3000 с.)			Криминалци во костуми			
07:35			07-05-2016			07-05-2016 08:35			60 м. (3600 с.)			Татковина			
08:35			07-05-2016			07-05-2016 09:35			60 м. (3600 с.)			Татковина			
09:35			07-05-2016			07-05-2016 10:05			30 м. (1800 с.)			Современо семејство			
10:05			07-05-2016			07-05-2016 10:30			25 м. (1500 с.)			Современо семејство			
10:30			07-05-2016			07-05-2016 10:55			25 м. (1500 с.)			Современо семејство			
10:55			07-05-2016			07-05-2016 11:20			25 м. (1500 с.)			Современо семејство			
11:20			07-05-2016			07-05-2016 11:50			30 м. (1800 с.)			Најсмешните домашни видеа			
11:50			07-05-2016			07-05-2016 12:15			25 м. (1500 с.)			Мелница			
12:15			07-05-2016			07-05-2016 12:40			25 м. (1500 с.)			Мелница			
12:40			07-05-2016			07-05-2016 13:30			50 м. (3000 с.)			Касл			
13:30			07-05-2016			07-05-2016 14:20			50 м. (3000 с.)			Касл			
14:20			07-05-2016			07-05-2016 14:45			25 м. (1500 с.)			Најсмешните домашни видеа			
14:45			07-05-2016			07-05-2016 16:30			105 м. (6300 с.)			Дус Бигалоу: Жиголо			
16:30			07-05-2016			07-05-2016 16:55			25 м. (1500 с.)			Современо семејство			
16:55			07-05-2016			07-05-2016 17:20			25 м. (1500 с.)			Современо семејство			
17:20			07-05-2016			07-05-2016 17:45			25 м. (1500 с.)			Современо семејство			
17:45			07-05-2016			07-05-2016 18:10			25 м. (1500 с.)			Современо семејство			
18:10			07-05-2016			07-05-2016 19:05			55 м. (3300 с.)			Квантико			
19:05			07-05-2016			07-05-2016 20:00			55 м. (3300 с.)			Квантико			
20:00			07-05-2016			07-05-2016 20:55			55 м. (3300 с.)			Касл			
20:55			07-05-2016			07-05-2016 22:00			65 м. (3900 с.)			11.22.63			
22:00			07-05-2016			07-05-2016 23:50			110 м. (6600 с.)			Babe			
23:50			07-05-2016			08-05-2016 01:35			105 м. (6300 с.)			Икс-фактор САД			
01:35			08-05-2016			08-05-2016 02:20			45 м. (2700 с.)			Икс-фактор САД			
02:20			08-05-2016			08-05-2016 03:05			45 м. (2700 с.)			НЦИС			
03:05			08-05-2016			08-05-2016 03:50			45 м. (2700 с.)			НЦИС			
03:50			08-05-2016			08-05-2016 04:35			45 м. (2700 с.)			НЦИС			
04:35			08-05-2016			08-05-2016 05:20			45 м. (2700 с.)			НЦИС			
05:20			08-05-2016			08-05-2016 06:00			40 м. (2400 с.)			НЦИС			
06:00			08-05-2016			08-05-2016 06:45			45 м. (2700 с.)			Криминалци во костуми			
06:45			08-05-2016			08-05-2016 07:35			50 м. (3000 с.)			Коски			
07:35			08-05-2016			08-05-2016 08:30			55 м. (3300 с.)			Татковина			
08:30			08-05-2016			08-05-2016 09:35			65 м. (3900 с.)			Татковина			
09:35			08-05-2016			08-05-2016 10:05			30 м. (1800 с.)			Современо семејство			
10:05			08-05-2016			08-05-2016 10:30			25 м. (1500 с.)			Современо семејство			
10:30			08-05-2016			08-05-2016 10:55			25 м. (1500 с.)			Современо семејство			
10:55			08-05-2016			08-05-2016 11:20			25 м. (1500 с.)			Современо семејство			
11:20			08-05-2016			08-05-2016 11:50			30 м. (1800 с.)			Најсмешните домашни видеа			
11:50			08-05-2016			08-05-2016 12:40			50 м. (3000 с.)			Касл			
12:40			08-05-2016			08-05-2016 13:30			50 м. (3000 с.)			Касл			
13:30			08-05-2016			08-05-2016 14:25			55 м. (3300 с.)			Касл			
14:25			08-05-2016			08-05-2016 14:50			25 м. (1500 с.)			Најсмешните домашни видеа			
14:50			08-05-2016			08-05-2016 16:40			110 м. (6600 с.)			Babe			
16:40			08-05-2016			08-05-2016 17:10			30 м. (1800 с.)			Современо семејство			
17:10			08-05-2016			08-05-2016 17:40			30 м. (1800 с.)			Мелница			
17:40			08-05-2016			08-05-2016 18:10			30 м. (1800 с.)			Мелница			
18:10			08-05-2016			08-05-2016 19:10			60 м. (3600 с.)			Квантико			
19:10			08-05-2016			08-05-2016 20:05			55 м. (3300 с.)			Квантико			
20:05			08-05-2016			08-05-2016 21:05			60 м. (3600 с.)			Империја			
21:05			08-05-2016			08-05-2016 22:00			55 м. (3300 с.)			Касл			
22:00			08-05-2016			09-05-2016 00:40			160 м. (9600 с.)			Вистински челик			
00:40			09-05-2016			09-05-2016 02:20			100 м. (6000 с.)			Икс-фактор САД			
02:20			09-05-2016			09-05-2016 03:05			45 м. (2700 с.)			Икс-фактор САД			
03:05			09-05-2016			09-05-2016 03:50			45 м. (2700 с.)			НЦИС			
03:50			09-05-2016			09-05-2016 04:35			45 м. (2700 с.)			НЦИС			
04:35			09-05-2016			09-05-2016 05:20			45 м. (2700 с.)			НЦИС			
05:20			09-05-2016			09-05-2016 06:00			40 м. (2400 с.)			НЦИС			
06:00			09-05-2016			09-05-2016 06:25			25 м. (1500 с.)			Најсмешните домашни видеа			
06:25			09-05-2016			09-05-2016 07:10			45 м. (2700 с.)			НЦИС			
07:10			09-05-2016			09-05-2016 08:05			55 м. (3300 с.)			НЦИС			
08:05			09-05-2016			09-05-2016 09:10			65 м. (3900 с.)			Татковина			
09:10			09-05-2016			09-05-2016 09:35			25 м. (1500 с.)			Современо семејство			
09:35			09-05-2016			09-05-2016 10:00			25 м. (1500 с.)			Современо семејство			
10:00			09-05-2016			09-05-2016 10:50			50 м. (3000 с.)			Коски			
10:50			09-05-2016			09-05-2016 11:40			50 м. (3000 с.)			Коски			
11:40			09-05-2016			09-05-2016 12:10			30 м. (1800 с.)			Голдбергови			
12:10			09-05-2016			09-05-2016 12:40			30 м. (1800 с.)			Голдбергови			
12:40			09-05-2016			09-05-2016 15:20			160 м. (9600 с.)			Вистински челик			
15:20			09-05-2016			09-05-2016 15:50			30 м. (1800 с.)			Мелница			
15:50			09-05-2016			09-05-2016 16:15			25 м. (1500 с.)			Мелница			
16:15			09-05-2016			09-05-2016 17:05			50 м. (3000 с.)			НЦИС			
17:05			09-05-2016			09-05-2016 18:00			55 м. (3300 с.)			НЦИС			
18:00			09-05-2016			09-05-2016 18:30			30 м. (1800 с.)			Современо семејство			
18:30			09-05-2016			09-05-2016 19:00			30 м. (1800 с.)			Современо семејство			
19:00			09-05-2016			09-05-2016 19:30			30 м. (1800 с.)			Симпсонови			
19:30			09-05-2016			09-05-2016 20:00			30 м. (1800 с.)			Семеен човек			
20:00			09-05-2016			09-05-2016 20:30			30 м. (1800 с.)			Голдбергови			
20:30			09-05-2016			09-05-2016 21:00			30 м. (1800 с.)			Голдбергови			
21:00			09-05-2016			09-05-2016 22:00			60 м. (3600 с.)			Квантико			
22:00			09-05-2016			09-05-2016 22:55			55 м. (3300 с.)			11.22.63			
22:55			09-05-2016			09-05-2016 23:50			55 м. (3300 с.)			Црн список			
23:50			09-05-2016			10-05-2016 00:45			55 м. (3300 с.)			Касл			
00:45			10-05-2016			10-05-2016 01:35			50 м. (3000 с.)			Татковина			
01:35			10-05-2016			10-05-2016 01:55			20 м. (1200 с.)			Таму некаде			
01:55			10-05-2016			10-05-2016 02:40			45 м. (2700 с.)			Коски			
02:40			10-05-2016			10-05-2016 03:25			45 м. (2700 с.)			Коски			
03:25			10-05-2016			10-05-2016 04:10			45 м. (2700 с.)			Касл			
04:10			10-05-2016			10-05-2016 04:55			45 м. (2700 с.)			Татковина			
04:55			10-05-2016			10-05-2016 05:20			25 м. (1500 с.)			Таму некаде			
05:20			10-05-2016			10-05-2016 05:40			20 м. (1200 с.)			Семеен човек			
05:40			10-05-2016			10-05-2016 06:00			20 м. (1200 с.)			Симпсонови			
06:00			10-05-2016			10-05-2016 06:25			25 м. (1500 с.)			Најсмешните домашни видеа			
06:25			10-05-2016			10-05-2016 07:10			45 м. (2700 с.)			НЦИС			
07:10			10-05-2016			10-05-2016 08:05			55 м. (3300 с.)			НЦИС			
08:05			10-05-2016			10-05-2016 09:10			65 м. (3900 с.)			Татковина			
09:10			10-05-2016			10-05-2016 09:35			25 м. (1500 с.)			Современо семејство			
09:35			10-05-2016			10-05-2016 10:00			25 м. (1500 с.)			Современо семејство			
10:00			10-05-2016			10-05-2016 10:50			50 м. (3000 с.)			Коски			
10:50			10-05-2016			10-05-2016 11:40			50 м. (3000 с.)			Коски			
11:40			10-05-2016			10-05-2016 12:10			30 м. (1800 с.)			Голдбергови			
12:10			10-05-2016			10-05-2016 12:35			25 м. (1500 с.)			Голдбергови			
12:35			10-05-2016			10-05-2016 13:30			55 м. (3300 с.)			Квантико			
13:30			10-05-2016			10-05-2016 14:25			55 м. (3300 с.)			11.22.63			
14:25			10-05-2016			10-05-2016 14:55			30 м. (1800 с.)			Симпсонови			
14:55			10-05-2016			10-05-2016 15:20			25 м. (1500 с.)			Најсмешните домашни видеа			
15:20			10-05-2016			10-05-2016 16:15			55 м. (3300 с.)			Црн список			
16:15			10-05-2016			10-05-2016 17:05			50 м. (3000 с.)			НЦИС			
17:05			10-05-2016			10-05-2016 18:00			55 м. (3300 с.)			НЦИС			
18:00			10-05-2016			10-05-2016 18:30			30 м. (1800 с.)			Современо семејство			
18:30			10-05-2016			10-05-2016 19:00			30 м. (1800 с.)			Современо семејство			
19:00			10-05-2016			10-05-2016 19:30			30 м. (1800 с.)			Симпсонови			
19:30			10-05-2016			10-05-2016 20:00			30 м. (1800 с.)			Семеен човек			
20:00			10-05-2016			10-05-2016 20:30			30 м. (1800 с.)			Голдбергови			
20:30			10-05-2016			10-05-2016 21:00			30 м. (1800 с.)			Голдбергови			
21:00			10-05-2016			10-05-2016 22:00			60 м. (3600 с.)			Квантико			
22:00			10-05-2016			10-05-2016 22:55			55 м. (3300 с.)			Касл			
22:55			10-05-2016			10-05-2016 23:50			55 м. (3300 с.)			Црн список			
23:50			10-05-2016			11-05-2016 00:45			55 м. (3300 с.)			Касл			
00:45			11-05-2016			11-05-2016 01:35			50 м. (3000 с.)			Татковина			
01:35			11-05-2016			11-05-2016 01:55			20 м. (1200 с.)			Футурама			
01:55			11-05-2016			11-05-2016 02:40			45 м. (2700 с.)			Коски			
02:40			11-05-2016			11-05-2016 03:25			45 м. (2700 с.)			Коски			
03:25			11-05-2016			11-05-2016 04:10			45 м. (2700 с.)			Касл			
04:10			11-05-2016			11-05-2016 04:55			45 м. (2700 с.)			Татковина			
04:55			11-05-2016			11-05-2016 05:20			25 м. (1500 с.)			Футурама			
05:20			11-05-2016			11-05-2016 05:40			20 м. (1200 с.)			Семеен човек			
05:40			11-05-2016			11-05-2016 06:00			20 м. (1200 с.)			Симпсонови			
06:00			11-05-2016			11-05-2016 06:25			25 м. (1500 с.)			Најсмешните домашни видеа			
06:25			11-05-2016			11-05-2016 07:10			45 м. (2700 с.)			НЦИС			
07:10			11-05-2016			11-05-2016 08:05			55 м. (3300 с.)			НЦИС			
08:05			11-05-2016			11-05-2016 09:10			65 м. (3900 с.)			Татковина			
09:10			11-05-2016			11-05-2016 09:35			25 м. (1500 с.)			Современо семејство			
09:35			11-05-2016			11-05-2016 10:00			25 м. (1500 с.)			Современо семејство			
10:00			11-05-2016			11-05-2016 10:50			50 м. (3000 с.)			Коски			
10:50			11-05-2016			11-05-2016 11:40			50 м. (3000 с.)			Коски			
11:40			11-05-2016			11-05-2016 12:10			30 м. (1800 с.)			Голдбергови			
12:10			11-05-2016			11-05-2016 12:35			25 м. (1500 с.)			Голдбергови			
12:35			11-05-2016			11-05-2016 13:30			55 м. (3300 с.)			Квантико			
13:30			11-05-2016			11-05-2016 14:25			55 м. (3300 с.)			Касл			
14:25			11-05-2016			11-05-2016 14:55			30 м. (1800 с.)			Симпсонови			
14:55			11-05-2016			11-05-2016 15:20			25 м. (1500 с.)			Најсмешните домашни видеа			
15:20			11-05-2016			11-05-2016 16:15			55 м. (3300 с.)			Црн список			
16:15			11-05-2016			11-05-2016 17:05			50 м. (3000 с.)			НЦИС			
17:05			11-05-2016			11-05-2016 18:00			55 м. (3300 с.)			НЦИС			
18:00			11-05-2016			11-05-2016 18:30			30 м. (1800 с.)			Современо семејство			
18:30			11-05-2016			11-05-2016 19:00			30 м. (1800 с.)			Современо семејство			
19:00			11-05-2016			11-05-2016 19:30			30 м. (1800 с.)			Симпсонови			
19:30			11-05-2016			11-05-2016 20:00			30 м. (1800 с.)			Семеен човек			
20:00			11-05-2016			11-05-2016 20:30			30 м. (1800 с.)			Голдбергови			
20:30			11-05-2016			11-05-2016 21:00			30 м. (1800 с.)			Голдбергови			
21:00			11-05-2016			11-05-2016 22:00			60 м. (3600 с.)			Квантико			
22:00			11-05-2016			11-05-2016 22:55			55 м. (3300 с.)			Касл			
22:55			11-05-2016			11-05-2016 23:50			55 м. (3300 с.)			Црн список			
23:50			11-05-2016			12-05-2016 00:45			55 м. (3300 с.)			Касл			
00:45			12-05-2016			12-05-2016 01:35			50 м. (3000 с.)			Татковина			
01:35			12-05-2016			12-05-2016 01:55			20 м. (1200 с.)			Футурама			
01:55			12-05-2016			12-05-2016 02:40			45 м. (2700 с.)			Коски			
02:40			12-05-2016			12-05-2016 03:25			45 м. (2700 с.)			Коски			
03:25			12-05-2016			12-05-2016 04:10			45 м. (2700 с.)			Касл			
04:10			12-05-2016			12-05-2016 04:55			45 м. (2700 с.)			Татковина			
04:55			12-05-2016			12-05-2016 05:20			25 м. (1500 с.)			Футурама			
05:20			12-05-2016			12-05-2016 05:40			20 м. (1200 с.)			Семеен човек			
05:40			12-05-2016			12-05-2016 06:00			20 м. (1200 с.)			Симпсонови			
06:00			12-05-2016			12-05-2016 06:25			25 м. (1500 с.)			Најсмешните домашни видеа			
06:25			12-05-2016			12-05-2016 07:10			45 м. (2700 с.)			НЦИС			
07:10			12-05-2016			12-05-2016 08:05			55 м. (3300 с.)			НЦИС			
08:05			12-05-2016			12-05-2016 09:10			65 м. (3900 с.)			Татковина			
09:10			12-05-2016			12-05-2016 09:35			25 м. (1500 с.)			Современо семејство			
09:35			12-05-2016			12-05-2016 10:00			25 м. (1500 с.)			Современо семејство			
10:00			12-05-2016			12-05-2016 10:50			50 м. (3000 с.)			Коски			
10:50			12-05-2016			12-05-2016 11:40			50 м. (3000 с.)			Коски			
11:40			12-05-2016			12-05-2016 12:10			30 м. (1800 с.)			Голдбергови			
12:10			12-05-2016			12-05-2016 12:35			25 м. (1500 с.)			Голдбергови			
12:35			12-05-2016			12-05-2016 13:30			55 м. (3300 с.)			Квантико			
13:30			12-05-2016			12-05-2016 14:25			55 м. (3300 с.)			Касл			
14:25			12-05-2016			12-05-2016 14:55			30 м. (1800 с.)			Симпсонови			
14:55			12-05-2016			12-05-2016 15:20			25 м. (1500 с.)			Најсмешните домашни видеа			
15:20			12-05-2016			12-05-2016 16:15			55 м. (3300 с.)			Црн список			
16:15			12-05-2016			12-05-2016 17:05			50 м. (3000 с.)			НЦИС			
17:05			12-05-2016			12-05-2016 18:00			55 м. (3300 с.)			НЦИС			
18:00			12-05-2016			12-05-2016 18:30			30 м. (1800 с.)			Современо семејство			
18:30			12-05-2016			12-05-2016 19:00			30 м. (1800 с.)			Современо семејство			
19:00			12-05-2016			12-05-2016 19:30			30 м. (1800 с.)			Симпсонови			
19:30			12-05-2016			12-05-2016 20:00			30 м. (1800 с.)			Семеен човек			
20:00			12-05-2016			12-05-2016 20:30			30 м. (1800 с.)			Голдбергови			
20:30			12-05-2016			12-05-2016 21:00			30 м. (1800 с.)			До последниот човек			
21:00			12-05-2016			12-05-2016 22:00			60 м. (3600 с.)			Квантико			
22:00			12-05-2016			12-05-2016 22:55			55 м. (3300 с.)			Империја			
22:55			12-05-2016			12-05-2016 23:50			55 м. (3300 с.)			Црн список			
23:50			12-05-2016			13-05-2016 00:45			55 м. (3300 с.)			Касл			
00:45			13-05-2016			13-05-2016 01:55			70 м. (4200 с.)			Татковина			
01:55			13-05-2016			13-05-2016 02:40			45 м. (2700 с.)			Коски			
02:40			13-05-2016			13-05-2016 03:25			45 м. (2700 с.)			Коски			
03:25			13-05-2016			13-05-2016 04:10			45 м. (2700 с.)			Касл			
04:10			13-05-2016			13-05-2016 04:55			45 м. (2700 с.)			Татковина			
04:55			13-05-2016			13-05-2016 05:20			25 м. (1500 с.)			Футурама			
05:20			13-05-2016			13-05-2016 05:40			20 м. (1200 с.)			Семеен човек			
05:40			13-05-2016			13-05-2016 06:00			20 м. (1200 с.)			Симпсонови			
06:00			13-05-2016			13-05-2016 06:25			25 м. (1500 с.)			Најсмешните домашни видеа			
06:25			13-05-2016			13-05-2016 07:10			45 м. (2700 с.)			НЦИС			
07:10			13-05-2016			13-05-2016 08:05			55 м. (3300 с.)			НЦИС			
08:05			13-05-2016			13-05-2016 09:10			65 м. (3900 с.)			Татковина			
09:10			13-05-2016			13-05-2016 09:35			25 м. (1500 с.)			Современо семејство			
09:35			13-05-2016			13-05-2016 10:00			25 м. (1500 с.)			Современо семејство			
10:00			13-05-2016			13-05-2016 10:50			50 м. (3000 с.)			Коски			
10:50			13-05-2016			13-05-2016 11:40			50 м. (3000 с.)			Коски			
11:40			13-05-2016			13-05-2016 12:10			30 м. (1800 с.)			Голдбергови			
12:10			13-05-2016			13-05-2016 12:35			25 м. (1500 с.)			До последниот човек			
12:35			13-05-2016			13-05-2016 13:30			55 м. (3300 с.)			Квантико			
13:30			13-05-2016			13-05-2016 14:25			55 м. (3300 с.)			Империја			
14:25			13-05-2016			13-05-2016 14:55			30 м. (1800 с.)			Симпсонови			
14:55			13-05-2016			13-05-2016 15:20			25 м. (1500 с.)			Најсмешните домашни видеа			
15:20			13-05-2016			13-05-2016 16:15			55 м. (3300 с.)			Црн список			
16:15			13-05-2016			13-05-2016 17:05			50 м. (3000 с.)			НЦИС			
17:05			13-05-2016			13-05-2016 18:00			55 м. (3300 с.)			НЦИС			
18:00			13-05-2016			13-05-2016 18:30			30 м. (1800 с.)			Современо семејство			
18:30			13-05-2016			13-05-2016 19:00			30 м. (1800 с.)			Современо семејство			
19:00			13-05-2016			13-05-2016 19:30			30 м. (1800 с.)			Симпсонови			
19:30			13-05-2016			13-05-2016 20:00			30 м. (1800 с.)			Семеен човек			
20:00			13-05-2016			13-05-2016 20:30			30 м. (1800 с.)			До последниот човек			
20:30			13-05-2016			13-05-2016 21:00			30 м. (1800 с.)			До последниот човек			
21:00			13-05-2016			13-05-2016 21:30			30 м. (1800 с.)			Мелница			
21:30			13-05-2016			13-05-2016 22:00			30 м. (1800 с.)			Мелница			
22:00			13-05-2016			13-05-2016 23:50			110 м. (6600 с.)			Водоносец			
23:50			13-05-2016			14-05-2016 00:45			55 м. (3300 с.)			Касл			
00:45			14-05-2016			14-05-2016 01:35			50 м. (3000 с.)			Татковина			
01:35			14-05-2016			14-05-2016 01:55			20 м. (1200 с.)			Футурама			
01:55			14-05-2016			14-05-2016 02:40			45 м. (2700 с.)			Коски			
02:40			14-05-2016			14-05-2016 03:25			45 м. (2700 с.)			Коски			
03:25			14-05-2016			14-05-2016 04:10			45 м. (2700 с.)			Касл			
04:10			14-05-2016			14-05-2016 04:55			45 м. (2700 с.)			Татковина			
04:55			14-05-2016			14-05-2016 05:20			25 м. (1500 с.)			Футурама			
05:20			14-05-2016			14-05-2016 05:40			20 м. (1200 с.)			Семеен човек			
05:40			14-05-2016			14-05-2016 06:00			20 м. (1200 с.)			Симпсонови			
06:00			14-05-2016			14-05-2016 06:45			45 м. (2700 с.)			Коски			
06:45			14-05-2016			14-05-2016 07:35			50 м. (3000 с.)			Коски			
07:35			14-05-2016			14-05-2016 08:30			55 м. (3300 с.)			Татковина			
08:30			14-05-2016			14-05-2016 09:35			65 м. (3900 с.)			Татковина			
09:35			14-05-2016			14-05-2016 10:05			30 м. (1800 с.)			Современо семејство			
10:05			14-05-2016			14-05-2016 10:30			25 м. (1500 с.)			Современо семејство			
10:30			14-05-2016			14-05-2016 10:55			25 м. (1500 с.)			Современо семејство			
10:55			14-05-2016			14-05-2016 11:20			25 м. (1500 с.)			Современо семејство			
11:20			14-05-2016			14-05-2016 11:50			30 м. (1800 с.)			Најсмешните домашни видеа			
11:50			14-05-2016			14-05-2016 12:15			25 м. (1500 с.)			Мелница			
12:15			14-05-2016			14-05-2016 12:40			25 м. (1500 с.)			Мелница			
12:40			14-05-2016			14-05-2016 13:30			50 м. (3000 с.)			Касл			
13:30			14-05-2016			14-05-2016 14:20			50 м. (3000 с.)			Касл			
14:20			14-05-2016			14-05-2016 14:45			25 м. (1500 с.)			Најсмешните домашни видеа			
14:45			14-05-2016			14-05-2016 16:30			105 м. (6300 с.)			Водоносец			
16:30			14-05-2016			14-05-2016 16:55			25 м. (1500 с.)			Современо семејство			
16:55			14-05-2016			14-05-2016 17:20			25 м. (1500 с.)			Современо семејство			
17:20			14-05-2016			14-05-2016 17:45			25 м. (1500 с.)			Современо семејство			
17:45			14-05-2016			14-05-2016 18:10			25 м. (1500 с.)			Современо семејство			
18:10			14-05-2016			14-05-2016 19:05			55 м. (3300 с.)			Квантико			
19:05			14-05-2016			14-05-2016 20:00			55 м. (3300 с.)			Квантико			
20:00			14-05-2016			14-05-2016 21:00			60 м. (3600 с.)			Касл			
21:00			14-05-2016			14-05-2016 22:00			60 м. (3600 с.)			11.22.63			
22:00			14-05-2016			14-05-2016 23:55			115 м. (6900 с.)			Бејб: Прасе во градот			
23:55			14-05-2016			15-05-2016 01:35			100 м. (6000 с.)			Икс-фактор САД			
01:35			15-05-2016			15-05-2016 02:20			45 м. (2700 с.)			Икс-фактор САД			
02:20			15-05-2016			15-05-2016 03:05			45 м. (2700 с.)			НЦИС			
03:05			15-05-2016			15-05-2016 03:50			45 м. (2700 с.)			НЦИС			
03:50			15-05-2016			15-05-2016 04:35			45 м. (2700 с.)			НЦИС			
04:35			15-05-2016			15-05-2016 05:20			45 м. (2700 с.)			НЦИС			
05:20			15-05-2016			15-05-2016 06:00			40 м. (2400 с.)			НЦИС			
06:00			15-05-2016			15-05-2016 06:45			45 м. (2700 с.)			Коски			
06:45			15-05-2016			15-05-2016 07:35			50 м. (3000 с.)			Коски			
07:35			15-05-2016			15-05-2016 08:30			55 м. (3300 с.)			Татковина			
08:30			15-05-2016			15-05-2016 09:35			65 м. (3900 с.)			Татковина			
09:35			15-05-2016			15-05-2016 10:05			30 м. (1800 с.)			Современо семејство			
10:05			15-05-2016			15-05-2016 10:30			25 м. (1500 с.)			Современо семејство			
10:30			15-05-2016			15-05-2016 10:55			25 м. (1500 с.)			Современо семејство			
10:55			15-05-2016			15-05-2016 11:20			25 м. (1500 с.)			Современо семејство			
11:20			15-05-2016			15-05-2016 11:50			30 м. (1800 с.)			Најсмешните домашни видеа			
11:50			15-05-2016			15-05-2016 12:40			50 м. (3000 с.)			Касл			
12:40			15-05-2016			15-05-2016 13:30			50 м. (3000 с.)			Касл			
13:30			15-05-2016			15-05-2016 14:20			50 м. (3000 с.)			Касл			
14:20			15-05-2016			15-05-2016 14:45			25 м. (1500 с.)			Најсмешните домашни видеа			
14:45			15-05-2016			15-05-2016 16:30			105 м. (6300 с.)			Бејб: Прасе во градот			
16:30			15-05-2016			15-05-2016 16:55			25 м. (1500 с.)			Современо семејство			
16:55			15-05-2016			15-05-2016 17:20			25 м. (1500 с.)			Современо семејство			
17:20			15-05-2016			15-05-2016 17:45			25 м. (1500 с.)			Мелница			
17:45			15-05-2016			15-05-2016 18:10			25 м. (1500 с.)			Мелница			
18:10			15-05-2016			15-05-2016 19:05			55 м. (3300 с.)			Квантико			
19:05			15-05-2016			15-05-2016 20:00			55 м. (3300 с.)			Квантико			
20:00			15-05-2016			15-05-2016 21:00			60 м. (3600 с.)			Империја			
21:00			15-05-2016			15-05-2016 22:00			60 м. (3600 с.)			Касл			
22:00			15-05-2016			16-05-2016 01:00			180 м. (10800 с.)			Пиратите од Карибите: Проклетството на Црниот бисер			
01:00			16-05-2016			16-05-2016 02:20			80 м. (4800 с.)			Икс-фактор САД			
02:20			16-05-2016			16-05-2016 03:05			45 м. (2700 с.)			Икс-фактор САД			
03:05			16-05-2016			16-05-2016 03:50			45 м. (2700 с.)			НЦИС			
03:50			16-05-2016			16-05-2016 04:35			45 м. (2700 с.)			НЦИС			
04:35			16-05-2016			16-05-2016 05:20			45 м. (2700 с.)			НЦИС			
05:20			16-05-2016			16-05-2016 06:00			40 м. (2400 с.)			НЦИС			
06:00			16-05-2016			16-05-2016 06:25			25 м. (1500 с.)			Најсмешните домашни видеа			
06:25			16-05-2016			16-05-2016 07:10			45 м. (2700 с.)			НЦИС			
07:10			16-05-2016			16-05-2016 08:05			55 м. (3300 с.)			НЦИС			
08:05			16-05-2016			16-05-2016 09:10			65 м. (3900 с.)			Татковина			
09:10			16-05-2016			16-05-2016 09:35			25 м. (1500 с.)			Современо семејство			
09:35			16-05-2016			16-05-2016 10:00			25 м. (1500 с.)			Современо семејство			
10:00			16-05-2016			16-05-2016 10:50			50 м. (3000 с.)			Коски			
10:50			16-05-2016			16-05-2016 11:40			50 м. (3000 с.)			Коски			
11:40			16-05-2016			16-05-2016 12:10			30 м. (1800 с.)			До последниот човек			
12:10			16-05-2016			16-05-2016 12:35			25 м. (1500 с.)			До последниот човек			
12:35			16-05-2016			16-05-2016 15:40			185 м. (11100 с.)			Пиратите од Карибите: Проклетството на Црниот бисер			
15:40			16-05-2016			16-05-2016 16:15			35 м. (2100 с.)			Мелница			
16:15			16-05-2016			16-05-2016 17:05			50 м. (3000 с.)			НЦИС			
17:05			16-05-2016			16-05-2016 18:00			55 м. (3300 с.)			НЦИС			
18:00			16-05-2016			16-05-2016 18:30			30 м. (1800 с.)			Современо семејство			
18:30			16-05-2016			16-05-2016 19:00			30 м. (1800 с.)			Современо семејство			
19:00			16-05-2016			16-05-2016 19:30			30 м. (1800 с.)			Симпсонови			
19:30			16-05-2016			16-05-2016 20:00			30 м. (1800 с.)			Семеен човек			
20:00			16-05-2016			16-05-2016 20:30			30 м. (1800 с.)			До последниот човек			
20:30			16-05-2016			16-05-2016 21:00			30 м. (1800 с.)			До последниот човек			
21:00			16-05-2016			16-05-2016 22:00			60 м. (3600 с.)			Квантико			
22:00			16-05-2016			16-05-2016 22:55			55 м. (3300 с.)			11.22.63			
22:55			16-05-2016			16-05-2016 23:50			55 м. (3300 с.)			Црн список			
23:50			16-05-2016			17-05-2016 00:45			55 м. (3300 с.)			Касл			
00:45			17-05-2016			17-05-2016 01:55			70 м. (4200 с.)			Татковина			
01:55			17-05-2016			17-05-2016 02:40			45 м. (2700 с.)			Коски			
02:40			17-05-2016			17-05-2016 03:25			45 м. (2700 с.)			Коски			
03:25			17-05-2016			17-05-2016 04:10			45 м. (2700 с.)			Касл			
04:10			17-05-2016			17-05-2016 04:55			45 м. (2700 с.)			Татковина			
04:55			17-05-2016			17-05-2016 05:20			25 м. (1500 с.)			Футурама			
05:20			17-05-2016			17-05-2016 05:40			20 м. (1200 с.)			Семеен човек			
05:40			17-05-2016			17-05-2016 06:00			20 м. (1200 с.)			Симпсонови			
06:00			17-05-2016			17-05-2016 06:25			25 м. (1500 с.)			Најсмешните домашни видеа			
06:25			17-05-2016			17-05-2016 07:10			45 м. (2700 с.)			НЦИС			
07:10			17-05-2016			17-05-2016 08:05			55 м. (3300 с.)			НЦИС			
08:05			17-05-2016			17-05-2016 09:10			65 м. (3900 с.)			Татковина			
09:10			17-05-2016			17-05-2016 09:35			25 м. (1500 с.)			Современо семејство			
09:35			17-05-2016			17-05-2016 10:00			25 м. (1500 с.)			Современо семејство			
10:00			17-05-2016			17-05-2016 10:50			50 м. (3000 с.)			Коски			
10:50			17-05-2016			17-05-2016 11:40			50 м. (3000 с.)			Коски			
11:40			17-05-2016			17-05-2016 12:10			30 м. (1800 с.)			До последниот човек			
12:10			17-05-2016			17-05-2016 12:35			25 м. (1500 с.)			До последниот човек			
12:35			17-05-2016			17-05-2016 13:30			55 м. (3300 с.)			Квантико			
13:30			17-05-2016			17-05-2016 14:25			55 м. (3300 с.)			11.22.63			
14:25			17-05-2016			17-05-2016 14:55			30 м. (1800 с.)			Симпсонови			
14:55			17-05-2016			17-05-2016 15:20			25 м. (1500 с.)			Најсмешните домашни видеа			
15:20			17-05-2016			17-05-2016 16:15			55 м. (3300 с.)			Црн список			
16:15			17-05-2016			17-05-2016 17:05			50 м. (3000 с.)			НЦИС			
17:05			17-05-2016			17-05-2016 18:00			55 м. (3300 с.)			НЦИС			
18:00			17-05-2016			17-05-2016 18:30			30 м. (1800 с.)			Современо семејство			
18:30			17-05-2016			17-05-2016 19:00			30 м. (1800 с.)			Современо семејство			
19:00			17-05-2016			17-05-2016 19:30			30 м. (1800 с.)			Симпсонови			
19:30			17-05-2016			17-05-2016 20:00			30 м. (1800 с.)			Семеен човек			
20:00			17-05-2016			17-05-2016 20:30			30 м. (1800 с.)			До последниот човек			
20:30			17-05-2016			17-05-2016 21:00			30 м. (1800 с.)			До последниот човек			
21:00			17-05-2016			17-05-2016 22:00			60 м. (3600 с.)			Квантико			
22:00			17-05-2016			17-05-2016 22:55			55 м. (3300 с.)			Касл			
22:55			17-05-2016			17-05-2016 23:50			55 м. (3300 с.)			Црн список			
23:50			17-05-2016			18-05-2016 00:45			55 м. (3300 с.)			Касл			
00:45			18-05-2016			18-05-2016 01:55			70 м. (4200 с.)			Татковина			
01:55			18-05-2016			18-05-2016 02:40			45 м. (2700 с.)			Коски			
02:40			18-05-2016			18-05-2016 03:25			45 м. (2700 с.)			Коски			
03:25			18-05-2016			18-05-2016 04:10			45 м. (2700 с.)			Касл			
04:10			18-05-2016			18-05-2016 04:55			45 м. (2700 с.)			Татковина			
04:55			18-05-2016			18-05-2016 05:20			25 м. (1500 с.)			Футурама			
05:20			18-05-2016			18-05-2016 05:40			20 м. (1200 с.)			Семеен човек			
05:40			18-05-2016			18-05-2016 06:00			20 м. (1200 с.)			Симпсонови			
06:00			18-05-2016			18-05-2016 06:25			25 м. (1500 с.)			Најсмешните домашни видеа			
06:25			18-05-2016			18-05-2016 07:10			45 м. (2700 с.)			НЦИС			
07:10			18-05-2016			18-05-2016 08:05			55 м. (3300 с.)			НЦИС			
08:05			18-05-2016			18-05-2016 09:10			65 м. (3900 с.)			Татковина			
09:10			18-05-2016			18-05-2016 09:35			25 м. (1500 с.)			Современо семејство			
09:35			18-05-2016			18-05-2016 10:00			25 м. (1500 с.)			Современо семејство			
10:00			18-05-2016			18-05-2016 10:50			50 м. (3000 с.)			Коски			
10:50			18-05-2016			18-05-2016 11:40			50 м. (3000 с.)			Коски			
11:40			18-05-2016			18-05-2016 12:10			30 м. (1800 с.)			До последниот човек			
12:10			18-05-2016			18-05-2016 12:35			25 м. (1500 с.)			До последниот човек			
12:35			18-05-2016			18-05-2016 13:30			55 м. (3300 с.)			Квантико			
13:30			18-05-2016			18-05-2016 14:25			55 м. (3300 с.)			Касл			
14:25			18-05-2016			18-05-2016 14:55			30 м. (1800 с.)			Симпсонови			
14:55			18-05-2016			18-05-2016 15:20			25 м. (1500 с.)			Најсмешните домашни видеа			
15:20			18-05-2016			18-05-2016 16:15			55 м. (3300 с.)			Црн список			
16:15			18-05-2016			18-05-2016 17:05			50 м. (3000 с.)			НЦИС			
17:05			18-05-2016			18-05-2016 18:00			55 м. (3300 с.)			НЦИС			
18:00			18-05-2016			18-05-2016 18:30			30 м. (1800 с.)			Современо семејство			
18:30			18-05-2016			18-05-2016 19:00			30 м. (1800 с.)			Современо семејство			
19:00			18-05-2016			18-05-2016 19:30			30 м. (1800 с.)			Симпсонови			
19:30			18-05-2016			18-05-2016 20:00			30 м. (1800 с.)			Семеен човек			
20:00			18-05-2016			18-05-2016 20:30			30 м. (1800 с.)			До последниот човек			
20:30			18-05-2016			18-05-2016 21:00			30 м. (1800 с.)			До последниот човек			
21:00			18-05-2016			18-05-2016 22:00			60 м. (3600 с.)			Квантико			
22:00			18-05-2016			18-05-2016 22:55			55 м. (3300 с.)			Касл			
22:55			18-05-2016			18-05-2016 23:50			55 м. (3300 с.)			Црн список			
23:50			18-05-2016			19-05-2016 00:45			55 м. (3300 с.)			Касл			
00:45			19-05-2016			19-05-2016 01:35			50 м. (3000 с.)			Татковина			
01:35			19-05-2016			19-05-2016 01:55			20 м. (1200 с.)			Футурама			
01:55			19-05-2016			19-05-2016 02:40			45 м. (2700 с.)			Коски			
02:40			19-05-2016			19-05-2016 03:25			45 м. (2700 с.)			Коски			
03:25			19-05-2016			19-05-2016 04:10			45 м. (2700 с.)			Касл			
04:10			19-05-2016			19-05-2016 04:55			45 м. (2700 с.)			Татковина			
04:55			19-05-2016			19-05-2016 05:20			25 м. (1500 с.)			Футурама			
05:20			19-05-2016			19-05-2016 05:40			20 м. (1200 с.)			Семеен човек			
05:40			19-05-2016			19-05-2016 06:00			20 м. (1200 с.)			Симпсонови			
06:00			19-05-2016			19-05-2016 06:25			25 м. (1500 с.)			Најсмешните домашни видеа			
06:25			19-05-2016			19-05-2016 07:10			45 м. (2700 с.)			НЦИС			
07:10			19-05-2016			19-05-2016 08:05			55 м. (3300 с.)			НЦИС			
08:05			19-05-2016			19-05-2016 09:10			65 м. (3900 с.)			Татковина			
09:10			19-05-2016			19-05-2016 09:35			25 м. (1500 с.)			Современо семејство			
09:35			19-05-2016			19-05-2016 10:00			25 м. (1500 с.)			Современо семејство			
10:00			19-05-2016			19-05-2016 10:50			50 м. (3000 с.)			Коски			
10:50			19-05-2016			19-05-2016 11:40			50 м. (3000 с.)			Коски			
11:40			19-05-2016			19-05-2016 12:10			30 м. (1800 с.)			До последниот човек			
12:10			19-05-2016			19-05-2016 12:35			25 м. (1500 с.)			До последниот човек			
12:35			19-05-2016			19-05-2016 13:30			55 м. (3300 с.)			Квантико			
13:30			19-05-2016			19-05-2016 14:25			55 м. (3300 с.)			Касл			
14:25			19-05-2016			19-05-2016 14:55			30 м. (1800 с.)			Симпсонови			
14:55			19-05-2016			19-05-2016 15:20			25 м. (1500 с.)			Најсмешните домашни видеа			
15:20			19-05-2016			19-05-2016 16:15			55 м. (3300 с.)			Црн список			
16:15			19-05-2016			19-05-2016 17:05			50 м. (3000 с.)			НЦИС			
17:05			19-05-2016			19-05-2016 18:00			55 м. (3300 с.)			НЦИС			
18:00			19-05-2016			19-05-2016 18:30			30 м. (1800 с.)			Современо семејство			
18:30			19-05-2016			19-05-2016 19:00			30 м. (1800 с.)			Современо семејство			
19:00			19-05-2016			19-05-2016 19:30			30 м. (1800 с.)			Симпсонови			
19:30			19-05-2016			19-05-2016 20:00			30 м. (1800 с.)			Семеен човек			
20:00			19-05-2016			19-05-2016 20:30			30 м. (1800 с.)			До последниот човек			
20:30			19-05-2016			19-05-2016 21:00			30 м. (1800 с.)			До последниот човек			
21:00			19-05-2016			19-05-2016 22:00			60 м. (3600 с.)			Квантико			
22:00			19-05-2016			19-05-2016 22:55			55 м. (3300 с.)			Империја			
22:55			19-05-2016			19-05-2016 23:50			55 м. (3300 с.)			Црн список			
23:50			19-05-2016			20-05-2016 00:45			55 м. (3300 с.)			Касл			
00:45			20-05-2016			20-05-2016 01:35			50 м. (3000 с.)			Татковина			
01:35			20-05-2016			20-05-2016 01:55			20 м. (1200 с.)			Футурама			
01:55			20-05-2016			20-05-2016 02:40			45 м. (2700 с.)			Коски			
02:40			20-05-2016			20-05-2016 03:25			45 м. (2700 с.)			Коски			
03:25			20-05-2016			20-05-2016 04:10			45 м. (2700 с.)			Касл			
04:10			20-05-2016			20-05-2016 04:55			45 м. (2700 с.)			Татковина			
04:55			20-05-2016			20-05-2016 05:20			25 м. (1500 с.)			Футурама			
05:20			20-05-2016			20-05-2016 05:40			20 м. (1200 с.)			Семеен човек			
05:40			20-05-2016			20-05-2016 06:00			20 м. (1200 с.)			Симпсонови			
06:00			20-05-2016			20-05-2016 06:25			25 м. (1500 с.)			Најсмешните домашни видеа			
06:25			20-05-2016			20-05-2016 07:10			45 м. (2700 с.)			НЦИС			
07:10			20-05-2016			20-05-2016 08:05			55 м. (3300 с.)			НЦИС			
08:05			20-05-2016			20-05-2016 09:10			65 м. (3900 с.)			Татковина			
09:10			20-05-2016			20-05-2016 09:35			25 м. (1500 с.)			Современо семејство			
09:35			20-05-2016			20-05-2016 10:00			25 м. (1500 с.)			Современо семејство			
10:00			20-05-2016			20-05-2016 10:50			50 м. (3000 с.)			Коски			
10:50			20-05-2016			20-05-2016 11:40			50 м. (3000 с.)			Коски			
11:40			20-05-2016			20-05-2016 12:10			30 м. (1800 с.)			До последниот човек			
12:10			20-05-2016			20-05-2016 12:35			25 м. (1500 с.)			До последниот човек			
12:35			20-05-2016			20-05-2016 13:30			55 м. (3300 с.)			Квантико			
13:30			20-05-2016			20-05-2016 14:25			55 м. (3300 с.)			Империја			
14:25			20-05-2016			20-05-2016 14:55			30 м. (1800 с.)			Симпсонови			
14:55			20-05-2016			20-05-2016 15:20			25 м. (1500 с.)			Најсмешните домашни видеа			
15:20			20-05-2016			20-05-2016 16:15			55 м. (3300 с.)			Црн список			
16:15			20-05-2016			20-05-2016 17:05			50 м. (3000 с.)			НЦИС			
17:05			20-05-2016			20-05-2016 18:00			55 м. (3300 с.)			НЦИС			
18:00			20-05-2016			20-05-2016 18:30			30 м. (1800 с.)			Современо семејство			
18:30			20-05-2016			20-05-2016 19:00			30 м. (1800 с.)			Современо семејство			
19:00			20-05-2016			20-05-2016 19:30			30 м. (1800 с.)			Симпсонови			
19:30			20-05-2016			20-05-2016 20:00			30 м. (1800 с.)			Семеен човек			
20:00			20-05-2016			20-05-2016 20:30			30 м. (1800 с.)			До последниот човек			
20:30			20-05-2016			20-05-2016 21:00			30 м. (1800 с.)			До последниот човек			
21:00			20-05-2016			20-05-2016 21:30			30 м. (1800 с.)			Мелница			
21:30			20-05-2016			20-05-2016 21:55			25 м. (1500 с.)			Мелница			
21:55			20-05-2016			20-05-2016 23:50			115 м. (6900 с.)			Тројца мажи и бебе			
23:50			20-05-2016			21-05-2016 00:45			55 м. (3300 с.)			Касл			
00:45			21-05-2016			21-05-2016 01:35			50 м. (3000 с.)			Татковина			
01:35			21-05-2016			21-05-2016 01:55			20 м. (1200 с.)			Футурама			
01:55			21-05-2016			21-05-2016 02:40			45 м. (2700 с.)			Коски			
02:40			21-05-2016			21-05-2016 03:25			45 м. (2700 с.)			Коски			
03:25			21-05-2016			21-05-2016 04:10			45 м. (2700 с.)			Касл			
04:10			21-05-2016			21-05-2016 04:55			45 м. (2700 с.)			Татковина			
04:55			21-05-2016			21-05-2016 05:20			25 м. (1500 с.)			Футурама			
05:20			21-05-2016			21-05-2016 05:40			20 м. (1200 с.)			Семеен човек			
05:40			21-05-2016			21-05-2016 06:00			20 м. (1200 с.)			Симпсонови			
06:00			21-05-2016			21-05-2016 06:45			45 м. (2700 с.)			Коски			
06:45			21-05-2016			21-05-2016 07:35			50 м. (3000 с.)			Коски			
07:35			21-05-2016			21-05-2016 08:30			55 м. (3300 с.)			Татковина			
08:30			21-05-2016			21-05-2016 09:35			65 м. (3900 с.)			Татковина			
09:35			21-05-2016			21-05-2016 10:05			30 м. (1800 с.)			Современо семејство			
10:05			21-05-2016			21-05-2016 10:30			25 м. (1500 с.)			Современо семејство			
10:30			21-05-2016			21-05-2016 10:55			25 м. (1500 с.)			Современо семејство			
10:55			21-05-2016			21-05-2016 11:20			25 м. (1500 с.)			Современо семејство			
11:20			21-05-2016			21-05-2016 11:50			30 м. (1800 с.)			Најсмешните домашни видеа			
11:50			21-05-2016			21-05-2016 12:15			25 м. (1500 с.)			Мелница			
12:15			21-05-2016			21-05-2016 12:40			25 м. (1500 с.)			Мелница			
12:40			21-05-2016			21-05-2016 13:30			50 м. (3000 с.)			Касл			
13:30			21-05-2016			21-05-2016 14:20			50 м. (3000 с.)			Касл			
14:20			21-05-2016			21-05-2016 14:50			30 м. (1800 с.)			Најсмешните домашни видеа			
14:50			21-05-2016			21-05-2016 16:50			120 м. (7200 с.)			Тројца мажи и бебе			
16:50			21-05-2016			21-05-2016 17:15			25 м. (1500 с.)			Голдбергови			
17:15			21-05-2016			21-05-2016 17:40			25 м. (1500 с.)			Голдбергови			
17:40			21-05-2016			21-05-2016 18:10			30 м. (1800 с.)			Голдбергови			
18:10			21-05-2016			21-05-2016 19:05			55 м. (3300 с.)			Квантико			
19:05			21-05-2016			21-05-2016 20:00			55 м. (3300 с.)			Квантико			
20:00			21-05-2016			21-05-2016 21:00			60 м. (3600 с.)			Касл			
21:00			21-05-2016			21-05-2016 22:00			60 м. (3600 с.)			11.22.63			
22:00			21-05-2016			21-05-2016 23:50			110 м. (6600 с.)			Бетовен			
23:50			21-05-2016			22-05-2016 01:40			110 м. (6600 с.)			Икс-фактор САД			
01:40			22-05-2016			22-05-2016 02:20			40 м. (2400 с.)			Икс-фактор САД			
02:20			22-05-2016			22-05-2016 03:05			45 м. (2700 с.)			НЦИС			
03:05			22-05-2016			22-05-2016 03:50			45 м. (2700 с.)			НЦИС			
03:50			22-05-2016			22-05-2016 04:35			45 м. (2700 с.)			НЦИС			
04:35			22-05-2016			22-05-2016 05:20			45 м. (2700 с.)			НЦИС			
05:20			22-05-2016			22-05-2016 06:00			40 м. (2400 с.)			НЦИС			
06:00			22-05-2016			22-05-2016 06:45			45 м. (2700 с.)			Коски			
06:45			22-05-2016			22-05-2016 07:35			50 м. (3000 с.)			Коски			
07:35			22-05-2016			22-05-2016 08:30			55 м. (3300 с.)			Татковина			
08:30			22-05-2016			22-05-2016 09:35			65 м. (3900 с.)			Татковина			
09:35			22-05-2016			22-05-2016 10:05			30 м. (1800 с.)			Современо семејство			
10:05			22-05-2016			22-05-2016 10:30			25 м. (1500 с.)			Современо семејство			
10:30			22-05-2016			22-05-2016 10:55			25 м. (1500 с.)			Современо семејство			
10:55			22-05-2016			22-05-2016 11:20			25 м. (1500 с.)			Современо семејство			
11:20			22-05-2016			22-05-2016 11:50			30 м. (1800 с.)			Најсмешните домашни видеа			
11:50			22-05-2016			22-05-2016 12:40			50 м. (3000 с.)			Касл			
12:40			22-05-2016			22-05-2016 13:30			50 м. (3000 с.)			Касл			
13:30			22-05-2016			22-05-2016 14:20			50 м. (3000 с.)			Касл			
14:20			22-05-2016			22-05-2016 14:45			25 м. (1500 с.)			Најсмешните домашни видеа			
14:45			22-05-2016			22-05-2016 16:30			105 м. (6300 с.)			Бетовен			
16:30			22-05-2016			22-05-2016 16:55			25 м. (1500 с.)			Голдбергови			
16:55			22-05-2016			22-05-2016 17:20			25 м. (1500 с.)			Голдбергови			
17:20			22-05-2016			22-05-2016 17:45			25 м. (1500 с.)			Мелница			
17:45			22-05-2016			22-05-2016 18:10			25 м. (1500 с.)			Мелница			
18:10			22-05-2016			22-05-2016 19:05			55 м. (3300 с.)			Квантико			
19:05			22-05-2016			22-05-2016 20:00			55 м. (3300 с.)			Квантико			
20:00			22-05-2016			22-05-2016 21:00			60 м. (3600 с.)			Империја			
21:00			22-05-2016			22-05-2016 22:00			60 м. (3600 с.)			Касл			
22:00			22-05-2016			23-05-2016 01:00			180 м. (10800 с.)			Пиратите од Карибите: Ковчегот на мртовецот			
01:00			23-05-2016			23-05-2016 02:20			80 м. (4800 с.)			Икс-фактор САД			
02:20			23-05-2016			23-05-2016 03:05			45 м. (2700 с.)			НЦИС			
03:05			23-05-2016			23-05-2016 03:50			45 м. (2700 с.)			НЦИС			
03:50			23-05-2016			23-05-2016 04:35			45 м. (2700 с.)			НЦИС			
04:35			23-05-2016			23-05-2016 05:20			45 м. (2700 с.)			НЦИС			
05:20			23-05-2016			23-05-2016 06:00			40 м. (2400 с.)			НЦИС			
06:00			23-05-2016			23-05-2016 06:25			25 м. (1500 с.)			Најсмешните домашни видеа			
06:25			23-05-2016			23-05-2016 07:10			45 м. (2700 с.)			НЦИС			
07:10			23-05-2016			23-05-2016 08:05			55 м. (3300 с.)			НЦИС			
08:05			23-05-2016			23-05-2016 09:10			65 м. (3900 с.)			Татковина			
09:10			23-05-2016			23-05-2016 09:35			25 м. (1500 с.)			Современо семејство			
09:35			23-05-2016			23-05-2016 10:00			25 м. (1500 с.)			Современо семејство			
10:00			23-05-2016			23-05-2016 10:50			50 м. (3000 с.)			Коски			
10:50			23-05-2016			23-05-2016 11:40			50 м. (3000 с.)			Коски			
11:40			23-05-2016			23-05-2016 12:10			30 м. (1800 с.)			До последниот човек			
12:10			23-05-2016			23-05-2016 12:35			25 м. (1500 с.)			До последниот човек			
12:35			23-05-2016			23-05-2016 15:40			185 м. (11100 с.)			Пиратите од Карибите: Ковчегот на мртовецот			
15:40			23-05-2016			23-05-2016 16:15			35 м. (2100 с.)			Мелница			
16:15			23-05-2016			23-05-2016 17:05			50 м. (3000 с.)			НЦИС			
17:05			23-05-2016			23-05-2016 18:00			55 м. (3300 с.)			НЦИС			
18:00			23-05-2016			23-05-2016 18:30			30 м. (1800 с.)			Современо семејство			
18:30			23-05-2016			23-05-2016 19:00			30 м. (1800 с.)			Современо семејство			
19:00			23-05-2016			23-05-2016 19:30			30 м. (1800 с.)			Симпсонови			
19:30			23-05-2016			23-05-2016 20:00			30 м. (1800 с.)			Семеен човек			
20:00			23-05-2016			23-05-2016 20:30			30 м. (1800 с.)			До последниот човек			
20:30			23-05-2016			23-05-2016 21:00			30 м. (1800 с.)			До последниот човек			
21:00			23-05-2016			23-05-2016 22:00			60 м. (3600 с.)			Квантико			
22:00			23-05-2016			23-05-2016 22:55			55 м. (3300 с.)			11.22.63			
22:55			23-05-2016			23-05-2016 23:50			55 м. (3300 с.)			Црн список			
23:50			23-05-2016			24-05-2016 00:45			55 м. (3300 с.)			Касл			
00:45			24-05-2016			24-05-2016 01:35			50 м. (3000 с.)			Татковина			
01:35			24-05-2016			24-05-2016 01:55			20 м. (1200 с.)			Футурама			
01:55			24-05-2016			24-05-2016 02:40			45 м. (2700 с.)			Коски			
02:40			24-05-2016			24-05-2016 03:25			45 м. (2700 с.)			Коски			
03:25			24-05-2016			24-05-2016 04:10			45 м. (2700 с.)			Касл			
04:10			24-05-2016			24-05-2016 04:55			45 м. (2700 с.)			Татковина			
04:55			24-05-2016			24-05-2016 05:20			25 м. (1500 с.)			Футурама			
05:20			24-05-2016			24-05-2016 05:40			20 м. (1200 с.)			Семеен човек			
05:40			24-05-2016			24-05-2016 06:00			20 м. (1200 с.)			Симпсонови			
06:00			24-05-2016			24-05-2016 06:25			25 м. (1500 с.)			Најсмешните домашни видеа			
06:25			24-05-2016			24-05-2016 07:10			45 м. (2700 с.)			НЦИС			
07:10			24-05-2016			24-05-2016 08:05			55 м. (3300 с.)			НЦИС			
08:05			24-05-2016			24-05-2016 09:10			65 м. (3900 с.)			Татковина			
09:10			24-05-2016			24-05-2016 09:35			25 м. (1500 с.)			Современо семејство			
09:35			24-05-2016			24-05-2016 10:00			25 м. (1500 с.)			Современо семејство			
10:00			24-05-2016			24-05-2016 10:50			50 м. (3000 с.)			Коски			
10:50			24-05-2016			24-05-2016 11:40			50 м. (3000 с.)			Коски			
11:40			24-05-2016			24-05-2016 12:10			30 м. (1800 с.)			До последниот човек			
12:10			24-05-2016			24-05-2016 12:35			25 м. (1500 с.)			До последниот човек			
12:35			24-05-2016			24-05-2016 13:30			55 м. (3300 с.)			Квантико			
13:30			24-05-2016			24-05-2016 14:25			55 м. (3300 с.)			11.22.63			
14:25			24-05-2016			24-05-2016 14:55			30 м. (1800 с.)			Симпсонови			
14:55			24-05-2016			24-05-2016 15:20			25 м. (1500 с.)			Најсмешните домашни видеа			
15:20			24-05-2016			24-05-2016 16:15			55 м. (3300 с.)			Црн список			
16:15			24-05-2016			24-05-2016 17:05			50 м. (3000 с.)			НЦИС			
17:05			24-05-2016			24-05-2016 18:00			55 м. (3300 с.)			НЦИС			
18:00			24-05-2016			24-05-2016 18:30			30 м. (1800 с.)			Современо семејство			
18:30			24-05-2016			24-05-2016 19:00			30 м. (1800 с.)			Современо семејство			
19:00			24-05-2016			24-05-2016 19:30			30 м. (1800 с.)			Симпсонови			
19:30			24-05-2016			24-05-2016 20:00			30 м. (1800 с.)			Семеен човек			
20:00			24-05-2016			24-05-2016 20:30			30 м. (1800 с.)			До последниот човек			
20:30			24-05-2016			24-05-2016 21:00			30 м. (1800 с.)			До последниот човек			
21:00			24-05-2016			24-05-2016 22:00			60 м. (3600 с.)			Квантико			
22:00			24-05-2016			24-05-2016 22:55			55 м. (3300 с.)			Касл			
22:55			24-05-2016			24-05-2016 23:50			55 м. (3300 с.)			Црн список			
23:50			24-05-2016			25-05-2016 00:45			55 м. (3300 с.)			Касл			
00:45			25-05-2016			25-05-2016 01:35			50 м. (3000 с.)			Татковина			
01:35			25-05-2016			25-05-2016 01:55			20 м. (1200 с.)			Футурама			
01:55			25-05-2016			25-05-2016 02:40			45 м. (2700 с.)			Коски			
02:40			25-05-2016			25-05-2016 03:25			45 м. (2700 с.)			Коски			
03:25			25-05-2016			25-05-2016 04:10			45 м. (2700 с.)			Касл			
04:10			25-05-2016			25-05-2016 04:55			45 м. (2700 с.)			Татковина			
04:55			25-05-2016			25-05-2016 05:20			25 м. (1500 с.)			Футурама			
05:20			25-05-2016			25-05-2016 05:40			20 м. (1200 с.)			Семеен човек			
05:40			25-05-2016			25-05-2016 06:00			20 м. (1200 с.)			Симпсонови			
06:00			25-05-2016			25-05-2016 06:25			25 м. (1500 с.)			Најсмешните домашни видеа			
06:25			25-05-2016			25-05-2016 07:10			45 м. (2700 с.)			НЦИС			
07:10			25-05-2016			25-05-2016 08:05			55 м. (3300 с.)			НЦИС			
08:05			25-05-2016			25-05-2016 09:10			65 м. (3900 с.)			Татковина			
09:10			25-05-2016			25-05-2016 09:35			25 м. (1500 с.)			Современо семејство			
09:35			25-05-2016			25-05-2016 10:00			25 м. (1500 с.)			Современо семејство			
10:00			25-05-2016			25-05-2016 10:50			50 м. (3000 с.)			Коски			
10:50			25-05-2016			25-05-2016 11:40			50 м. (3000 с.)			Коски			
11:40			25-05-2016			25-05-2016 12:10			30 м. (1800 с.)			До последниот човек			
12:10			25-05-2016			25-05-2016 12:35			25 м. (1500 с.)			До последниот човек			
12:35			25-05-2016			25-05-2016 13:30			55 м. (3300 с.)			Квантико			
13:30			25-05-2016			25-05-2016 14:25			55 м. (3300 с.)			Касл			
14:25			25-05-2016			25-05-2016 14:55			30 м. (1800 с.)			Симпсонови			
14:55			25-05-2016			25-05-2016 15:20			25 м. (1500 с.)			Најсмешните домашни видеа			
15:20			25-05-2016			25-05-2016 16:15			55 м. (3300 с.)			Црн список			
16:15			25-05-2016			25-05-2016 17:05			50 м. (3000 с.)			НЦИС			
17:05			25-05-2016			25-05-2016 18:00			55 м. (3300 с.)			НЦИС			
18:00			25-05-2016			25-05-2016 18:30			30 м. (1800 с.)			Современо семејство			
18:30			25-05-2016			25-05-2016 19:00			30 м. (1800 с.)			Современо семејство			
19:00			25-05-2016			25-05-2016 19:30			30 м. (1800 с.)			Симпсонови			
19:30			25-05-2016			25-05-2016 20:00			30 м. (1800 с.)			Семеен човек			
20:00			25-05-2016			25-05-2016 20:30			30 м. (1800 с.)			До последниот човек			
20:30			25-05-2016			25-05-2016 21:00			30 м. (1800 с.)			До последниот човек			
21:00			25-05-2016			25-05-2016 22:00			60 м. (3600 с.)			Квантико			
22:00			25-05-2016			25-05-2016 22:55			55 м. (3300 с.)			Касл			
22:55			25-05-2016			25-05-2016 23:50			55 м. (3300 с.)			Црн список			
23:50			25-05-2016			26-05-2016 00:45			55 м. (3300 с.)			Касл			
00:45			26-05-2016			26-05-2016 01:35			50 м. (3000 с.)			Татковина			
01:35			26-05-2016			26-05-2016 01:55			20 м. (1200 с.)			Футурама			
01:55			26-05-2016			26-05-2016 02:40			45 м. (2700 с.)			Коски			
02:40			26-05-2016			26-05-2016 03:25			45 м. (2700 с.)			Коски			
03:25			26-05-2016			26-05-2016 04:10			45 м. (2700 с.)			Касл			
04:10			26-05-2016			26-05-2016 04:55			45 м. (2700 с.)			Татковина			
04:55			26-05-2016			26-05-2016 05:20			25 м. (1500 с.)			Футурама			
05:20			26-05-2016			26-05-2016 05:40			20 м. (1200 с.)			Семеен човек			
05:40			26-05-2016			26-05-2016 06:00			20 м. (1200 с.)			Симпсонови			
06:00			26-05-2016			26-05-2016 06:25			25 м. (1500 с.)			Најсмешните домашни видеа			
06:25			26-05-2016			26-05-2016 07:10			45 м. (2700 с.)			НЦИС			
07:10			26-05-2016			26-05-2016 08:05			55 м. (3300 с.)			НЦИС			
08:05			26-05-2016			26-05-2016 09:10			65 м. (3900 с.)			Татковина			
09:10			26-05-2016			26-05-2016 09:35			25 м. (1500 с.)			Современо семејство			
09:35			26-05-2016			26-05-2016 10:00			25 м. (1500 с.)			Современо семејство			
10:00			26-05-2016			26-05-2016 10:50			50 м. (3000 с.)			Коски			
10:50			26-05-2016			26-05-2016 11:40			50 м. (3000 с.)			Коски			
11:40			26-05-2016			26-05-2016 12:10			30 м. (1800 с.)			До последниот човек			
12:10			26-05-2016			26-05-2016 12:35			25 м. (1500 с.)			До последниот човек			
12:35			26-05-2016			26-05-2016 13:30			55 м. (3300 с.)			Квантико			
13:30			26-05-2016			26-05-2016 14:25			55 м. (3300 с.)			Касл			
14:25			26-05-2016			26-05-2016 14:55			30 м. (1800 с.)			Симпсонови			
14:55			26-05-2016			26-05-2016 15:20			25 м. (1500 с.)			Најсмешните домашни видеа			
15:20			26-05-2016			26-05-2016 16:15			55 м. (3300 с.)			Црн список			
16:15			26-05-2016			26-05-2016 17:05			50 м. (3000 с.)			НЦИС			
17:05			26-05-2016			26-05-2016 18:00			55 м. (3300 с.)			НЦИС			
18:00			26-05-2016			26-05-2016 18:30			30 м. (1800 с.)			Современо семејство			
18:30			26-05-2016			26-05-2016 19:00			30 м. (1800 с.)			Современо семејство			
19:00			26-05-2016			26-05-2016 19:30			30 м. (1800 с.)			Симпсонови			
19:30			26-05-2016			26-05-2016 20:00			30 м. (1800 с.)			Семеен човек			
20:00			26-05-2016			26-05-2016 20:30			30 м. (1800 с.)			До последниот човек			
20:30			26-05-2016			26-05-2016 21:00			30 м. (1800 с.)			До последниот човек			
21:00			26-05-2016			26-05-2016 22:00			60 м. (3600 с.)			Квантико			
22:00			26-05-2016			26-05-2016 22:55			55 м. (3300 с.)			Агентите на Ш.Т.И.Т.			
22:55			26-05-2016			26-05-2016 23:50			55 м. (3300 с.)			Црн список			
23:50			26-05-2016			27-05-2016 00:45			55 м. (3300 с.)			Касл			
00:45			27-05-2016			27-05-2016 01:35			50 м. (3000 с.)			Татковина			
01:35			27-05-2016			27-05-2016 01:55			20 м. (1200 с.)			Футурама			
01:55			27-05-2016			27-05-2016 02:40			45 м. (2700 с.)			Коски			
02:40			27-05-2016			27-05-2016 03:25			45 м. (2700 с.)			Коски			
03:25			27-05-2016			27-05-2016 04:10			45 м. (2700 с.)			Касл			
04:10			27-05-2016			27-05-2016 04:55			45 м. (2700 с.)			Татковина			
04:55			27-05-2016			27-05-2016 05:20			25 м. (1500 с.)			Футурама			
05:20			27-05-2016			27-05-2016 05:40			20 м. (1200 с.)			Семеен човек			
05:40			27-05-2016			27-05-2016 06:00			20 м. (1200 с.)			Симпсонови			
06:00			27-05-2016			27-05-2016 06:25			25 м. (1500 с.)			Најсмешните домашни видеа			
06:25			27-05-2016			27-05-2016 07:10			45 м. (2700 с.)			НЦИС			
07:10			27-05-2016			27-05-2016 08:05			55 м. (3300 с.)			НЦИС			
08:05			27-05-2016			27-05-2016 09:10			65 м. (3900 с.)			Татковина			
09:10			27-05-2016			27-05-2016 09:35			25 м. (1500 с.)			Современо семејство			
09:35			27-05-2016			27-05-2016 10:00			25 м. (1500 с.)			Современо семејство			
10:00			27-05-2016			27-05-2016 10:50			50 м. (3000 с.)			Коски			
10:50			27-05-2016			27-05-2016 11:40			50 м. (3000 с.)			Коски			
11:40			27-05-2016			27-05-2016 12:10			30 м. (1800 с.)			До последниот човек			
12:10			27-05-2016			27-05-2016 12:35			25 м. (1500 с.)			До последниот човек			
12:35			27-05-2016			27-05-2016 13:30			55 м. (3300 с.)			Квантико			
13:30			27-05-2016			27-05-2016 14:25			55 м. (3300 с.)			Агентите на Ш.Т.И.Т.			
14:25			27-05-2016			27-05-2016 14:55			30 м. (1800 с.)			Симпсонови			
14:55			27-05-2016			27-05-2016 15:20			25 м. (1500 с.)			Најсмешните домашни видеа			
15:20			27-05-2016			27-05-2016 16:15			55 м. (3300 с.)			Црн список			
16:15			27-05-2016			27-05-2016 17:05			50 м. (3000 с.)			НЦИС			
17:05			27-05-2016			27-05-2016 18:00			55 м. (3300 с.)			НЦИС			
18:00			27-05-2016			27-05-2016 18:30			30 м. (1800 с.)			Современо семејство			
18:30			27-05-2016			27-05-2016 19:00			30 м. (1800 с.)			Современо семејство			
19:00			27-05-2016			27-05-2016 19:30			30 м. (1800 с.)			Симпсонови			
19:30			27-05-2016			27-05-2016 20:00			30 м. (1800 с.)			Семеен човек			
20:00			27-05-2016			27-05-2016 20:30			30 м. (1800 с.)			До последниот човек			
20:30			27-05-2016			27-05-2016 21:00			30 м. (1800 с.)			Милерови			
21:00			27-05-2016			27-05-2016 21:30			30 м. (1800 с.)			Мелница			
21:30			27-05-2016			27-05-2016 21:55			25 м. (1500 с.)			Мелница			
21:55			27-05-2016			27-05-2016 23:50			115 м. (6900 с.)			Three Men and a Little Lady			
23:50			27-05-2016			28-05-2016 00:45			55 м. (3300 с.)			Касл			
00:45			28-05-2016			28-05-2016 01:35			50 м. (3000 с.)			Татковина			
01:35			28-05-2016			28-05-2016 01:55			20 м. (1200 с.)			Футурама			
01:55			28-05-2016			28-05-2016 02:40			45 м. (2700 с.)			Коски			
02:40			28-05-2016			28-05-2016 03:25			45 м. (2700 с.)			Коски			
03:25			28-05-2016			28-05-2016 04:10			45 м. (2700 с.)			Касл			
04:10			28-05-2016			28-05-2016 04:55			45 м. (2700 с.)			Татковина			
04:55			28-05-2016			28-05-2016 05:20			25 м. (1500 с.)			Футурама			
05:20			28-05-2016			28-05-2016 05:40			20 м. (1200 с.)			Семеен човек			
05:40			28-05-2016			28-05-2016 06:00			20 м. (1200 с.)			Симпсонови			
06:00			28-05-2016			28-05-2016 06:45			45 м. (2700 с.)			Коски			
06:45			28-05-2016			28-05-2016 07:35			50 м. (3000 с.)			Коски			
07:35			28-05-2016			28-05-2016 08:30			55 м. (3300 с.)			Татковина			
08:30			28-05-2016			28-05-2016 09:35			65 м. (3900 с.)			Татковина			
09:35			28-05-2016			28-05-2016 10:05			30 м. (1800 с.)			Современо семејство			
10:05			28-05-2016			28-05-2016 10:30			25 м. (1500 с.)			Современо семејство			
10:30			28-05-2016			28-05-2016 10:55			25 м. (1500 с.)			Современо семејство			
10:55			28-05-2016			28-05-2016 11:20			25 м. (1500 с.)			Современо семејство			
11:20			28-05-2016			28-05-2016 11:50			30 м. (1800 с.)			Најсмешните домашни видеа			
11:50			28-05-2016			28-05-2016 12:15			25 м. (1500 с.)			Мелница			
12:15			28-05-2016			28-05-2016 12:40			25 м. (1500 с.)			Мелница			
12:40			28-05-2016			28-05-2016 13:30			50 м. (3000 с.)			Касл			
13:30			28-05-2016			28-05-2016 14:20			50 м. (3000 с.)			Касл			
14:20			28-05-2016			28-05-2016 14:45			25 м. (1500 с.)			Најсмешните домашни видеа			
14:45			28-05-2016			28-05-2016 16:45			120 м. (7200 с.)			Three Men and a Little Lady			
16:45			28-05-2016			28-05-2016 17:15			30 м. (1800 с.)			Голдбергови			
17:15			28-05-2016			28-05-2016 17:40			25 м. (1500 с.)			Голдбергови			
17:40			28-05-2016			28-05-2016 18:10			30 м. (1800 с.)			Голдбергови			
18:10			28-05-2016			28-05-2016 19:05			55 м. (3300 с.)			Квантико			
19:05			28-05-2016			28-05-2016 20:00			55 м. (3300 с.)			Квантико			
20:00			28-05-2016			28-05-2016 21:00			60 м. (3600 с.)			Касл			
21:00			28-05-2016			28-05-2016 22:00			60 м. (3600 с.)			11.22.63			
22:00			28-05-2016			28-05-2016 23:45			105 м. (6300 с.)			Бетовен 2			
23:45			28-05-2016			29-05-2016 00:40			55 м. (3300 с.)			Икс-фактор САД			
00:40			29-05-2016			29-05-2016 02:20			100 м. (6000 с.)			Икс-фактор САД			
02:20			29-05-2016			29-05-2016 03:05			45 м. (2700 с.)			НЦИС			
03:05			29-05-2016			29-05-2016 03:50			45 м. (2700 с.)			НЦИС			
03:50			29-05-2016			29-05-2016 04:35			45 м. (2700 с.)			НЦИС			
04:35			29-05-2016			29-05-2016 05:20			45 м. (2700 с.)			НЦИС			
05:20			29-05-2016			29-05-2016 06:00			40 м. (2400 с.)			НЦИС			
06:00			29-05-2016			29-05-2016 06:45			45 м. (2700 с.)			Коски			
06:45			29-05-2016			29-05-2016 07:35			50 м. (3000 с.)			Коски			
07:35			29-05-2016			29-05-2016 08:30			55 м. (3300 с.)			Татковина			
08:30			29-05-2016			29-05-2016 09:35			65 м. (3900 с.)			Татковина			
09:35			29-05-2016			29-05-2016 10:05			30 м. (1800 с.)			Современо семејство			
10:05			29-05-2016			29-05-2016 10:30			25 м. (1500 с.)			Современо семејство			
10:30			29-05-2016			29-05-2016 10:55			25 м. (1500 с.)			Современо семејство			
10:55			29-05-2016			29-05-2016 11:20			25 м. (1500 с.)			Современо семејство			
11:20			29-05-2016			29-05-2016 11:50			30 м. (1800 с.)			Најсмешните домашни видеа			
11:50			29-05-2016			29-05-2016 12:40			50 м. (3000 с.)			Касл			
12:40			29-05-2016			29-05-2016 13:30			50 м. (3000 с.)			Касл			
13:30			29-05-2016			29-05-2016 14:20			50 м. (3000 с.)			Касл			
14:20			29-05-2016			29-05-2016 14:45			25 м. (1500 с.)			Најсмешните домашни видеа			
14:45			29-05-2016			29-05-2016 16:30			105 м. (6300 с.)			Бетовен 2			
16:30			29-05-2016			29-05-2016 16:55			25 м. (1500 с.)			Голдбергови			
16:55			29-05-2016			29-05-2016 17:20			25 м. (1500 с.)			Голдбергови			
17:20			29-05-2016			29-05-2016 17:45			25 м. (1500 с.)			Мелница			
17:45			29-05-2016			29-05-2016 18:10			25 м. (1500 с.)			Мелница			
18:10			29-05-2016			29-05-2016 19:05			55 м. (3300 с.)			Квантико			
19:05			29-05-2016			29-05-2016 20:00			55 м. (3300 с.)			Квантико			
20:00			29-05-2016			29-05-2016 21:00			60 м. (3600 с.)			Агентите на Ш.Т.И.Т.			
21:00			29-05-2016			29-05-2016 22:00			60 м. (3600 с.)			Касл			
22:00			29-05-2016			30-05-2016 01:30			210 м. (12600 с.)			Пиратите од Карибите: На крајот на светот			
01:30			30-05-2016			30-05-2016 02:20			50 м. (3000 с.)			Икс-фактор САД			
02:20			30-05-2016			30-05-2016 03:05			45 м. (2700 с.)			НЦИС			
03:05			30-05-2016			30-05-2016 03:50			45 м. (2700 с.)			НЦИС			
03:50			30-05-2016			30-05-2016 04:35			45 м. (2700 с.)			НЦИС			
04:35			30-05-2016			30-05-2016 05:20			45 м. (2700 с.)			НЦИС			
05:20			30-05-2016			30-05-2016 06:00			40 м. (2400 с.)			НЦИС			
06:00			30-05-2016			30-05-2016 06:25			25 м. (1500 с.)			Најсмешните домашни видеа			
06:25			30-05-2016			30-05-2016 07:10			45 м. (2700 с.)			НЦИС			
07:10			30-05-2016			30-05-2016 08:05			55 м. (3300 с.)			НЦИС			
08:05			30-05-2016			30-05-2016 09:10			65 м. (3900 с.)			Татковина			
09:10			30-05-2016			30-05-2016 09:35			25 м. (1500 с.)			Современо семејство			
09:35			30-05-2016			30-05-2016 10:00			25 м. (1500 с.)			Современо семејство			
10:00			30-05-2016			30-05-2016 10:50			50 м. (3000 с.)			Коски			
10:50			30-05-2016			30-05-2016 11:40			50 м. (3000 с.)			Коски			
11:40			30-05-2016			30-05-2016 12:10			30 м. (1800 с.)			До последниот човек			
12:10			30-05-2016			30-05-2016 12:40			30 м. (1800 с.)			Милерови			
12:40			30-05-2016			30-05-2016 16:15			215 м. (12900 с.)			Пиратите од Карибите: На крајот на светот			
16:15			30-05-2016			30-05-2016 17:05			50 м. (3000 с.)			НЦИС			
17:05			30-05-2016			30-05-2016 18:00			55 м. (3300 с.)			НЦИС			
18:00			30-05-2016			30-05-2016 18:30			30 м. (1800 с.)			Современо семејство			
18:30			30-05-2016			30-05-2016 19:00			30 м. (1800 с.)			Современо семејство			
19:00			30-05-2016			30-05-2016 19:30			30 м. (1800 с.)			Симпсонови			
19:30			30-05-2016			30-05-2016 20:00			30 м. (1800 с.)			Семеен човек			
20:00			30-05-2016			30-05-2016 20:30			30 м. (1800 с.)			Милерови			
20:30			30-05-2016			30-05-2016 21:00			30 м. (1800 с.)			Милерови			
21:00			30-05-2016			30-05-2016 22:00			60 м. (3600 с.)			Малцински извештај			
22:00			30-05-2016			30-05-2016 22:55			55 м. (3300 с.)			11.22.63			
22:55			30-05-2016			30-05-2016 23:50			55 м. (3300 с.)			Црн список			
23:50			30-05-2016			31-05-2016 00:45			55 м. (3300 с.)			Касл			
00:45			31-05-2016			31-05-2016 01:35			50 м. (3000 с.)			Татковина			
01:35			31-05-2016			31-05-2016 01:55			20 м. (1200 с.)			Футурама			
01:55			31-05-2016			31-05-2016 02:40			45 м. (2700 с.)			Коски			
02:40			31-05-2016			31-05-2016 03:25			45 м. (2700 с.)			Коски			
03:25			31-05-2016			31-05-2016 04:10			45 м. (2700 с.)			Касл			
04:10			31-05-2016			31-05-2016 04:55			45 м. (2700 с.)			Татковина			
04:55			31-05-2016			31-05-2016 05:20			25 м. (1500 с.)			Футурама			
05:20			31-05-2016			31-05-2016 05:40			20 м. (1200 с.)			Семеен човек			
05:40			31-05-2016			31-05-2016 06:00			20 м. (1200 с.)			Симпсонови			
06:00			31-05-2016			31-05-2016 06:25			25 м. (1500 с.)			Најсмешните домашни видеа			
06:25			31-05-2016			31-05-2016 07:10			45 м. (2700 с.)			НЦИС			
07:10			31-05-2016			31-05-2016 08:05			55 м. (3300 с.)			НЦИС			
08:05			31-05-2016			31-05-2016 09:10			65 м. (3900 с.)			Татковина			
09:10			31-05-2016			31-05-2016 09:35			25 м. (1500 с.)			Современо семејство			
09:35			31-05-2016			31-05-2016 10:00			25 м. (1500 с.)			Современо семејство			
10:00			31-05-2016			31-05-2016 10:50			50 м. (3000 с.)			Коски			
10:50			31-05-2016			31-05-2016 11:40			50 м. (3000 с.)			Коски			
11:40			31-05-2016			31-05-2016 12:10			30 м. (1800 с.)			Милерови			
12:10			31-05-2016			31-05-2016 12:35			25 м. (1500 с.)			Милерови			
12:35			31-05-2016			31-05-2016 13:30			55 м. (3300 с.)			Малцински извештај			
13:30			31-05-2016			31-05-2016 14:25			55 м. (3300 с.)			11.22.63			
14:25			31-05-2016			31-05-2016 14:55			30 м. (1800 с.)			Симпсонови			
14:55			31-05-2016			31-05-2016 15:20			25 м. (1500 с.)			Најсмешните домашни видеа			
15:20			31-05-2016			31-05-2016 16:15			55 м. (3300 с.)			Црн список			
16:15			31-05-2016			31-05-2016 17:05			50 м. (3000 с.)			НЦИС			
17:05			31-05-2016			31-05-2016 18:00			55 м. (3300 с.)			Касл			
18:00			31-05-2016			31-05-2016 18:30			30 м. (1800 с.)			Современо семејство			
18:30			31-05-2016			31-05-2016 19:00			30 м. (1800 с.)			Современо семејство			
19:00			31-05-2016			31-05-2016 19:30			30 м. (1800 с.)			Симпсонови			
19:30			31-05-2016			31-05-2016 20:00			30 м. (1800 с.)			Семеен човек			
20:00			31-05-2016			31-05-2016 20:30			30 м. (1800 с.)			Милерови			
20:30			31-05-2016			31-05-2016 21:00			30 м. (1800 с.)			Милерови			
21:00			31-05-2016			31-05-2016 22:00			60 м. (3600 с.)			Малцински извештај			
22:00			31-05-2016			31-05-2016 22:55			55 м. (3300 с.)			Касл			
22:55			31-05-2016			31-05-2016 23:50			55 м. (3300 с.)			Црн список			
23:50			31-05-2016			01-06-2016 00:45			55 м. (3300 с.)			Касл			
