ПОЧЕТНО ВРЕМЕ	ПОЧЕТНА ДАТА		КРАЈНА ДАТА					ВРЕМЕТРАЕЊЕ				НАСЛОВ			
17:30			01-05-2016			01-05-2016 18:30			60 м. (3600 с.)			Влада – сериски филм			
18:30			01-05-2016			01-05-2016 19:05			35 м. (2100 с.)			Вести			
19:05			01-05-2016			01-05-2016 19:10			5 м. (300 с.)			Метео			
19:10			01-05-2016			01-05-2016 19:40			30 м. (1800 с.)			Фчерашни новости			
19:40			01-05-2016			01-05-2016 20:30			50 м. (3000 с.)			Код – информативен магазин			
20:30			01-05-2016			01-05-2016 22:30			120 м. (7200 с.)			Ќе биде што ќе биде – игран филм			
22:30			01-05-2016			01-05-2016 22:55			25 м. (1500 с.)			Вести			
22:55			01-05-2016			01-05-2016 23:00			5 м. (300 с.)			Спорт			
23:00			01-05-2016			01-05-2016 23:05			5 м. (300 с.)			Метео			
23:05			01-05-2016			01-05-2016 23:35			30 м. (1800 с.)			Фчерашни новости - реприза			
23:35			01-05-2016			02-05-2016 01:30			115 м. (6900 с.)			Боби – игран филм			
01:30			02-05-2016			02-05-2016 03:00			90 м. (5400 с.)			Маска - игран филм			
03:00			02-05-2016			02-05-2016 04:30			90 м. (5400 с.)			Утринска програма - реприза			
04:30			02-05-2016			02-05-2016 05:00			30 м. (1800 с.)			Македонска народна музика			
05:00			02-05-2016			02-05-2016 05:30			30 м. (1800 с.)			Македонска забавна музика			
05:30			02-05-2016			02-05-2016 06:30			60 м. (3600 с.)			Документарна програма			
06:30			02-05-2016			02-05-2016 07:00			30 м. (1800 с.)			Вести - реприза			
07:00			02-05-2016			02-05-2016 07:20			20 м. (1200 с.)			Македонска народна музика			
07:20			02-05-2016			02-05-2016 08:00			40 м. (2400 с.)			Росела – романска играна серија			
08:00			02-05-2016			02-05-2016 09:40			100 м. (6000 с.)			Утринска на Телма			
09:40			02-05-2016			02-05-2016 10:00			20 м. (1200 с.)			Топ шоп			
10:00			02-05-2016			02-05-2016 10:40			40 м. (2400 с.)			Утринска на Телма			
10:40			02-05-2016			02-05-2016 10:45			5 м. (300 с.)			Метео			
10:45			02-05-2016			02-05-2016 12:00			75 м. (4500 с.)			Утринска на Телма			
12:00			02-05-2016			02-05-2016 12:30			30 м. (1800 с.)			5+ фамилија – детска програма			
12:30			02-05-2016			02-05-2016 12:35			5 м. (300 с.)			Метео			
12:35			02-05-2016			02-05-2016 13:00			25 м. (1500 с.)			Храна и вино – емисија за кулинарство - реприза			
13:00			02-05-2016			02-05-2016 13:20			20 м. (1200 с.)			Топшоп			
13:20			02-05-2016			02-05-2016 13:45			25 м. (1500 с.)			Пријатели – хумористична серија - реприза			
13:45			02-05-2016			02-05-2016 14:25			40 м. (2400 с.)			Дневникот на Втората светска војна – документарна прог...			
14:25			02-05-2016			02-05-2016 14:40			15 м. (900 с.)			Топ шоп			
14:40			02-05-2016			02-05-2016 15:30			50 м. (3000 с.)			Фаличен пансион – хумористична серија - реприза			
15:30			02-05-2016			02-05-2016 16:00			30 м. (1800 с.)			Вести			
16:00			02-05-2016			02-05-2016 16:05			5 м. (300 с.)			Метео			
16:05			02-05-2016			02-05-2016 16:35			30 м. (1800 с.)			Фчерашни новости - реприза			
16:35			02-05-2016			02-05-2016 17:45			70 м. (4200 с.)			Дневникот на Втората светска војна – документарна прог...			
17:45			02-05-2016			02-05-2016 18:30			45 м. (2700 с.)			Храна и вино – емисија за кулинарство			
18:30			02-05-2016			02-05-2016 19:05			35 м. (2100 с.)			Вести			
19:05			02-05-2016			02-05-2016 19:10			5 м. (300 с.)			Спорт			
19:10			02-05-2016			02-05-2016 19:15			5 м. (300 с.)			Метео			
19:15			02-05-2016			02-05-2016 20:35			80 м. (4800 с.)			Топ тема – дебатна емисија			
20:35			02-05-2016			02-05-2016 22:30			115 м. (6900 с.)			Дилан Дог – игран филм			
22:30			02-05-2016			02-05-2016 23:05			35 м. (2100 с.)			Вести			
23:05			02-05-2016			02-05-2016 23:10			5 м. (300 с.)			Метео			
23:10			02-05-2016			03-05-2016 00:15			65 м. (3900 с.)			Топ тема – дебатна емисија - реприза			
00:15			03-05-2016			03-05-2016 02:05			110 м. (6600 с.)			Партнери во акција – игран филм			
02:05			03-05-2016			03-05-2016 02:15			10 м. (600 с.)			Гласот на Америка			
02:15			03-05-2016			03-05-2016 04:15			120 м. (7200 с.)			Утринска програма - реприза			
04:15			03-05-2016			03-05-2016 04:45			30 м. (1800 с.)			Народна македонска музика			
04:45			03-05-2016			03-05-2016 05:15			30 м. (1800 с.)			Забавна македонска музика			
05:15			03-05-2016			03-05-2016 06:00			45 м. (2700 с.)			Документарна програма			
06:00			03-05-2016			03-05-2016 06:30			30 м. (1800 с.)			Храна и вино - реприза			
06:30			03-05-2016			03-05-2016 07:00			30 м. (1800 с.)			Вести - реприза			
07:00			03-05-2016			03-05-2016 07:20			20 м. (1200 с.)			Македонска забавна музика			
07:20			03-05-2016			03-05-2016 08:00			40 м. (2400 с.)			Росела – романска играна серија			
08:00			03-05-2016			03-05-2016 08:30			30 м. (1800 с.)			Утринска на Телма			
08:30			03-05-2016			03-05-2016 08:40			10 м. (600 с.)			Метео			
08:40			03-05-2016			03-05-2016 09:40			60 м. (3600 с.)			Утринска на Телма			
09:40			03-05-2016			03-05-2016 10:00			20 м. (1200 с.)			Топшоп			
10:00			03-05-2016			03-05-2016 10:30			30 м. (1800 с.)			Утринска на Телма			
10:30			03-05-2016			03-05-2016 10:35			5 м. (300 с.)			Метео			
10:35			03-05-2016			03-05-2016 12:00			85 м. (5100 с.)			Утринска на Телма			
12:00			03-05-2016			03-05-2016 12:30			30 м. (1800 с.)			5+ фамилија – детска програма			
12:30			03-05-2016			03-05-2016 12:35			5 м. (300 с.)			Метео			
12:35			03-05-2016			03-05-2016 13:00			25 м. (1500 с.)			Храна и вино – емисија за кулинарство - реприза			
13:00			03-05-2016			03-05-2016 13:10			10 м. (600 с.)			Информа - Младински вести - реприза			
13:10			03-05-2016			03-05-2016 13:30			20 м. (1200 с.)			Топ шоп			
13:30			03-05-2016			03-05-2016 14:20			50 м. (3000 с.)			Дневникот на Втората светска војна – документарна прог...			
14:20			03-05-2016			03-05-2016 14:40			20 м. (1200 с.)			Топшоп			
14:40			03-05-2016			03-05-2016 15:30			50 м. (3000 с.)			Код – информативен магазин - реприза			
15:30			03-05-2016			03-05-2016 15:55			25 м. (1500 с.)			Вести			
15:55			03-05-2016			03-05-2016 16:00			5 м. (300 с.)			Метео			
16:00			03-05-2016			03-05-2016 17:15			75 м. (4500 с.)			Дневникот на Втората светска војна – документарна прог...			
17:15			03-05-2016			03-05-2016 17:50			35 м. (2100 с.)			Пријатели – хумористична серија			
17:50			03-05-2016			03-05-2016 18:30			40 м. (2400 с.)			Храна и вино – емисија за кулинарство			
18:30			03-05-2016			03-05-2016 19:10			40 м. (2400 с.)			Вести			
19:10			03-05-2016			03-05-2016 19:15			5 м. (300 с.)			Метео			
19:15			03-05-2016			03-05-2016 20:30			75 м. (4500 с.)			Топ Тема – дебатна емисија			
20:30			03-05-2016			03-05-2016 21:30			60 м. (3600 с.)			Разоткривање – сериски филм			
21:30			03-05-2016			03-05-2016 22:30			60 м. (3600 с.)			Лица за отсрел – сериски филм			
22:30			03-05-2016			03-05-2016 23:05			35 м. (2100 с.)			Вести			
23:05			03-05-2016			03-05-2016 23:10			5 м. (300 с.)			Метео			
23:10			03-05-2016			04-05-2016 00:15			65 м. (3900 с.)			Топ тема – дебатна емисија - реприза			
00:15			04-05-2016			04-05-2016 02:20			125 м. (7500 с.)			Подобар живот – игран филм			
02:20			04-05-2016			04-05-2016 02:30			10 м. (600 с.)			Гласот на Америка			
02:30			04-05-2016			04-05-2016 04:30			120 м. (7200 с.)			Утринска на Телма - реприза			
04:30			04-05-2016			04-05-2016 05:00			30 м. (1800 с.)			Народна македонска музика			
05:00			04-05-2016			04-05-2016 05:30			30 м. (1800 с.)			Забавна македонска музика			
05:30			04-05-2016			04-05-2016 05:45			15 м. (900 с.)			Документарна програма			
05:45			04-05-2016			04-05-2016 06:30			45 м. (2700 с.)			Храна и вино - реприза			
06:30			04-05-2016			04-05-2016 07:00			30 м. (1800 с.)			Вести - реприза			
07:00			04-05-2016			04-05-2016 07:20			20 м. (1200 с.)			Македонска народна музика			
07:20			04-05-2016			04-05-2016 08:00			40 м. (2400 с.)			Росела – играна серија			
08:00			04-05-2016			04-05-2016 08:30			30 м. (1800 с.)			Утринска на Телма – утринска програма			
08:30			04-05-2016			04-05-2016 08:40			10 м. (600 с.)			Метео			
08:40			04-05-2016			04-05-2016 09:40			60 м. (3600 с.)			Утринска на Телма			
09:40			04-05-2016			04-05-2016 10:00			20 м. (1200 с.)			Топ шоп			
10:00			04-05-2016			04-05-2016 10:30			30 м. (1800 с.)			Утринска на Телма			
10:30			04-05-2016			04-05-2016 10:35			5 м. (300 с.)			Метео			
10:35			04-05-2016			04-05-2016 12:00			85 м. (5100 с.)			Утринска на Телма			
12:00			04-05-2016			04-05-2016 12:30			30 м. (1800 с.)			5+ фамилија			
12:30			04-05-2016			04-05-2016 12:35			5 м. (300 с.)			Метео			
12:35			04-05-2016			04-05-2016 13:00			25 м. (1500 с.)			Храна и вино – емисија за кулинарство - реприза			
13:00			04-05-2016			04-05-2016 13:20			20 м. (1200 с.)			Топ шоп			
13:20			04-05-2016			04-05-2016 13:45			25 м. (1500 с.)			Пријатели – хумористична серија - реприза			
13:45			04-05-2016			04-05-2016 14:20			35 м. (2100 с.)			Дневникот на Втората светска војна – документарна прог...			
14:20			04-05-2016			04-05-2016 14:40			20 м. (1200 с.)			Топшоп			
14:40			04-05-2016			04-05-2016 15:30			50 м. (3000 с.)			Фаличен пансион - сериски филм - реприза			
15:30			04-05-2016			04-05-2016 15:55			25 м. (1500 с.)			Вести			
15:55			04-05-2016			04-05-2016 16:00			5 м. (300 с.)			Метео			
16:00			04-05-2016			04-05-2016 17:05			65 м. (3900 с.)			Дневникот на Втора светска војна – документарна програ...			
17:05			04-05-2016			04-05-2016 17:45			40 м. (2400 с.)			Пријатели – хумористична серија			
17:45			04-05-2016			04-05-2016 18:30			45 м. (2700 с.)			Храна и вино – емисија за кулинарство			
18:30			04-05-2016			04-05-2016 19:05			35 м. (2100 с.)			Вести			
19:05			04-05-2016			04-05-2016 19:10			5 м. (300 с.)			Спорт			
19:10			04-05-2016			04-05-2016 19:15			5 м. (300 с.)			Метео			
19:15			04-05-2016			04-05-2016 20:30			75 м. (4500 с.)			Топ тема – дебатна емисија			
20:30			04-05-2016			04-05-2016 21:30			60 м. (3600 с.)			Разотривање - сериски филм			
21:30			04-05-2016			04-05-2016 22:30			60 м. (3600 с.)			Лица за отсрел – сериски филм			
22:30			04-05-2016			04-05-2016 23:05			35 м. (2100 с.)			Вести			
23:05			04-05-2016			04-05-2016 23:10			5 м. (300 с.)			Метео			
23:10			04-05-2016			05-05-2016 00:15			65 м. (3900 с.)			Топ тема – дебатна емисија - реприза			
00:15			05-05-2016			05-05-2016 02:00			105 м. (6300 с.)			Ден за обука – игран филм			
02:00			05-05-2016			05-05-2016 02:10			10 м. (600 с.)			Гласот на Америка			
02:10			05-05-2016			05-05-2016 04:30			140 м. (8400 с.)			Утринска на Телма - реприза			
04:30			05-05-2016			05-05-2016 05:00			30 м. (1800 с.)			Народна македонска музика			
05:00			05-05-2016			05-05-2016 05:30			30 м. (1800 с.)			Забавна македонска музика			
05:30			05-05-2016			05-05-2016 05:45			15 м. (900 с.)			Документарна програма			
05:45			05-05-2016			05-05-2016 06:30			45 м. (2700 с.)			Храна и вино - реприза			
06:30			05-05-2016			05-05-2016 07:00			30 м. (1800 с.)			Вести - реприза			
07:00			05-05-2016			05-05-2016 07:20			20 м. (1200 с.)			Македонска народна музика			
07:20			05-05-2016			05-05-2016 08:00			40 м. (2400 с.)			Аниела – романска играна серија			
08:00			05-05-2016			05-05-2016 08:30			30 м. (1800 с.)			Утринска на Телма			
08:30			05-05-2016			05-05-2016 08:40			10 м. (600 с.)			Метео			
08:40			05-05-2016			05-05-2016 09:40			60 м. (3600 с.)			Утринска на Телма			
09:40			05-05-2016			05-05-2016 10:00			20 м. (1200 с.)			Топ шоп			
10:00			05-05-2016			05-05-2016 10:30			30 м. (1800 с.)			Утринска на Телма			
10:30			05-05-2016			05-05-2016 10:35			5 м. (300 с.)			Метео			
10:35			05-05-2016			05-05-2016 11:00			25 м. (1500 с.)			Утринска на Телма			
11:00			05-05-2016			05-05-2016 12:00			60 м. (3600 с.)			Том и Џери – анимиран филм за деца			
12:00			05-05-2016			05-05-2016 12:30			30 м. (1800 с.)			5+ фамилија премиера			
12:30			05-05-2016			05-05-2016 12:35			5 м. (300 с.)			Метео			
12:35			05-05-2016			05-05-2016 13:00			25 м. (1500 с.)			Храна и вино – емисија за кулинарство - реприза			
13:00			05-05-2016			05-05-2016 13:20			20 м. (1200 с.)			Топ шоп			
13:20			05-05-2016			05-05-2016 13:45			25 м. (1500 с.)			Пријатели – хумористична серија - реприза			
13:45			05-05-2016			05-05-2016 14:20			35 м. (2100 с.)			Дневникот на Втората светска војна – документарна прог...			
14:20			05-05-2016			05-05-2016 14:40			20 м. (1200 с.)			Топшоп			
14:40			05-05-2016			05-05-2016 15:30			50 м. (3000 с.)			Ајде дома - реприза			
15:30			05-05-2016			05-05-2016 16:00			30 м. (1800 с.)			Вести			
16:00			05-05-2016			05-05-2016 16:05			5 м. (300 с.)			Метео			
16:05			05-05-2016			05-05-2016 16:40			35 м. (2100 с.)			Фчерашни новости - реприза			
16:40			05-05-2016			05-05-2016 17:50			70 м. (4200 с.)			Дневникот на Втора светска војна – документарна програ...			
17:50			05-05-2016			05-05-2016 18:30			40 м. (2400 с.)			Храна и вино – емисија за кулинарство			
18:30			05-05-2016			05-05-2016 19:15			45 м. (2700 с.)			Вести			
19:15			05-05-2016			05-05-2016 20:30			75 м. (4500 с.)			Топ тема – дебатна емисија			
20:30			05-05-2016			05-05-2016 21:30			60 м. (3600 с.)			Разотривање - сериски филм			
21:30			05-05-2016			05-05-2016 22:30			60 м. (3600 с.)			Лица за отстрел – сериски филм			
22:30			05-05-2016			05-05-2016 23:05			35 м. (2100 с.)			Вести			
23:05			05-05-2016			05-05-2016 23:10			5 м. (300 с.)			Метео			
23:10			05-05-2016			06-05-2016 00:15			65 м. (3900 с.)			Топ тема – дебатна емисија - реприза			
00:15			06-05-2016			06-05-2016 02:20			125 м. (7500 с.)			Хорор викенд – игран филм			
02:20			06-05-2016			06-05-2016 02:30			10 м. (600 с.)			Гласот на Америка			
02:30			06-05-2016			06-05-2016 03:05			35 м. (2100 с.)			Автомагазин - реприза			
03:05			06-05-2016			06-05-2016 04:40			95 м. (5700 с.)			Утринска на Телма - реприза			
04:40			06-05-2016			06-05-2016 05:10			30 м. (1800 с.)			Народна македонска музика			
05:10			06-05-2016			06-05-2016 05:40			30 м. (1800 с.)			Забавна македонска музика			
05:40			06-05-2016			06-05-2016 06:30			50 м. (3000 с.)			Документарна програма			
06:30			06-05-2016			06-05-2016 07:00			30 м. (1800 с.)			Вести - реприза			
07:00			06-05-2016			06-05-2016 07:20			20 м. (1200 с.)			Македонска народна музика			
07:20			06-05-2016			06-05-2016 08:00			40 м. (2400 с.)			Аниела – романска играна серија			
08:00			06-05-2016			06-05-2016 08:30			30 м. (1800 с.)			Утринска на Телма			
08:30			06-05-2016			06-05-2016 08:40			10 м. (600 с.)			Метео			
08:40			06-05-2016			06-05-2016 09:40			60 м. (3600 с.)			Утринска на Телма			
09:40			06-05-2016			06-05-2016 10:00			20 м. (1200 с.)			Топ шоп			
10:00			06-05-2016			06-05-2016 10:30			30 м. (1800 с.)			Утринска на Телма			
10:30			06-05-2016			06-05-2016 10:35			5 м. (300 с.)			Метео			
10:35			06-05-2016			06-05-2016 12:00			85 м. (5100 с.)			Утринска на Телма			
12:00			06-05-2016			06-05-2016 12:30			30 м. (1800 с.)			5+ фамилија			
12:30			06-05-2016			06-05-2016 12:35			5 м. (300 с.)			Метео			
12:35			06-05-2016			06-05-2016 13:05			30 м. (1800 с.)			Храна и вино – емисија за кулинарство - реприза			
13:05			06-05-2016			06-05-2016 13:15			10 м. (600 с.)			Информа – Младински вести - реприза			
13:15			06-05-2016			06-05-2016 13:30			15 м. (900 с.)			Топшоп			
13:30			06-05-2016			06-05-2016 14:30			60 м. (3600 с.)			Дневникот на Втората светска војна – документарна прог...			
14:30			06-05-2016			06-05-2016 14:50			20 м. (1200 с.)			Топ шоп			
14:50			06-05-2016			06-05-2016 15:30			40 м. (2400 с.)			хумористична серија - реприза			
15:30			06-05-2016			06-05-2016 15:55			25 м. (1500 с.)			Вести			
15:55			06-05-2016			06-05-2016 16:00			5 м. (300 с.)			Метео			
16:00			06-05-2016			06-05-2016 17:15			75 м. (4500 с.)			Дневникот на Втора светска војна – документарна програ...			
17:15			06-05-2016			06-05-2016 17:55			40 м. (2400 с.)			Пријатели – хумористична серија			
17:55			06-05-2016			06-05-2016 18:30			35 м. (2100 с.)			Храна и вино – емисија за кулинарство			
18:30			06-05-2016			06-05-2016 19:10			40 м. (2400 с.)			Вести			
19:10			06-05-2016			06-05-2016 19:15			5 м. (300 с.)			Метео			
19:15			06-05-2016			06-05-2016 20:30			75 м. (4500 с.)			Топ тема – дебатна емисија			
20:30			06-05-2016			06-05-2016 21:30			60 м. (3600 с.)			Разоткривање - сериски филм			
21:30			06-05-2016			06-05-2016 22:30			60 м. (3600 с.)			Танцувајќи на работ – сериски филм			
22:30			06-05-2016			06-05-2016 23:05			35 м. (2100 с.)			Вести			
23:05			06-05-2016			06-05-2016 23:10			5 м. (300 с.)			Метео			
23:10			06-05-2016			07-05-2016 00:15			65 м. (3900 с.)			Топ тема – дебатна емисија - реприза			
00:15			07-05-2016			07-05-2016 02:20			125 м. (7500 с.)			Градско собрание – игран филм			
02:20			07-05-2016			07-05-2016 02:30			10 м. (600 с.)			Гласот на Америка			
02:30			07-05-2016			07-05-2016 03:30			60 м. (3600 с.)			Црно огледало – сериски филм - реприза			
03:30			07-05-2016			07-05-2016 05:00			90 м. (5400 с.)			Утринска на Телма - реприза			
05:00			07-05-2016			07-05-2016 05:30			30 м. (1800 с.)			Народна македонска музика			
05:30			07-05-2016			07-05-2016 06:00			30 м. (1800 с.)			Забавна македонска музика			
06:00			07-05-2016			07-05-2016 06:30			30 м. (1800 с.)			Документарна програма			
06:30			07-05-2016			07-05-2016 07:00			30 м. (1800 с.)			Телма 06:30			
07:00			07-05-2016			07-05-2016 07:30			30 м. (1800 с.)			Македонска забавна музика			
07:30			07-05-2016			07-05-2016 08:00			30 м. (1800 с.)			Македонска народна музика			
08:00			07-05-2016			07-05-2016 09:00			60 м. (3600 с.)			Телма Амбуланта - реприза			
09:00			07-05-2016			07-05-2016 09:20			20 м. (1200 с.)			Топшоп			
09:20			07-05-2016			07-05-2016 11:30			130 м. (7800 с.)			5 + фамилија - реприза			
11:30			07-05-2016			07-05-2016 11:50			20 м. (1200 с.)			Топшоп			
11:50			07-05-2016			07-05-2016 12:50			60 м. (3600 с.)			Храна и вино – емисија за кулинарство - реприза			
12:50			07-05-2016			07-05-2016 13:05			15 м. (900 с.)			Топ шоп			
13:05			07-05-2016			07-05-2016 13:45			40 м. (2400 с.)			Незадолжително - реприза			
13:45			07-05-2016			07-05-2016 13:55			10 м. (600 с.)			Информа – Младински вести			
13:55			07-05-2016			07-05-2016 14:45			50 м. (3000 с.)			Мајкл Палин – документарна програма			
14:45			07-05-2016			07-05-2016 15:30			45 м. (2700 с.)			Автомагазин – нова сезона			
15:30			07-05-2016			07-05-2016 15:55			25 м. (1500 с.)			Вести			
15:55			07-05-2016			07-05-2016 16:00			5 м. (300 с.)			Метео			
16:00			07-05-2016			07-05-2016 17:30			90 м. (5400 с.)			Кога патот ќе скршне – игран филм			
17:30			07-05-2016			07-05-2016 18:30			60 м. (3600 с.)			Влада – сериски филм			
18:30			07-05-2016			07-05-2016 19:05			35 м. (2100 с.)			Вести			
19:05			07-05-2016			07-05-2016 19:10			5 м. (300 с.)			Спорт			
19:10			07-05-2016			07-05-2016 19:15			5 м. (300 с.)			Метео			
19:15			07-05-2016			07-05-2016 20:10			55 м. (3300 с.)			Еден на еден – забавна емисија			
20:10			07-05-2016			07-05-2016 22:30			140 м. (8400 с.)			Бандитки - игран филм			
22:30			07-05-2016			07-05-2016 22:55			25 м. (1500 с.)			Вести			
22:55			07-05-2016			07-05-2016 23:00			5 м. (300 с.)			Спорт			
23:00			07-05-2016			07-05-2016 23:05			5 м. (300 с.)			Метео			
23:05			07-05-2016			08-05-2016 00:50			105 м. (6300 с.)			Лесни пари: Повратник – игран филм			
00:50			08-05-2016			08-05-2016 01:20			30 м. (1800 с.)			Автомагазин - реприза			
01:20			08-05-2016			08-05-2016 04:00			160 м. (9600 с.)			Утринска на Телма - реприза			
04:00			08-05-2016			08-05-2016 05:00			60 м. (3600 с.)			Македонска забавна музика			
05:00			08-05-2016			08-05-2016 06:00			60 м. (3600 с.)			Македонска народна музика			
06:00			08-05-2016			08-05-2016 06:30			30 м. (1800 с.)			Документарна програма			
06:30			08-05-2016			08-05-2016 07:00			30 м. (1800 с.)			Вести - реприза			
07:00			08-05-2016			08-05-2016 07:45			45 м. (2700 с.)			Македонска забавна музика			
07:45			08-05-2016			08-05-2016 08:30			45 м. (2700 с.)			Македонска народна музика			
08:30			08-05-2016			08-05-2016 09:30			60 м. (3600 с.)			Телма Амбуланта - реприза			
09:30			08-05-2016			08-05-2016 09:50			20 м. (1200 с.)			Топшоп			
09:50			08-05-2016			08-05-2016 11:30			100 м. (6000 с.)			5+ фамилија - реприза			
11:30			08-05-2016			08-05-2016 12:05			35 м. (2100 с.)			Гарден клуб – емисија за уредување на градини			
12:05			08-05-2016			08-05-2016 12:25			20 м. (1200 с.)			Топшоп			
12:25			08-05-2016			08-05-2016 13:25			60 м. (3600 с.)			Храна и вино – емисија за кулинарство - реприза			
13:25			08-05-2016			08-05-2016 13:40			15 м. (900 с.)			Топшоп			
13:40			08-05-2016			08-05-2016 13:50			10 м. (600 с.)			Информа – Младински вести			
13:50			08-05-2016			08-05-2016 14:45			55 м. (3300 с.)			Еден на еден – забавна емисија - реприза			
14:45			08-05-2016			08-05-2016 15:30			45 м. (2700 с.)			Ајде дома нова сезона			
15:30			08-05-2016			08-05-2016 16:00			30 м. (1800 с.)			Вести			
16:00			08-05-2016			08-05-2016 16:40			40 м. (2400 с.)			Фаличен пансион – хумористична серија			
16:40			08-05-2016			08-05-2016 17:30			50 м. (3000 с.)			Незадолжително			
17:30			08-05-2016			08-05-2016 18:30			60 м. (3600 с.)			Влада – сериски филм			
18:30			08-05-2016			08-05-2016 19:05			35 м. (2100 с.)			Вести			
19:05			08-05-2016			08-05-2016 19:10			5 м. (300 с.)			Метео			
19:10			08-05-2016			08-05-2016 19:40			30 м. (1800 с.)			Фчерашни новости			
19:40			08-05-2016			08-05-2016 20:30			50 м. (3000 с.)			Код – информативен магазин			
20:30			08-05-2016			08-05-2016 22:30			120 м. (7200 с.)			Човекот и неговото куче – игран филм			
22:30			08-05-2016			08-05-2016 22:55			25 м. (1500 с.)			Вести			
22:55			08-05-2016			08-05-2016 23:00			5 м. (300 с.)			Спорт			
23:00			08-05-2016			08-05-2016 23:05			5 м. (300 с.)			Метео			
23:05			08-05-2016			08-05-2016 23:35			30 м. (1800 с.)			Фчерашни новости - реприза			
23:35			08-05-2016			09-05-2016 01:20			105 м. (6300 с.)			Провалник – игран филм			
01:20			09-05-2016			09-05-2016 02:00			40 м. (2400 с.)			Ајде дома - реприза			
02:00			09-05-2016			09-05-2016 02:30			30 м. (1800 с.)			Гарден клуб – емисија за уредување на градини - реприза			
02:30			09-05-2016			09-05-2016 03:15			45 м. (2700 с.)			Код – информативен магазин - реприза			
03:15			09-05-2016			09-05-2016 05:30			135 м. (8100 с.)			Утринска програма - реприза			
05:30			09-05-2016			09-05-2016 06:00			30 м. (1800 с.)			Македонска народна музика			
06:00			09-05-2016			09-05-2016 06:30			30 м. (1800 с.)			Македонска забавна музика			
06:30			09-05-2016			09-05-2016 07:00			30 м. (1800 с.)			Вести - реприза			
07:00			09-05-2016			09-05-2016 07:25			25 м. (1500 с.)			Македонска народна музика			
07:25			09-05-2016			09-05-2016 08:00			35 м. (2100 с.)			Незадолжително - реприза			
08:00			09-05-2016			09-05-2016 08:30			30 м. (1800 с.)			Утринска на Телма			
08:30			09-05-2016			09-05-2016 08:40			10 м. (600 с.)			Вести			
08:40			09-05-2016			09-05-2016 09:40			60 м. (3600 с.)			Утринска на Телма			
09:40			09-05-2016			09-05-2016 10:00			20 м. (1200 с.)			Топ шоп			
10:00			09-05-2016			09-05-2016 10:30			30 м. (1800 с.)			Утринска на Телма			
10:30			09-05-2016			09-05-2016 10:40			10 м. (600 с.)			Вести			
10:40			09-05-2016			09-05-2016 10:43			3 м. (180 с.)			Метео			
10:43			09-05-2016			09-05-2016 12:30			107 м. (6420 с.)			Утринска на Телма			
12:30			09-05-2016			09-05-2016 12:35			5 м. (300 с.)			Метео			
12:35			09-05-2016			09-05-2016 13:05			30 м. (1800 с.)			5+ фамилија – детска програма			
13:05			09-05-2016			09-05-2016 13:25			20 м. (1200 с.)			Топшоп			
13:25			09-05-2016			09-05-2016 13:55			30 м. (1800 с.)			Храна и вино – емисија за кулинарство - реприза			
13:55			09-05-2016			09-05-2016 14:15			20 м. (1200 с.)			Топшоп			
14:15			09-05-2016			09-05-2016 15:30			75 м. (4500 с.)			Еден на еден - реприза			
15:30			09-05-2016			09-05-2016 16:00			30 м. (1800 с.)			Вести			
16:00			09-05-2016			09-05-2016 16:05			5 м. (300 с.)			Метео			
16:05			09-05-2016			09-05-2016 16:35			30 м. (1800 с.)			Фчерашни новости - реприза			
16:35			09-05-2016			09-05-2016 17:45			70 м. (4200 с.)			Дневникот на Втората светска војна – документарна прог...			
17:45			09-05-2016			09-05-2016 18:30			45 м. (2700 с.)			Храна и вино – емисија за кулинарство			
18:30			09-05-2016			09-05-2016 19:05			35 м. (2100 с.)			Вести			
19:05			09-05-2016			09-05-2016 19:10			5 м. (300 с.)			Спорт			
19:10			09-05-2016			09-05-2016 19:15			5 м. (300 с.)			Метео			
19:15			09-05-2016			09-05-2016 20:35			80 м. (4800 с.)			Топ тема – дебатна емисија			
20:35			09-05-2016			09-05-2016 21:30			55 м. (3300 с.)			Разоткривање – сериски филм			
21:30			09-05-2016			09-05-2016 22:30			60 м. (3600 с.)			Лица за отстрел 3 сезона – сериски филм			
22:30			09-05-2016			09-05-2016 23:05			35 м. (2100 с.)			Вести			
23:05			09-05-2016			09-05-2016 23:10			5 м. (300 с.)			Метео			
23:10			09-05-2016			10-05-2016 00:15			65 м. (3900 с.)			Топ тема – дебатна емисија - реприза			
00:15			10-05-2016			10-05-2016 02:05			110 м. (6600 с.)			Досието Пеликан – игран филм			
02:05			10-05-2016			10-05-2016 02:15			10 м. (600 с.)			Гласот на Америка			
02:15			10-05-2016			10-05-2016 05:15			180 м. (10800 с.)			Утринска програма - реприза			
05:15			10-05-2016			10-05-2016 05:40			25 м. (1500 с.)			Народна македонска музика			
05:40			10-05-2016			10-05-2016 06:00			20 м. (1200 с.)			Забавна македонска музика			
06:00			10-05-2016			10-05-2016 06:30			30 м. (1800 с.)			Храна и вино - реприза			
06:30			10-05-2016			10-05-2016 07:00			30 м. (1800 с.)			Вести - реприза			
07:00			10-05-2016			10-05-2016 07:20			20 м. (1200 с.)			Македонска забавна музика			
07:20			10-05-2016			10-05-2016 08:00			40 м. (2400 с.)			Росела – играна серија			
08:00			10-05-2016			10-05-2016 08:30			30 м. (1800 с.)			Утринска на Телма			
08:30			10-05-2016			10-05-2016 08:40			10 м. (600 с.)			Вести			
08:40			10-05-2016			10-05-2016 08:45			5 м. (300 с.)			Метео			
08:45			10-05-2016			10-05-2016 09:40			55 м. (3300 с.)			Утринска на Телма			
09:40			10-05-2016			10-05-2016 10:00			20 м. (1200 с.)			Топшоп			
10:00			10-05-2016			10-05-2016 10:30			30 м. (1800 с.)			Утринска на Телма			
10:30			10-05-2016			10-05-2016 10:40			10 м. (600 с.)			Вести			
10:40			10-05-2016			10-05-2016 10:45			5 м. (300 с.)			Метео			
10:45			10-05-2016			10-05-2016 12:30			105 м. (6300 с.)			Утринска на Телма			
12:30			10-05-2016			10-05-2016 12:35			5 м. (300 с.)			Метео			
12:35			10-05-2016			10-05-2016 13:10			35 м. (2100 с.)			5+ фамилија – детска програма			
13:10			10-05-2016			10-05-2016 13:30			20 м. (1200 с.)			Топшоп			
13:30			10-05-2016			10-05-2016 14:05			35 м. (2100 с.)			Храна и вино – емисија за кулинарство - реприза			
14:05			10-05-2016			10-05-2016 14:15			10 м. (600 с.)			Информа - Младински вести - реприза			
14:15			10-05-2016			10-05-2016 14:35			20 м. (1200 с.)			Топшоп			
14:35			10-05-2016			10-05-2016 15:30			55 м. (3300 с.)			Код – информативен магазин - реприза			
15:30			10-05-2016			10-05-2016 15:55			25 м. (1500 с.)			Вести			
15:55			10-05-2016			10-05-2016 16:00			5 м. (300 с.)			Метео			
16:00			10-05-2016			10-05-2016 17:15			75 м. (4500 с.)			Дневникот на Втората светска војна – документарна прог...			
17:15			10-05-2016			10-05-2016 17:50			35 м. (2100 с.)			Пријатели – хумористична серија			
17:50			10-05-2016			10-05-2016 18:30			40 м. (2400 с.)			Храна и вино – емисија за кулинарство			
18:30			10-05-2016			10-05-2016 19:10			40 м. (2400 с.)			Вести			
19:10			10-05-2016			10-05-2016 19:15			5 м. (300 с.)			Метео			
19:15			10-05-2016			10-05-2016 20:30			75 м. (4500 с.)			Топ Тема – дебатна емисија			
20:30			10-05-2016			10-05-2016 21:30			60 м. (3600 с.)			Разоткривање – сериски филм			
21:30			10-05-2016			10-05-2016 22:30			60 м. (3600 с.)			Лица за отстрел – сериски филм			
22:30			10-05-2016			10-05-2016 23:05			35 м. (2100 с.)			Вести			
23:05			10-05-2016			10-05-2016 23:10			5 м. (300 с.)			Метео			
23:10			10-05-2016			11-05-2016 00:15			65 м. (3900 с.)			Топ тема – дебатна емисија - реприза			
00:15			11-05-2016			11-05-2016 01:50			95 м. (5700 с.)			Новиот Џек Сити – игран филм			
01:50			11-05-2016			11-05-2016 02:00			10 м. (600 с.)			Гласот на Америка			
02:00			11-05-2016			11-05-2016 05:00			180 м. (10800 с.)			Утринска на Телма - реприза			
05:00			11-05-2016			11-05-2016 05:30			30 м. (1800 с.)			Народна македонска музика			
05:30			11-05-2016			11-05-2016 06:00			30 м. (1800 с.)			Забавна македонска музика			
06:00			11-05-2016			11-05-2016 06:30			30 м. (1800 с.)			Храна и вино - реприза			
06:30			11-05-2016			11-05-2016 07:00			30 м. (1800 с.)			Вести - реприза			
07:00			11-05-2016			11-05-2016 07:20			20 м. (1200 с.)			Македонска народна музика			
07:20			11-05-2016			11-05-2016 08:00			40 м. (2400 с.)			Росела – играна серија			
08:00			11-05-2016			11-05-2016 08:30			30 м. (1800 с.)			Утринска на Телма			
08:30			11-05-2016			11-05-2016 08:40			10 м. (600 с.)			Вести			
08:40			11-05-2016			11-05-2016 08:45			5 м. (300 с.)			Метео			
08:45			11-05-2016			11-05-2016 09:40			55 м. (3300 с.)			Утринска на Телма			
09:40			11-05-2016			11-05-2016 10:00			20 м. (1200 с.)			Топ шоп			
10:00			11-05-2016			11-05-2016 10:30			30 м. (1800 с.)			Утринска на Телма			
10:30			11-05-2016			11-05-2016 10:40			10 м. (600 с.)			Вести			
10:40			11-05-2016			11-05-2016 10:45			5 м. (300 с.)			Метео			
10:45			11-05-2016			11-05-2016 12:30			105 м. (6300 с.)			Утринска на Телма			
12:30			11-05-2016			11-05-2016 12:35			5 м. (300 с.)			Метео			
12:35			11-05-2016			11-05-2016 13:05			30 м. (1800 с.)			5+ фамилија - премиера			
13:05			11-05-2016			11-05-2016 13:25			20 м. (1200 с.)			Топшоп			
13:25			11-05-2016			11-05-2016 13:55			30 м. (1800 с.)			Храна и вино – емисија за кулинарство - реприза			
13:55			11-05-2016			11-05-2016 14:25			30 м. (1800 с.)			Гарден клуб – емисија за уредување на градини - реприза			
14:25			11-05-2016			11-05-2016 14:40			15 м. (900 с.)			Топшоп			
14:40			11-05-2016			11-05-2016 15:30			50 м. (3000 с.)			Автомагазин – емисија за автомобили - реприза			
15:30			11-05-2016			11-05-2016 15:55			25 м. (1500 с.)			Вести			
15:55			11-05-2016			11-05-2016 16:00			5 м. (300 с.)			Метео			
16:00			11-05-2016			11-05-2016 17:05			65 м. (3900 с.)			Дневникот на Втора светска војна – документарна програ...			
17:05			11-05-2016			11-05-2016 17:45			40 м. (2400 с.)			Пријатели – хумористична серија			
17:45			11-05-2016			11-05-2016 18:30			45 м. (2700 с.)			Храна и вино – емисија за кулинарство			
18:30			11-05-2016			11-05-2016 19:05			35 м. (2100 с.)			Вести			
19:05			11-05-2016			11-05-2016 19:10			5 м. (300 с.)			Спорт			
19:10			11-05-2016			11-05-2016 19:15			5 м. (300 с.)			Метео			
19:15			11-05-2016			11-05-2016 20:30			75 м. (4500 с.)			Топ тема – дебатна емисија			
20:30			11-05-2016			11-05-2016 21:30			60 м. (3600 с.)			Разотривање - сериски филм			
21:30			11-05-2016			11-05-2016 22:30			60 м. (3600 с.)			Лица за отстрел – сериски филм			
22:30			11-05-2016			11-05-2016 23:05			35 м. (2100 с.)			Вести			
23:05			11-05-2016			11-05-2016 23:10			5 м. (300 с.)			Метео			
23:10			11-05-2016			12-05-2016 00:15			65 м. (3900 с.)			Топ тема – дебатна емисија - реприза			
00:15			12-05-2016			12-05-2016 01:45			90 м. (5400 с.)			Последното пристаниште – игран филм			
01:45			12-05-2016			12-05-2016 01:55			10 м. (600 с.)			Гласот на Америка			
01:55			12-05-2016			12-05-2016 05:30			215 м. (12900 с.)			Утринска на Телма - реприза			
05:30			12-05-2016			12-05-2016 05:45			15 м. (900 с.)			Народна македонска музика			
05:45			12-05-2016			12-05-2016 06:00			15 м. (900 с.)			Забавна македонска музика			
06:00			12-05-2016			12-05-2016 06:30			30 м. (1800 с.)			Храна и вино – емисија за кулинарство - реприза			
06:30			12-05-2016			12-05-2016 07:00			30 м. (1800 с.)			Вести - реприза			
07:00			12-05-2016			12-05-2016 07:20			20 м. (1200 с.)			Македонска народна музика			
07:20			12-05-2016			12-05-2016 08:00			40 м. (2400 с.)			Росела – играна серија			
08:00			12-05-2016			12-05-2016 08:30			30 м. (1800 с.)			Утринска на Телма			
08:30			12-05-2016			12-05-2016 08:40			10 м. (600 с.)			Вести			
08:40			12-05-2016			12-05-2016 08:45			5 м. (300 с.)			Метео			
08:45			12-05-2016			12-05-2016 09:40			55 м. (3300 с.)			Утринска на Телма			
09:40			12-05-2016			12-05-2016 10:00			20 м. (1200 с.)			Топ шоп			
10:00			12-05-2016			12-05-2016 10:30			30 м. (1800 с.)			Утринска на Телма			
10:30			12-05-2016			12-05-2016 10:40			10 м. (600 с.)			Вести			
10:40			12-05-2016			12-05-2016 10:45			5 м. (300 с.)			Метео			
10:45			12-05-2016			12-05-2016 12:30			105 м. (6300 с.)			Утринска на Телма			
12:30			12-05-2016			12-05-2016 12:40			10 м. (600 с.)			Вести			
12:40			12-05-2016			12-05-2016 13:05			25 м. (1500 с.)			5+ фамилија премиера			
13:05			12-05-2016			12-05-2016 13:25			20 м. (1200 с.)			Топшоп			
13:25			12-05-2016			12-05-2016 13:50			25 м. (1500 с.)			Храна и вино – емисија за кулинарство - реприза			
13:50			12-05-2016			12-05-2016 14:25			35 м. (2100 с.)			Код – информативен магазин - реприза			
14:25			12-05-2016			12-05-2016 14:45			20 м. (1200 с.)			Топшоп			
14:45			12-05-2016			12-05-2016 15:30			45 м. (2700 с.)			Ајде дома - реприза			
15:30			12-05-2016			12-05-2016 16:00			30 м. (1800 с.)			Вести			
16:00			12-05-2016			12-05-2016 16:05			5 м. (300 с.)			Метео			
16:05			12-05-2016			12-05-2016 16:40			35 м. (2100 с.)			Фчерашни новости - реприза			
16:40			12-05-2016			12-05-2016 17:50			70 м. (4200 с.)			Дневникот на Втората светска војна – документарна прог...			
17:50			12-05-2016			12-05-2016 18:30			40 м. (2400 с.)			Храна и вино – емисија за кулинарство			
18:30			12-05-2016			12-05-2016 19:15			45 м. (2700 с.)			Вести			
19:15			12-05-2016			12-05-2016 20:30			75 м. (4500 с.)			Топ тема – дебатна емисија			
20:30			12-05-2016			12-05-2016 21:30			60 м. (3600 с.)			Разотривање - сериски филм			
21:30			12-05-2016			12-05-2016 22:30			60 м. (3600 с.)			Лица за отстрел – сериски филм			
22:30			12-05-2016			12-05-2016 23:05			35 м. (2100 с.)			Вести			
23:05			12-05-2016			12-05-2016 23:10			5 м. (300 с.)			Метео			
23:10			12-05-2016			13-05-2016 00:15			65 м. (3900 с.)			Топ тема – дебатна емисија - реприза			
00:15			13-05-2016			13-05-2016 02:00			105 м. (6300 с.)			Паѓање – игран филм			
02:00			13-05-2016			13-05-2016 02:10			10 м. (600 с.)			Гласот на Америка			
02:10			13-05-2016			13-05-2016 03:30			80 м. (4800 с.)			Утринска на Телма - реприза			
03:30			13-05-2016			13-05-2016 05:45			135 м. (8100 с.)			Народна македонска музика			
05:45			13-05-2016			13-05-2016 06:00			15 м. (900 с.)			Забавна македонска музика			
06:00			13-05-2016			13-05-2016 06:30			30 м. (1800 с.)			Храна и вино - реприза			
06:30			13-05-2016			13-05-2016 07:00			30 м. (1800 с.)			Вести - реприза			
07:00			13-05-2016			13-05-2016 07:20			20 м. (1200 с.)			Македонска народна музика			
07:20			13-05-2016			13-05-2016 08:00			40 м. (2400 с.)			Росела – играна серија			
08:00			13-05-2016			13-05-2016 08:30			30 м. (1800 с.)			Утринска на Телма			
08:30			13-05-2016			13-05-2016 08:40			10 м. (600 с.)			Вести			
08:40			13-05-2016			13-05-2016 08:45			5 м. (300 с.)			Метео			
08:45			13-05-2016			13-05-2016 09:40			55 м. (3300 с.)			Утринска на Телма			
09:40			13-05-2016			13-05-2016 10:00			20 м. (1200 с.)			Топ шоп			
10:00			13-05-2016			13-05-2016 10:30			30 м. (1800 с.)			Утринска на Телма			
10:30			13-05-2016			13-05-2016 10:40			10 м. (600 с.)			Метео			
10:40			13-05-2016			13-05-2016 10:45			5 м. (300 с.)			Метео			
10:45			13-05-2016			13-05-2016 12:30			105 м. (6300 с.)			Утринска на Телма			
12:30			13-05-2016			13-05-2016 12:35			5 м. (300 с.)			Вести			
12:35			13-05-2016			13-05-2016 13:05			30 м. (1800 с.)			5+ фамилија			
13:05			13-05-2016			13-05-2016 13:25			20 м. (1200 с.)			Топшоп			
13:25			13-05-2016			13-05-2016 13:55			30 м. (1800 с.)			Храна и вино – емисија за кулинарство - реприза			
13:55			13-05-2016			13-05-2016 14:10			15 м. (900 с.)			Информа – Младински вести - реприза			
14:10			13-05-2016			13-05-2016 14:30			20 м. (1200 с.)			Топшоп			
14:30			13-05-2016			13-05-2016 15:30			60 м. (3600 с.)			Дневникот на Втората светска војна - реприза			
15:30			13-05-2016			13-05-2016 15:55			25 м. (1500 с.)			Вести			
15:55			13-05-2016			13-05-2016 16:00			5 м. (300 с.)			Метео			
16:00			13-05-2016			13-05-2016 17:15			75 м. (4500 с.)			Дневникот на Втора светска војна – документарна програ...			
17:15			13-05-2016			13-05-2016 17:55			40 м. (2400 с.)			Пријатели – хумористична серија			
17:55			13-05-2016			13-05-2016 18:30			35 м. (2100 с.)			Храна и вино – емисија за кулинарство			
18:30			13-05-2016			13-05-2016 19:10			40 м. (2400 с.)			Вести			
19:10			13-05-2016			13-05-2016 19:15			5 м. (300 с.)			Метео			
19:15			13-05-2016			13-05-2016 20:30			75 м. (4500 с.)			Топ тема – дебатна емисија			
20:30			13-05-2016			13-05-2016 21:30			60 м. (3600 с.)			Разоткривање - сериски филм			
21:30			13-05-2016			13-05-2016 22:30			60 м. (3600 с.)			Танцувајќи на работ – сериски филм			
22:30			13-05-2016			13-05-2016 23:05			35 м. (2100 с.)			Вести			
23:05			13-05-2016			13-05-2016 23:10			5 м. (300 с.)			Метео			
23:10			13-05-2016			14-05-2016 00:15			65 м. (3900 с.)			Топ тема – дебатна емисија - реприза			
00:15			14-05-2016			14-05-2016 02:00			105 м. (6300 с.)			Пандорум – игран филм			
02:00			14-05-2016			14-05-2016 02:10			10 м. (600 с.)			Гласот на Америка			
02:10			14-05-2016			14-05-2016 05:10			180 м. (10800 с.)			Утринска на Телма - реприза			
05:10			14-05-2016			14-05-2016 05:30			20 м. (1200 с.)			Народна македонска музика			
05:30			14-05-2016			14-05-2016 06:00			30 м. (1800 с.)			Забавна македонска музика			
06:00			14-05-2016			14-05-2016 06:30			30 м. (1800 с.)			Храна и вино - реприза			
06:30			14-05-2016			14-05-2016 08:00			90 м. (5400 с.)			Вести - реприза			
08:00			14-05-2016			14-05-2016 10:00			120 м. (7200 с.)			Телма 08:00			
10:00			14-05-2016			14-05-2016 12:00			120 м. (7200 с.)			Телма 10:00			
12:00			14-05-2016			14-05-2016 14:00			120 м. (7200 с.)			Телма 12:00			
14:00			14-05-2016			14-05-2016 16:00			120 м. (7200 с.)			Телма 14:00			
16:00			14-05-2016			14-05-2016 18:00			120 м. (7200 с.)			Телма 16:00			
18:00			14-05-2016			14-05-2016 20:00			120 м. (7200 с.)			Телма 18:00			
20:00			14-05-2016			14-05-2016 22:00			120 м. (7200 с.)			Телма 20:00			
22:00			14-05-2016			15-05-2016 00:00			120 м. (7200 с.)			Телма 22:00			
00:00			15-05-2016			15-05-2016 02:00			120 м. (7200 с.)			Телма 00:00			
02:00			15-05-2016			15-05-2016 04:00			120 м. (7200 с.)			Телма 02:00			
04:00			15-05-2016			15-05-2016 06:00			120 м. (7200 с.)			Телма 04:00			
06:00			15-05-2016			15-05-2016 08:00			120 м. (7200 с.)			Телма 06:00			
08:00			15-05-2016			15-05-2016 10:00			120 м. (7200 с.)			Телма 08:00			
10:00			15-05-2016			15-05-2016 12:00			120 м. (7200 с.)			Телма 10:00			
12:00			15-05-2016			15-05-2016 14:00			120 м. (7200 с.)			Телма 12:00			
14:00			15-05-2016			15-05-2016 16:00			120 м. (7200 с.)			Телма 14:00			
16:00			15-05-2016			15-05-2016 18:00			120 м. (7200 с.)			Телма 16:00			
18:00			15-05-2016			15-05-2016 20:00			120 м. (7200 с.)			Телма 18:00			
20:00			15-05-2016			15-05-2016 22:00			120 м. (7200 с.)			Телма 20:00			
22:00			15-05-2016			16-05-2016 00:00			120 м. (7200 с.)			Телма 22:00			
00:00			16-05-2016			16-05-2016 02:00			120 м. (7200 с.)			Телма 00:00			
02:00			16-05-2016			16-05-2016 04:00			120 м. (7200 с.)			Телма 02:00			
04:00			16-05-2016			16-05-2016 06:00			120 м. (7200 с.)			Телма 04:00			
06:00			16-05-2016			16-05-2016 08:00			120 м. (7200 с.)			Телма 06:00			
08:00			16-05-2016			16-05-2016 10:00			120 м. (7200 с.)			Телма 08:00			
10:00			16-05-2016			16-05-2016 12:00			120 м. (7200 с.)			Телма 10:00			
12:00			16-05-2016			16-05-2016 14:00			120 м. (7200 с.)			Телма 12:00			
14:00			16-05-2016			16-05-2016 16:00			120 м. (7200 с.)			Телма 14:00			
16:00			16-05-2016			16-05-2016 18:00			120 м. (7200 с.)			Телма 16:00			
18:00			16-05-2016			16-05-2016 20:00			120 м. (7200 с.)			Телма 18:00			
20:00			16-05-2016			16-05-2016 22:00			120 м. (7200 с.)			Телма 20:00			
22:00			16-05-2016			17-05-2016 00:00			120 м. (7200 с.)			Телма 22:00			
00:00			17-05-2016			17-05-2016 02:00			120 м. (7200 с.)			Телма 00:00			
02:00			17-05-2016			17-05-2016 04:00			120 м. (7200 с.)			Телма 02:00			
04:00			17-05-2016			17-05-2016 06:00			120 м. (7200 с.)			Телма 04:00			
06:00			17-05-2016			17-05-2016 08:00			120 м. (7200 с.)			Телма 06:00			
08:00			17-05-2016			17-05-2016 10:00			120 м. (7200 с.)			Телма 08:00			
10:00			17-05-2016			17-05-2016 12:00			120 м. (7200 с.)			Телма 10:00			
12:00			17-05-2016			17-05-2016 14:00			120 м. (7200 с.)			Телма 12:00			
14:00			17-05-2016			17-05-2016 16:00			120 м. (7200 с.)			Телма 14:00			
16:00			17-05-2016			17-05-2016 18:00			120 м. (7200 с.)			Телма 16:00			
18:00			17-05-2016			17-05-2016 20:00			120 м. (7200 с.)			Телма 18:00			
20:00			17-05-2016			17-05-2016 22:00			120 м. (7200 с.)			Телма 20:00			
22:00			17-05-2016			18-05-2016 00:00			120 м. (7200 с.)			Телма 22:00			
00:00			18-05-2016			18-05-2016 02:00			120 м. (7200 с.)			Телма 00:00			
02:00			18-05-2016			18-05-2016 04:00			120 м. (7200 с.)			Телма 02:00			
04:00			18-05-2016			18-05-2016 06:00			120 м. (7200 с.)			Телма 04:00			
06:00			18-05-2016			18-05-2016 08:00			120 м. (7200 с.)			Телма 06:00			
08:00			18-05-2016			18-05-2016 10:00			120 м. (7200 с.)			Телма 08:00			
10:00			18-05-2016			18-05-2016 12:00			120 м. (7200 с.)			Телма 10:00			
12:00			18-05-2016			18-05-2016 14:00			120 м. (7200 с.)			Телма 12:00			
14:00			18-05-2016			18-05-2016 16:00			120 м. (7200 с.)			Телма 14:00			
16:00			18-05-2016			18-05-2016 18:00			120 м. (7200 с.)			Телма 16:00			
18:00			18-05-2016			18-05-2016 20:00			120 м. (7200 с.)			Телма 18:00			
20:00			18-05-2016			18-05-2016 22:00			120 м. (7200 с.)			Телма 20:00			
22:00			18-05-2016			19-05-2016 00:00			120 м. (7200 с.)			Телма 22:00			
00:00			19-05-2016			19-05-2016 02:00			120 м. (7200 с.)			Телма 00:00			
02:00			19-05-2016			19-05-2016 04:00			120 м. (7200 с.)			Телма 02:00			
04:00			19-05-2016			19-05-2016 06:00			120 м. (7200 с.)			Телма 04:00			
06:00			19-05-2016			19-05-2016 08:00			120 м. (7200 с.)			Телма 06:00			
08:00			19-05-2016			19-05-2016 10:00			120 м. (7200 с.)			Телма 08:00			
10:00			19-05-2016			19-05-2016 12:00			120 м. (7200 с.)			Телма 10:00			
12:00			19-05-2016			19-05-2016 14:00			120 м. (7200 с.)			Телма 12:00			
14:00			19-05-2016			19-05-2016 16:00			120 м. (7200 с.)			Телма 14:00			
16:00			19-05-2016			19-05-2016 18:00			120 м. (7200 с.)			Телма 16:00			
18:00			19-05-2016			19-05-2016 20:00			120 м. (7200 с.)			Телма 18:00			
20:00			19-05-2016			19-05-2016 22:00			120 м. (7200 с.)			Телма 20:00			
22:00			19-05-2016			20-05-2016 00:00			120 м. (7200 с.)			Телма 22:00			
00:00			20-05-2016			20-05-2016 02:00			120 м. (7200 с.)			Телма 00:00			
02:00			20-05-2016			20-05-2016 04:00			120 м. (7200 с.)			Телма 02:00			
04:00			20-05-2016			20-05-2016 06:00			120 м. (7200 с.)			Телма 04:00			
06:00			20-05-2016			20-05-2016 08:00			120 м. (7200 с.)			Телма 06:00			
08:00			20-05-2016			20-05-2016 10:00			120 м. (7200 с.)			Телма 08:00			
10:00			20-05-2016			20-05-2016 12:00			120 м. (7200 с.)			Телма 10:00			
12:00			20-05-2016			20-05-2016 14:00			120 м. (7200 с.)			Телма 12:00			
14:00			20-05-2016			20-05-2016 16:00			120 м. (7200 с.)			Телма 14:00			
16:00			20-05-2016			20-05-2016 18:00			120 м. (7200 с.)			Телма 16:00			
18:00			20-05-2016			20-05-2016 20:00			120 м. (7200 с.)			Телма 18:00			
20:00			20-05-2016			20-05-2016 22:00			120 м. (7200 с.)			Телма 20:00			
22:00			20-05-2016			21-05-2016 00:00			120 м. (7200 с.)			Телма 22:00			
00:00			21-05-2016			21-05-2016 02:00			120 м. (7200 с.)			Телма 00:00			
02:00			21-05-2016			21-05-2016 04:00			120 м. (7200 с.)			Телма 02:00			
04:00			21-05-2016			21-05-2016 06:00			120 м. (7200 с.)			Телма 04:00			
06:00			21-05-2016			21-05-2016 08:00			120 м. (7200 с.)			Телма 06:00			
08:00			21-05-2016			21-05-2016 10:00			120 м. (7200 с.)			Телма 08:00			
10:00			21-05-2016			21-05-2016 12:00			120 м. (7200 с.)			Телма 10:00			
12:00			21-05-2016			21-05-2016 14:00			120 м. (7200 с.)			Телма 12:00			
14:00			21-05-2016			21-05-2016 16:00			120 м. (7200 с.)			Телма 14:00			
16:00			21-05-2016			21-05-2016 18:00			120 м. (7200 с.)			Телма 16:00			
18:00			21-05-2016			21-05-2016 20:00			120 м. (7200 с.)			Телма 18:00			
20:00			21-05-2016			21-05-2016 22:00			120 м. (7200 с.)			Телма 20:00			
22:00			21-05-2016			22-05-2016 00:00			120 м. (7200 с.)			Телма 22:00			
00:00			22-05-2016			22-05-2016 02:00			120 м. (7200 с.)			Телма 00:00			
02:00			22-05-2016			22-05-2016 04:00			120 м. (7200 с.)			Телма 02:00			
04:00			22-05-2016			22-05-2016 06:00			120 м. (7200 с.)			Телма 04:00			
06:00			22-05-2016			22-05-2016 08:00			120 м. (7200 с.)			Телма 06:00			
08:00			22-05-2016			22-05-2016 10:00			120 м. (7200 с.)			Телма 08:00			
10:00			22-05-2016			22-05-2016 12:00			120 м. (7200 с.)			Телма 10:00			
12:00			22-05-2016			22-05-2016 14:00			120 м. (7200 с.)			Телма 12:00			
14:00			22-05-2016			22-05-2016 16:00			120 м. (7200 с.)			Телма 14:00			
16:00			22-05-2016			22-05-2016 18:00			120 м. (7200 с.)			Телма 16:00			
18:00			22-05-2016			22-05-2016 20:00			120 м. (7200 с.)			Телма 18:00			
20:00			22-05-2016			22-05-2016 22:00			120 м. (7200 с.)			Телма 20:00			
22:00			22-05-2016			23-05-2016 00:00			120 м. (7200 с.)			Телма 22:00			
00:00			23-05-2016			23-05-2016 02:00			120 м. (7200 с.)			Телма 00:00			
02:00			23-05-2016			23-05-2016 04:00			120 м. (7200 с.)			Телма 02:00			
04:00			23-05-2016			23-05-2016 06:00			120 м. (7200 с.)			Телма 04:00			
06:00			23-05-2016			23-05-2016 08:00			120 м. (7200 с.)			Телма 06:00			
08:00			23-05-2016			23-05-2016 10:00			120 м. (7200 с.)			Телма 08:00			
10:00			23-05-2016			23-05-2016 12:00			120 м. (7200 с.)			Телма 10:00			
12:00			23-05-2016			23-05-2016 14:00			120 м. (7200 с.)			Телма 12:00			
14:00			23-05-2016			23-05-2016 16:00			120 м. (7200 с.)			Телма 14:00			
16:00			23-05-2016			23-05-2016 18:00			120 м. (7200 с.)			Телма 16:00			
18:00			23-05-2016			23-05-2016 20:00			120 м. (7200 с.)			Телма 18:00			
20:00			23-05-2016			23-05-2016 22:00			120 м. (7200 с.)			Телма 20:00			
22:00			23-05-2016			24-05-2016 00:00			120 м. (7200 с.)			Телма 22:00			
00:00			24-05-2016			24-05-2016 02:00			120 м. (7200 с.)			Телма 00:00			
02:00			24-05-2016			24-05-2016 04:00			120 м. (7200 с.)			Телма 02:00			
04:00			24-05-2016			24-05-2016 06:00			120 м. (7200 с.)			Телма 04:00			
06:00			24-05-2016			24-05-2016 08:00			120 м. (7200 с.)			Телма 06:00			
08:00			24-05-2016			24-05-2016 10:00			120 м. (7200 с.)			Телма 08:00			
10:00			24-05-2016			24-05-2016 12:00			120 м. (7200 с.)			Телма 10:00			
12:00			24-05-2016			24-05-2016 14:00			120 м. (7200 с.)			Телма 12:00			
14:00			24-05-2016			24-05-2016 16:00			120 м. (7200 с.)			Телма 14:00			
16:00			24-05-2016			24-05-2016 18:00			120 м. (7200 с.)			Телма 16:00			
18:00			24-05-2016			24-05-2016 20:00			120 м. (7200 с.)			Телма 18:00			
20:00			24-05-2016			24-05-2016 22:00			120 м. (7200 с.)			Телма 20:00			
22:00			24-05-2016			25-05-2016 00:00			120 м. (7200 с.)			Телма 22:00			
00:00			25-05-2016			25-05-2016 02:00			120 м. (7200 с.)			Телма 00:00			
02:00			25-05-2016			25-05-2016 04:00			120 м. (7200 с.)			Телма 02:00			
04:00			25-05-2016			25-05-2016 06:00			120 м. (7200 с.)			Телма 04:00			
06:00			25-05-2016			25-05-2016 08:00			120 м. (7200 с.)			Телма 06:00			
08:00			25-05-2016			25-05-2016 10:00			120 м. (7200 с.)			Телма 08:00			
10:00			25-05-2016			25-05-2016 12:00			120 м. (7200 с.)			Телма 10:00			
12:00			25-05-2016			25-05-2016 14:00			120 м. (7200 с.)			Телма 12:00			
14:00			25-05-2016			25-05-2016 16:00			120 м. (7200 с.)			Телма 14:00			
16:00			25-05-2016			25-05-2016 18:00			120 м. (7200 с.)			Телма 16:00			
18:00			25-05-2016			25-05-2016 20:00			120 м. (7200 с.)			Телма 18:00			
20:00			25-05-2016			25-05-2016 22:00			120 м. (7200 с.)			Телма 20:00			
22:00			25-05-2016			26-05-2016 00:00			120 м. (7200 с.)			Телма 22:00			
00:00			26-05-2016			26-05-2016 02:00			120 м. (7200 с.)			Телма 00:00			
02:00			26-05-2016			26-05-2016 04:00			120 м. (7200 с.)			Телма 02:00			
04:00			26-05-2016			26-05-2016 06:00			120 м. (7200 с.)			Телма 04:00			
06:00			26-05-2016			26-05-2016 08:00			120 м. (7200 с.)			Телма 06:00			
08:00			26-05-2016			26-05-2016 10:00			120 м. (7200 с.)			Телма 08:00			
10:00			26-05-2016			26-05-2016 12:00			120 м. (7200 с.)			Телма 10:00			
12:00			26-05-2016			26-05-2016 14:00			120 м. (7200 с.)			Телма 12:00			
14:00			26-05-2016			26-05-2016 16:00			120 м. (7200 с.)			Телма 14:00			
16:00			26-05-2016			26-05-2016 18:00			120 м. (7200 с.)			Телма 16:00			
18:00			26-05-2016			26-05-2016 20:00			120 м. (7200 с.)			Телма 18:00			
20:00			26-05-2016			26-05-2016 22:00			120 м. (7200 с.)			Телма 20:00			
22:00			26-05-2016			27-05-2016 00:00			120 м. (7200 с.)			Телма 22:00			
00:00			27-05-2016			27-05-2016 02:00			120 м. (7200 с.)			Телма 00:00			
02:00			27-05-2016			27-05-2016 04:00			120 м. (7200 с.)			Телма 02:00			
04:00			27-05-2016			27-05-2016 06:00			120 м. (7200 с.)			Телма 04:00			
06:00			27-05-2016			27-05-2016 08:00			120 м. (7200 с.)			Телма 06:00			
08:00			27-05-2016			27-05-2016 10:00			120 м. (7200 с.)			Телма 08:00			
10:00			27-05-2016			27-05-2016 12:00			120 м. (7200 с.)			Телма 10:00			
12:00			27-05-2016			27-05-2016 14:00			120 м. (7200 с.)			Телма 12:00			
14:00			27-05-2016			27-05-2016 16:00			120 м. (7200 с.)			Телма 14:00			
16:00			27-05-2016			27-05-2016 18:00			120 м. (7200 с.)			Телма 16:00			
18:00			27-05-2016			27-05-2016 20:00			120 м. (7200 с.)			Телма 18:00			
20:00			27-05-2016			27-05-2016 22:00			120 м. (7200 с.)			Телма 20:00			
22:00			27-05-2016			28-05-2016 00:00			120 м. (7200 с.)			Телма 22:00			
00:00			28-05-2016			28-05-2016 02:00			120 м. (7200 с.)			Телма 00:00			
02:00			28-05-2016			28-05-2016 04:00			120 м. (7200 с.)			Телма 02:00			
04:00			28-05-2016			28-05-2016 06:00			120 м. (7200 с.)			Телма 04:00			
06:00			28-05-2016			28-05-2016 08:00			120 м. (7200 с.)			Телма 06:00			
08:00			28-05-2016			28-05-2016 10:00			120 м. (7200 с.)			Телма 08:00			
10:00			28-05-2016			28-05-2016 12:00			120 м. (7200 с.)			Телма 10:00			
12:00			28-05-2016			28-05-2016 14:00			120 м. (7200 с.)			Телма 12:00			
14:00			28-05-2016			28-05-2016 16:00			120 м. (7200 с.)			Телма 14:00			
16:00			28-05-2016			28-05-2016 18:00			120 м. (7200 с.)			Телма 16:00			
18:00			28-05-2016			28-05-2016 20:00			120 м. (7200 с.)			Телма 18:00			
20:00			28-05-2016			28-05-2016 22:00			120 м. (7200 с.)			Телма 20:00			
22:00			28-05-2016			29-05-2016 00:00			120 м. (7200 с.)			Телма 22:00			
00:00			29-05-2016			29-05-2016 02:00			120 м. (7200 с.)			Телма 00:00			
02:00			29-05-2016			29-05-2016 04:00			120 м. (7200 с.)			Телма 02:00			
04:00			29-05-2016			29-05-2016 06:00			120 м. (7200 с.)			Телма 04:00			
06:00			29-05-2016			29-05-2016 08:00			120 м. (7200 с.)			Телма 06:00			
08:00			29-05-2016			29-05-2016 10:00			120 м. (7200 с.)			Телма 08:00			
10:00			29-05-2016			29-05-2016 12:00			120 м. (7200 с.)			Телма 10:00			
12:00			29-05-2016			29-05-2016 14:00			120 м. (7200 с.)			Телма 12:00			
14:00			29-05-2016			29-05-2016 16:00			120 м. (7200 с.)			Телма 14:00			
16:00			29-05-2016			29-05-2016 18:00			120 м. (7200 с.)			Телма 16:00			
18:00			29-05-2016			29-05-2016 20:00			120 м. (7200 с.)			Телма 18:00			
20:00			29-05-2016			29-05-2016 22:00			120 м. (7200 с.)			Телма 20:00			
22:00			29-05-2016			30-05-2016 00:00			120 м. (7200 с.)			Телма 22:00			
00:00			30-05-2016			30-05-2016 02:00			120 м. (7200 с.)			Телма 00:00			
02:00			30-05-2016			30-05-2016 04:00			120 м. (7200 с.)			Телма 02:00			
04:00			30-05-2016			30-05-2016 06:00			120 м. (7200 с.)			Телма 04:00			
06:00			30-05-2016			30-05-2016 08:00			120 м. (7200 с.)			Телма 06:00			
08:00			30-05-2016			30-05-2016 10:00			120 м. (7200 с.)			Телма 08:00			
10:00			30-05-2016			30-05-2016 12:00			120 м. (7200 с.)			Телма 10:00			
12:00			30-05-2016			30-05-2016 14:00			120 м. (7200 с.)			Телма 12:00			
14:00			30-05-2016			30-05-2016 16:00			120 м. (7200 с.)			Телма 14:00			
16:00			30-05-2016			30-05-2016 18:00			120 м. (7200 с.)			Телма 16:00			
18:00			30-05-2016			30-05-2016 20:00			120 м. (7200 с.)			Телма 18:00			
20:00			30-05-2016			30-05-2016 22:00			120 м. (7200 с.)			Телма 20:00			
22:00			30-05-2016			31-05-2016 00:00			120 м. (7200 с.)			Телма 22:00			
00:00			31-05-2016			31-05-2016 02:00			120 м. (7200 с.)			Телма 00:00			
02:00			31-05-2016			31-05-2016 04:00			120 м. (7200 с.)			Телма 02:00			
04:00			31-05-2016			31-05-2016 06:00			120 м. (7200 с.)			Телма 04:00			
06:00			31-05-2016			31-05-2016 08:00			120 м. (7200 с.)			Телма 06:00			
08:00			31-05-2016			31-05-2016 10:00			120 м. (7200 с.)			Телма 08:00			
10:00			31-05-2016			31-05-2016 12:00			120 м. (7200 с.)			Телма 10:00			
12:00			31-05-2016			31-05-2016 14:00			120 м. (7200 с.)			Телма 12:00			
14:00			31-05-2016			31-05-2016 16:00			120 м. (7200 с.)			Телма 14:00			
16:00			31-05-2016			31-05-2016 18:00			120 м. (7200 с.)			Телма 16:00			
18:00			31-05-2016			31-05-2016 20:00			120 м. (7200 с.)			Телма 18:00			
20:00			31-05-2016			31-05-2016 22:00			120 м. (7200 с.)			Телма 20:00			
22:00			31-05-2016			01-06-2016 00:00			120 м. (7200 с.)			Телма 22:00