"userId","accountId","refNumber","firstName","lastName","username","channel","programme emission","programme start","programme end","time (minutes)"
"dd477dad-fe01-420c-bdb2-76c27e0ed1ed","2102","9000742","Влатко","Србиновски","532468","24 Vesti","Анализа - дебатна емисија",06 May 2016 11:02:00,06 May 2016 12:00:00,36.23
"dd477dad-fe01-420c-bdb2-76c27e0ed1ed","2102","9000742","Влатко","Србиновски","532468","24 Vesti","Вести 12",06 May 2016 12:00:00,06 May 2016 12:20:00,20.00
"dd477dad-fe01-420c-bdb2-76c27e0ed1ed","2102","9000742","Влатко","Србиновски","532468","24 Vesti","Временска прогноза",06 May 2016 12:20:00,06 May 2016 12:30:00,10.00
"dd477dad-fe01-420c-bdb2-76c27e0ed1ed","2102","9000742","Влатко","Србиновски","532468","24 Vesti","Хит топ 7 - забавна музика",06 May 2016 12:30:00,06 May 2016 13:00:00,16.78
"dd477dad-fe01-420c-bdb2-76c27e0ed1ed","2102","9000742","Влатко","Србиновски","532468","24 Vesti","Очи в очи - контактна емисија",09 May 2016 16:10:00,09 May 2016 17:00:00,1.42
"dd477dad-fe01-420c-bdb2-76c27e0ed1ed","2102","9000742","Влатко","Србиновски","532468","Alfa","Алфа ординација - контактна емисија - живо",05 May 2016 12:00:00,05 May 2016 13:30:00,21.52
"dd477dad-fe01-420c-bdb2-76c27e0ed1ed","2102","9000742","Влатко","Србиновски","532468","Alfa","Збор по збор - контакта емисија - живо",05 May 2016 13:30:00,05 May 2016 14:30:00,60.00
"dd477dad-fe01-420c-bdb2-76c27e0ed1ed","2102","9000742","Влатко","Србиновски","532468","Alfa","Вести",05 May 2016 14:30:00,05 May 2016 14:40:00,10.00
"dd477dad-fe01-420c-bdb2-76c27e0ed1ed","2102","9000742","Влатко","Србиновски","532468","Alfa","Документарна програма",05 May 2016 14:40:00,05 May 2016 15:00:00,20.00
"dd477dad-fe01-420c-bdb2-76c27e0ed1ed","2102","9000742","Влатко","Србиновски","532468","Alfa","Вкусот на традицијата - емисија за кулинарство - репри...",05 May 2016 15:00:00,05 May 2016 16:15:00,70.87
"dd477dad-fe01-420c-bdb2-76c27e0ed1ed","2102","9000742","Влатко","Србиновски","532468","Alfa","Бекстејџ - забавна програма",05 May 2016 16:15:00,05 May 2016 17:00:00,12.92
"dd477dad-fe01-420c-bdb2-76c27e0ed1ed","2102","9000742","Влатко","Србиновски","532468","Alfa","Судбина - турска играна серија - реприза",06 May 2016 10:45:00,06 May 2016 11:30:00,2.38
"dd477dad-fe01-420c-bdb2-76c27e0ed1ed","2102","9000742","Влатко","Србиновски","532468","Alfa","Алфа ординација - контактна емисија - живо",06 May 2016 12:00:00,06 May 2016 13:30:00,1.12
"dd477dad-fe01-420c-bdb2-76c27e0ed1ed","2102","9000742","Влатко","Србиновски","532468","Alfa","Бекстејџ - забавна програма",09 May 2016 16:00:00,09 May 2016 17:00:00,5.72
"dd477dad-fe01-420c-bdb2-76c27e0ed1ed","2102","9000742","Влатко","Србиновски","532468","Mtv 1","Дора и пријателите: Дора во земјата на часовниците - а...",04 May 2016 11:30:00,04 May 2016 11:55:00,10.65
"dd477dad-fe01-420c-bdb2-76c27e0ed1ed","2102","9000742","Влатко","Србиновски","532468","Mtv 1","Царот и овчарот - Македонски народни приказни - реприза",04 May 2016 11:55:00,04 May 2016 12:20:00,11.12
"dd477dad-fe01-420c-bdb2-76c27e0ed1ed","2102","9000742","Влатко","Србиновски","532468","Mtv 1","Во светот на технологијата",04 May 2016 12:20:00,04 May 2016 12:30:00,8.80
"dd477dad-fe01-420c-bdb2-76c27e0ed1ed","2102","9000742","Влатко","Србиновски","532468","Mtv 1","Музичко интермецо",04 May 2016 12:30:00,04 May 2016 13:00:00,6.75
"dd477dad-fe01-420c-bdb2-76c27e0ed1ed","2102","9000742","Влатко","Србиновски","532468","Mtv 1","Од наш агол - инфомагазин - реприза",04 May 2016 13:55:00,04 May 2016 14:40:00,37.05
"dd477dad-fe01-420c-bdb2-76c27e0ed1ed","2102","9000742","Влатко","Србиновски","532468","Mtv 1","Музичко интермецо",04 May 2016 14:40:00,04 May 2016 15:00:00,20.00
"dd477dad-fe01-420c-bdb2-76c27e0ed1ed","2102","9000742","Влатко","Србиновски","532468","Mtv 1","Вести",04 May 2016 15:00:00,04 May 2016 15:20:00,7.73
"dd477dad-fe01-420c-bdb2-76c27e0ed1ed","2102","9000742","Влатко","Србиновски","532468","Mtv 1","Голем одмор - детско шоу",09 May 2016 10:30:00,09 May 2016 11:25:00,15.95
"dd477dad-fe01-420c-bdb2-76c27e0ed1ed","2102","9000742","Влатко","Србиновски","532468","Mtv 1","Од пијаниот и будалиот бега - македонски народни прика...",09 May 2016 11:50:00,09 May 2016 12:30:00,20.77
"dd477dad-fe01-420c-bdb2-76c27e0ed1ed","2102","9000742","Влатко","Србиновски","532468","Mtv 1","Во светот на технологијата",09 May 2016 12:30:00,09 May 2016 12:40:00,10.00
"dd477dad-fe01-420c-bdb2-76c27e0ed1ed","2102","9000742","Влатко","Србиновски","532468","Mtv 1","Исчекор кон сонцето",09 May 2016 12:40:00,09 May 2016 13:00:00,20.00
"dd477dad-fe01-420c-bdb2-76c27e0ed1ed","2102","9000742","Влатко","Србиновски","532468","Mtv 1","Вести",09 May 2016 13:00:00,09 May 2016 13:20:00,8.83
"dd477dad-fe01-420c-bdb2-76c27e0ed1ed","2102","9000742","Влатко","Србиновски","532468","Mtv 1","Музичко интермецо",09 May 2016 13:20:00,09 May 2016 13:40:00,11.17
"dd477dad-fe01-420c-bdb2-76c27e0ed1ed","2102","9000742","Влатко","Србиновски","532468","Mtv 1","Супер ѕвезда - реприза",09 May 2016 13:40:00,09 May 2016 14:30:00,1.95
"dd477dad-fe01-420c-bdb2-76c27e0ed1ed","2102","9000742","Влатко","Србиновски","532468","Sitel","Малечката невеста - играна серија",04 May 2016 12:10:00,04 May 2016 12:40:00,2.87
"dd477dad-fe01-420c-bdb2-76c27e0ed1ed","2102","9000742","Влатко","Србиновски","532468","Sitel","Топ шоп",04 May 2016 13:55:00,04 May 2016 14:25:00,1.10
"dd477dad-fe01-420c-bdb2-76c27e0ed1ed","2102","9000742","Влатко","Србиновски","532468","Sitel","Во виорот на судбината - играна серија",04 May 2016 14:25:00,04 May 2016 15:30:00,1.53
"dd477dad-fe01-420c-bdb2-76c27e0ed1ed","2102","9000742","Влатко","Србиновски","532468","Sitel","Топ шоп",09 May 2016 13:55:00,09 May 2016 14:25:00,1.22
"dd477dad-fe01-420c-bdb2-76c27e0ed1ed","2102","9000742","Влатко","Србиновски","532468","SportKlub 1","Културна матрица",09 May 2016 10:30:00,09 May 2016 11:00:00,1.60
"dd477dad-fe01-420c-bdb2-76c27e0ed1ed","2102","9000742","Влатко","Србиновски","532468","SportKlub 2","WTA Premier & ATP Masters Madrid FINALE",09 May 2016 09:15:00,09 May 2016 11:00:00,1.17
"dd477dad-fe01-420c-bdb2-76c27e0ed1ed","2102","9000742","Влатко","Србиновски","532468","Telma","5+ фамилија",04 May 2016 12:00:00,04 May 2016 12:30:00,3.10
"dd477dad-fe01-420c-bdb2-76c27e0ed1ed","2102","9000742","Влатко","Србиновски","532468","Telma","Фаличен пансион - сериски филм - реприза",04 May 2016 14:40:00,04 May 2016 15:30:00,22.48
"dd477dad-fe01-420c-bdb2-76c27e0ed1ed","2102","9000742","Влатко","Србиновски","532468","Telma","Вести",04 May 2016 15:30:00,04 May 2016 15:55:00,25.00
"dd477dad-fe01-420c-bdb2-76c27e0ed1ed","2102","9000742","Влатко","Србиновски","532468","Telma","Метео",04 May 2016 15:55:00,04 May 2016 16:00:00,5.00
"dd477dad-fe01-420c-bdb2-76c27e0ed1ed","2102","9000742","Влатко","Србиновски","532468","Telma","Дневникот на Втора светска војна – документарна програ...",04 May 2016 16:00:00,04 May 2016 17:05:00,65.00
"dd477dad-fe01-420c-bdb2-76c27e0ed1ed","2102","9000742","Влатко","Србиновски","532468","Telma","Пријатели – хумористична серија",04 May 2016 17:05:00,04 May 2016 17:45:00,4.42
"dd477dad-fe01-420c-bdb2-76c27e0ed1ed","2102","9000742","Влатко","Србиновски","532468","Telma","Утринска на Телма",05 May 2016 08:00:00,05 May 2016 08:30:00,3.20
"dd477dad-fe01-420c-bdb2-76c27e0ed1ed","2102","9000742","Влатко","Србиновски","532468","Telma","Метео",05 May 2016 08:30:00,05 May 2016 08:40:00,10.00
"dd477dad-fe01-420c-bdb2-76c27e0ed1ed","2102","9000742","Влатко","Србиновски","532468","Telma","Утринска на Телма",05 May 2016 08:40:00,05 May 2016 09:40:00,60.00
"dd477dad-fe01-420c-bdb2-76c27e0ed1ed","2102","9000742","Влатко","Србиновски","532468","Telma","Топ шоп",05 May 2016 09:40:00,05 May 2016 10:00:00,20.00
"dd477dad-fe01-420c-bdb2-76c27e0ed1ed","2102","9000742","Влатко","Србиновски","532468","Telma","Утринска на Телма",05 May 2016 10:00:00,05 May 2016 10:30:00,28.40
"dd477dad-fe01-420c-bdb2-76c27e0ed1ed","2102","9000742","Влатко","Србиновски","532468","Telma","Утринска на Телма",05 May 2016 10:35:00,05 May 2016 11:00:00,18.70
"dd477dad-fe01-420c-bdb2-76c27e0ed1ed","2102","9000742","Влатко","Србиновски","532468","Telma","Том и Џери – анимиран филм за деца",05 May 2016 11:00:00,05 May 2016 12:00:00,60.00
"dd477dad-fe01-420c-bdb2-76c27e0ed1ed","2102","9000742","Влатко","Србиновски","532468","Telma","5+ фамилија премиера",05 May 2016 12:00:00,05 May 2016 12:30:00,30.00
"dd477dad-fe01-420c-bdb2-76c27e0ed1ed","2102","9000742","Влатко","Србиновски","532468","Telma","Метео",05 May 2016 12:30:00,05 May 2016 12:35:00,5.00
"dd477dad-fe01-420c-bdb2-76c27e0ed1ed","2102","9000742","Влатко","Србиновски","532468","Telma","Храна и вино – емисија за кулинарство - реприза",05 May 2016 12:35:00,05 May 2016 13:00:00,18.77
"dd477dad-fe01-420c-bdb2-76c27e0ed1ed","2102","9000742","Влатко","Србиновски","532468","Telma","Топ шоп",05 May 2016 13:00:00,05 May 2016 13:20:00,8.83
"dd477dad-fe01-420c-bdb2-76c27e0ed1ed","2102","9000742","Влатко","Србиновски","532468","Telma","Утринска на Телма",06 May 2016 10:35:00,06 May 2016 12:00:00,28.10
"dd477dad-fe01-420c-bdb2-76c27e0ed1ed","2102","9000742","Влатко","Србиновски","532468","Telma","Храна и вино – емисија за кулинарство - реприза",06 May 2016 12:35:00,06 May 2016 13:05:00,18.57
"dd477dad-fe01-420c-bdb2-76c27e0ed1ed","2102","9000742","Влатко","Србиновски","532468","Telma","Информа – Младински вести - реприза",06 May 2016 13:05:00,06 May 2016 13:15:00,10.00
"dd477dad-fe01-420c-bdb2-76c27e0ed1ed","2102","9000742","Влатко","Србиновски","532468","Telma","Топшоп",06 May 2016 13:15:00,06 May 2016 13:30:00,15.00
"dd477dad-fe01-420c-bdb2-76c27e0ed1ed","2102","9000742","Влатко","Србиновски","532468","Telma","Дневникот на Втората светска војна – документарна прог...",06 May 2016 13:30:00,06 May 2016 14:30:00,22.43
"dd477dad-fe01-420c-bdb2-76c27e0ed1ed","2102","9000742","Влатко","Србиновски","532468","Telma","хумористична серија - реприза",06 May 2016 14:50:00,06 May 2016 15:30:00,2.98
"dd477dad-fe01-420c-bdb2-76c27e0ed1ed","2102","9000742","Влатко","Србиновски","532468","Telma","Утринска на Телма",09 May 2016 10:00:00,09 May 2016 10:30:00,20.43
"dd477dad-fe01-420c-bdb2-76c27e0ed1ed","2102","9000742","Влатко","Србиновски","532468","Telma","Топшоп",09 May 2016 13:55:00,09 May 2016 14:15:00,8.08
"dd477dad-fe01-420c-bdb2-76c27e0ed1ed","2102","9000742","Влатко","Србиновски","532468","Telma","Еден на еден - реприза",09 May 2016 14:15:00,09 May 2016 15:30:00,73.37
"dd477dad-fe01-420c-bdb2-76c27e0ed1ed","2102","9000742","Влатко","Србиновски","532468","Telma","Вести",09 May 2016 15:30:00,09 May 2016 16:00:00,18.13
"dd477dad-fe01-420c-bdb2-76c27e0ed1ed","2102","9000742","Влатко","Србиновски","532468","Telma","Фчерашни новости - реприза",09 May 2016 16:05:00,09 May 2016 16:35:00,20.28
"dd477dad-fe01-420c-bdb2-76c27e0ed1ed","2102","9000742","Влатко","Србиновски","532468","Telma","Дневникот на Втората светска војна – документарна прог...",09 May 2016 16:35:00,09 May 2016 17:45:00,70.00
"dd477dad-fe01-420c-bdb2-76c27e0ed1ed","2102","9000742","Влатко","Србиновски","532468","Telma","Храна и вино – емисија за кулинарство",09 May 2016 17:45:00,09 May 2016 18:30:00,40.32
"dd477dad-fe01-420c-bdb2-76c27e0ed1ed","2102","9000742","Влатко","Србиновски","532468","Telma","Утринска на Телма",10 May 2016 08:45:00,10 May 2016 09:40:00,3.38
"dd477dad-fe01-420c-bdb2-76c27e0ed1ed","2102","9000742","Влатко","Србиновски","532468","Telma","5+ фамилија – детска програма",10 May 2016 12:35:00,10 May 2016 13:10:00,20.75
"dd477dad-fe01-420c-bdb2-76c27e0ed1ed","2102","9000742","Влатко","Србиновски","532468","Telma","Топшоп",10 May 2016 13:10:00,10 May 2016 13:30:00,10.68