"userId","accountId","refNumber","firstName","lastName","username","channel","programme emission","programme start","programme end","time (minutes)"
"6101bb9b-c3fd-4592-bcd7-2b928477c019","894","9277127","Соња","Илијеска","54563","24 Vesti","24 За животот - контактна емисија",03 May 2016 14:10:00,03 May 2016 15:00:00,1.28
"6101bb9b-c3fd-4592-bcd7-2b928477c019","894","9277127","Соња","Илијеска","54563","24 Vesti","Второ мислење - емисија за здрав живот",04 May 2016 13:02:00,04 May 2016 14:00:00,1.62
"6101bb9b-c3fd-4592-bcd7-2b928477c019","894","9277127","Соња","Илијеска","54563","24 Vesti","Фактор Здравје – контактна емисија",05 May 2016 15:10:00,05 May 2016 16:00:00,1.28
"6101bb9b-c3fd-4592-bcd7-2b928477c019","894","9277127","Соња","Илијеска","54563","24 Vesti","Дневник 20",05 May 2016 20:00:00,05 May 2016 20:45:00,23.35
"6101bb9b-c3fd-4592-bcd7-2b928477c019","894","9277127","Соња","Илијеска","54563","24 Vesti","Германија денес",05 May 2016 20:45:00,05 May 2016 21:00:00,15.00
"6101bb9b-c3fd-4592-bcd7-2b928477c019","894","9277127","Соња","Илијеска","54563","24 Vesti","Вин Вин - дебатна емисија",05 May 2016 21:00:00,05 May 2016 22:00:00,60.00
"6101bb9b-c3fd-4592-bcd7-2b928477c019","894","9277127","Соња","Илијеска","54563","24 Vesti","Дневник 22",05 May 2016 22:00:00,05 May 2016 22:45:00,23.35
"6101bb9b-c3fd-4592-bcd7-2b928477c019","894","9277127","Соња","Илијеска","54563","24 Vesti","Вести",06 May 2016 07:00:00,06 May 2016 07:02:00,0.17
"6101bb9b-c3fd-4592-bcd7-2b928477c019","894","9277127","Соња","Илијеска","54563","24 Vesti","Телешоп",06 May 2016 07:02:00,06 May 2016 07:15:00,1.28
"6101bb9b-c3fd-4592-bcd7-2b928477c019","894","9277127","Соња","Илијеска","54563","24 Vesti","Дневник 22",06 May 2016 22:00:00,06 May 2016 22:45:00,1.30
"6101bb9b-c3fd-4592-bcd7-2b928477c019","894","9277127","Соња","Илијеска","54563","24 Vesti","10 x 10+10 x10 Анализа",07 May 2016 21:00:00,07 May 2016 22:00:00,1.65
"6101bb9b-c3fd-4592-bcd7-2b928477c019","894","9277127","Соња","Илијеска","54563","Alfa","Збор по збор - контакта емисија - живо",03 May 2016 13:30:00,03 May 2016 14:30:00,21.30
"6101bb9b-c3fd-4592-bcd7-2b928477c019","894","9277127","Соња","Илијеска","54563","Alfa","Алфа ординација - контактна емисија - живо",04 May 2016 12:00:00,04 May 2016 13:30:00,6.13
"6101bb9b-c3fd-4592-bcd7-2b928477c019","894","9277127","Соња","Илијеска","54563","Alfa","Збор по збор - контакта емисија - живо",04 May 2016 13:30:00,04 May 2016 14:30:00,53.92
"6101bb9b-c3fd-4592-bcd7-2b928477c019","894","9277127","Соња","Илијеска","54563","Alfa","Вести",04 May 2016 14:30:00,04 May 2016 14:40:00,7.40
"6101bb9b-c3fd-4592-bcd7-2b928477c019","894","9277127","Соња","Илијеска","54563","Alfa","Документарна програма",04 May 2016 14:40:00,04 May 2016 15:00:00,9.20
"6101bb9b-c3fd-4592-bcd7-2b928477c019","894","9277127","Соња","Илијеска","54563","Alfa","Алфа ординација - контактна емисија - живо",05 May 2016 12:00:00,05 May 2016 13:30:00,40.85
"6101bb9b-c3fd-4592-bcd7-2b928477c019","894","9277127","Соња","Илијеска","54563","Alfa","Збор по збор - контакта емисија - живо",05 May 2016 13:30:00,05 May 2016 14:30:00,60.00
"6101bb9b-c3fd-4592-bcd7-2b928477c019","894","9277127","Соња","Илијеска","54563","Alfa","Вести",05 May 2016 14:30:00,05 May 2016 14:40:00,10.00
"6101bb9b-c3fd-4592-bcd7-2b928477c019","894","9277127","Соња","Илијеска","54563","Alfa","Документарна програма",05 May 2016 14:40:00,05 May 2016 15:00:00,20.00
"6101bb9b-c3fd-4592-bcd7-2b928477c019","894","9277127","Соња","Илијеска","54563","Alfa","Вкусот на традицијата - емисија за кулинарство - репри...",05 May 2016 15:00:00,05 May 2016 16:15:00,5.42
"6101bb9b-c3fd-4592-bcd7-2b928477c019","894","9277127","Соња","Илијеска","54563","Alfa","Село гори, баба се чешла - хумористична серија",05 May 2016 20:00:00,05 May 2016 21:00:00,1.15
"6101bb9b-c3fd-4592-bcd7-2b928477c019","894","9277127","Соња","Илијеска","54563","Alfa","Алфа ординација - контактна емисија - живо",06 May 2016 12:00:00,06 May 2016 13:30:00,38.13
"6101bb9b-c3fd-4592-bcd7-2b928477c019","894","9277127","Соња","Илијеска","54563","Alfa","Збор по збор - контакта емисија - живо",06 May 2016 13:30:00,06 May 2016 14:30:00,22.60
"6101bb9b-c3fd-4592-bcd7-2b928477c019","894","9277127","Соња","Илијеска","54563","Alfa","Судбина - турска играна серија",06 May 2016 22:00:00,06 May 2016 23:00:00,2.75
"6101bb9b-c3fd-4592-bcd7-2b928477c019","894","9277127","Соња","Илијеска","54563","Alfa","Жешка кујна– реално шоу",07 May 2016 21:10:00,07 May 2016 22:00:00,2.42
"6101bb9b-c3fd-4592-bcd7-2b928477c019","894","9277127","Соња","Илијеска","54563","Alfa","Алфа ординација – контактна емисија - живо",09 May 2016 12:00:00,09 May 2016 13:30:00,19.95
"6101bb9b-c3fd-4592-bcd7-2b928477c019","894","9277127","Соња","Илијеска","54563","Alfa","Збор по збор – контактна емисија - живо",09 May 2016 13:30:00,09 May 2016 14:30:00,60.00
"6101bb9b-c3fd-4592-bcd7-2b928477c019","894","9277127","Соња","Илијеска","54563","Alfa","Вести",09 May 2016 14:30:00,09 May 2016 14:40:00,10.00
"6101bb9b-c3fd-4592-bcd7-2b928477c019","894","9277127","Соња","Илијеска","54563","Alfa","Цимери – играна серија - реприза",09 May 2016 14:40:00,09 May 2016 15:00:00,20.00
"6101bb9b-c3fd-4592-bcd7-2b928477c019","894","9277127","Соња","Илијеска","54563","Alfa","Вкусот на традицијата – рецепт на денот",09 May 2016 15:00:00,09 May 2016 15:20:00,12.33
"6101bb9b-c3fd-4592-bcd7-2b928477c019","894","9277127","Соња","Илијеска","54563","Alfa","Жешка кујна – кулинарско шоу - реприза",09 May 2016 15:20:00,09 May 2016 16:00:00,1.53
"6101bb9b-c3fd-4592-bcd7-2b928477c019","894","9277127","Соња","Илијеска","54563","Fox","Современо семејство",02 May 2016 18:30:00,02 May 2016 19:00:00,2.27
"6101bb9b-c3fd-4592-bcd7-2b928477c019","894","9277127","Соња","Илијеска","54563","Fox","Голдбергови",02 May 2016 20:00:00,02 May 2016 20:30:00,1.27
"6101bb9b-c3fd-4592-bcd7-2b928477c019","894","9277127","Соња","Илијеска","54563","Fox","11.22.63",02 May 2016 22:00:00,02 May 2016 22:55:00,1.78
"6101bb9b-c3fd-4592-bcd7-2b928477c019","894","9277127","Соња","Илијеска","54563","Fox","Квантико",04 May 2016 21:00:00,04 May 2016 22:00:00,2.27
"6101bb9b-c3fd-4592-bcd7-2b928477c019","894","9277127","Соња","Илијеска","54563","Fox","Дус Бигалоу: Жиголо",06 May 2016 22:00:00,06 May 2016 23:50:00,1.25
"6101bb9b-c3fd-4592-bcd7-2b928477c019","894","9277127","Соња","Илијеска","54563","Mtv 1","Топ листа - Супер ѕвезда - реприза",03 May 2016 14:05:00,03 May 2016 15:00:00,1.32
"6101bb9b-c3fd-4592-bcd7-2b928477c019","894","9277127","Соња","Илијеска","54563","Mtv 1","Реал Мадрид - Манчестер Сити - Лига на Шампионите - фу...",04 May 2016 20:45:00,04 May 2016 22:45:00,56.13
"6101bb9b-c3fd-4592-bcd7-2b928477c019","894","9277127","Соња","Илијеска","54563","Mtv 1","Лига на шампионите - Фудбал - студио",04 May 2016 22:45:00,04 May 2016 23:05:00,20.00
"6101bb9b-c3fd-4592-bcd7-2b928477c019","894","9277127","Соња","Илијеска","54563","Mtv 1","Дневник 3",04 May 2016 23:05:00,04 May 2016 23:20:00,15.00
"6101bb9b-c3fd-4592-bcd7-2b928477c019","894","9277127","Соња","Илијеска","54563","Mtv 1","Спорт",04 May 2016 23:20:00,04 May 2016 23:30:00,10.00
"6101bb9b-c3fd-4592-bcd7-2b928477c019","894","9277127","Соња","Илијеска","54563","Mtv 1","Метео",04 May 2016 23:30:00,04 May 2016 23:35:00,5.00
"6101bb9b-c3fd-4592-bcd7-2b928477c019","894","9277127","Соња","Илијеска","54563","Mtv 1","Хајлајтси - избор на голови",04 May 2016 23:35:00,04 May 2016 23:55:00,15.40
"6101bb9b-c3fd-4592-bcd7-2b928477c019","894","9277127","Соња","Илијеска","54563","Mtv 1","Македонија наутро - инфостудио",05 May 2016 06:45:00,05 May 2016 09:15:00,1.13
"6101bb9b-c3fd-4592-bcd7-2b928477c019","894","9277127","Соња","Илијеска","54563","Mtv 1","Акцент - инфомагазин",05 May 2016 20:15:00,05 May 2016 20:50:00,1.75
"6101bb9b-c3fd-4592-bcd7-2b928477c019","894","9277127","Соња","Илијеска","54563","Mtv 1","Музичко интермецо",06 May 2016 12:25:00,06 May 2016 13:00:00,1.12
"6101bb9b-c3fd-4592-bcd7-2b928477c019","894","9277127","Соња","Илијеска","54563","Mtv 1","Улица на ужасот - играна серија - реприза",06 May 2016 21:45:00,06 May 2016 22:40:00,1.55
"6101bb9b-c3fd-4592-bcd7-2b928477c019","894","9277127","Соња","Илијеска","54563","Mtv 1","Лустрацијата во РМ - документарна серија",07 May 2016 21:00:00,07 May 2016 21:50:00,3.17
"6101bb9b-c3fd-4592-bcd7-2b928477c019","894","9277127","Соња","Илијеска","54563","Mtv 1","Голем одмор - детско шоу",10 May 2016 10:30:00,10 May 2016 11:25:00,1.15
"6101bb9b-c3fd-4592-bcd7-2b928477c019","894","9277127","Соња","Илијеска","54563","Sitel","Топ шоп",03 May 2016 13:55:00,03 May 2016 14:25:00,1.28
"6101bb9b-c3fd-4592-bcd7-2b928477c019","894","9277127","Соња","Илијеска","54563","Sitel","Во виорот на судбината - играна серија",03 May 2016 14:25:00,03 May 2016 15:30:00,2.37
"6101bb9b-c3fd-4592-bcd7-2b928477c019","894","9277127","Соња","Илијеска","54563","Sitel","Македонски стари приказни",04 May 2016 12:40:00,04 May 2016 13:55:00,2.32
"6101bb9b-c3fd-4592-bcd7-2b928477c019","894","9277127","Соња","Илијеска","54563","Sitel","Топ шоп",04 May 2016 13:55:00,04 May 2016 14:25:00,1.28
"6101bb9b-c3fd-4592-bcd7-2b928477c019","894","9277127","Соња","Илијеска","54563","Sitel","На дневен ред - контактна програма",05 May 2016 08:30:00,05 May 2016 09:00:00,11.13
"6101bb9b-c3fd-4592-bcd7-2b928477c019","894","9277127","Соња","Илијеска","54563","Sitel","Во виорот на судбината - играна серија",05 May 2016 14:25:00,05 May 2016 15:30:00,1.18
"6101bb9b-c3fd-4592-bcd7-2b928477c019","894","9277127","Соња","Илијеска","54563","Sitel","Во виорот на судбината - играна серија",05 May 2016 19:45:00,05 May 2016 21:30:00,1.12
"6101bb9b-c3fd-4592-bcd7-2b928477c019","894","9277127","Соња","Илијеска","54563","Sitel","Ја сакам Македонија - утринска програма",06 May 2016 07:10:00,06 May 2016 08:30:00,0.88
"6101bb9b-c3fd-4592-bcd7-2b928477c019","894","9277127","Соња","Илијеска","54563","Sitel","На дневен ред - контактна програма",06 May 2016 08:30:00,06 May 2016 09:00:00,16.00
"6101bb9b-c3fd-4592-bcd7-2b928477c019","894","9277127","Соња","Илијеска","54563","Sitel","Македонски стари приказни",06 May 2016 12:40:00,06 May 2016 13:55:00,1.13
"6101bb9b-c3fd-4592-bcd7-2b928477c019","894","9277127","Соња","Илијеска","54563","Sitel","Црната роза - играна серија",06 May 2016 21:30:00,06 May 2016 23:00:00,1.72
"6101bb9b-c3fd-4592-bcd7-2b928477c019","894","9277127","Соња","Илијеска","54563","Sitel","Пинк ѕвезди - талент шоу",07 May 2016 21:00:00,07 May 2016 23:45:00,1.50
"6101bb9b-c3fd-4592-bcd7-2b928477c019","894","9277127","Соња","Илијеска","54563","Sitel","Ја сакам Македонија - утринска програма",09 May 2016 07:10:00,09 May 2016 08:30:00,23.87
"6101bb9b-c3fd-4592-bcd7-2b928477c019","894","9277127","Соња","Илијеска","54563","Sitel","На дневен ред - контактна програма",09 May 2016 08:30:00,09 May 2016 09:00:00,13.45
"6101bb9b-c3fd-4592-bcd7-2b928477c019","894","9277127","Соња","Илијеска","54563","Sitel","Ја сакам Македонија - утринска програма",10 May 2016 07:10:00,10 May 2016 08:30:00,3.98
"6101bb9b-c3fd-4592-bcd7-2b928477c019","894","9277127","Соња","Илијеска","54563","Sitel","На дневен ред - контактна програма",10 May 2016 08:30:00,10 May 2016 09:00:00,14.08
"6101bb9b-c3fd-4592-bcd7-2b928477c019","894","9277127","Соња","Илијеска","54563","Sitel","Тајната на дивата река - играна серија",10 May 2016 10:35:00,10 May 2016 11:25:00,2.40
"6101bb9b-c3fd-4592-bcd7-2b928477c019","894","9277127","Соња","Илијеска","54563","SportKlub 1","Дневник 20",02 May 2016 20:00:00,02 May 2016 20:40:00,1.97
"6101bb9b-c3fd-4592-bcd7-2b928477c019","894","9277127","Соња","Илијеска","54563","SportKlub 1","Концерт",02 May 2016 20:40:00,02 May 2016 22:00:00,1.10
"6101bb9b-c3fd-4592-bcd7-2b928477c019","894","9277127","Соња","Илијеска","54563","SportKlub 1","Дневник 22",02 May 2016 22:00:00,02 May 2016 22:45:00,2.15
"6101bb9b-c3fd-4592-bcd7-2b928477c019","894","9277127","Соња","Илијеска","54563","SportKlub 1","Анализа - дебатна емисија",04 May 2016 21:00:00,04 May 2016 22:00:00,1.53
"6101bb9b-c3fd-4592-bcd7-2b928477c019","894","9277127","Соња","Илијеска","54563","SportKlub 1","Дневник 22",06 May 2016 22:00:00,06 May 2016 22:45:00,1.35
"6101bb9b-c3fd-4592-bcd7-2b928477c019","894","9277127","Соња","Илијеска","54563","SportKlub 1","Дневник 22",08 May 2016 22:00:00,08 May 2016 22:45:00,14.45
"6101bb9b-c3fd-4592-bcd7-2b928477c019","894","9277127","Соња","Илијеска","54563","SportKlub 1","Спортски вести",08 May 2016 22:45:00,08 May 2016 23:00:00,15.00
"6101bb9b-c3fd-4592-bcd7-2b928477c019","894","9277127","Соња","Илијеска","54563","SportKlub 1","Вести",08 May 2016 23:00:00,08 May 2016 23:02:00,2.00
"6101bb9b-c3fd-4592-bcd7-2b928477c019","894","9277127","Соња","Илијеска","54563","SportKlub 1","Телешоп",08 May 2016 23:02:00,08 May 2016 23:15:00,13.00
"6101bb9b-c3fd-4592-bcd7-2b928477c019","894","9277127","Соња","Илијеска","54563","SportKlub 1","Документарна програма",08 May 2016 23:15:00,09 May 2016 00:00:00,45.00
"6101bb9b-c3fd-4592-bcd7-2b928477c019","894","9277127","Соња","Илијеска","54563","SportKlub 1","Дневник",09 May 2016 00:00:00,09 May 2016 01:00:00,32.33
"6101bb9b-c3fd-4592-bcd7-2b928477c019","894","9277127","Соња","Илијеска","54563","SportKlub 1","24 Вести 06:00",09 May 2016 06:00:00,09 May 2016 07:00:00,1.13
"6101bb9b-c3fd-4592-bcd7-2b928477c019","894","9277127","Соња","Илијеска","54563","SportKlub 2","ATP Masters & WTA Premier Madrid LIVE",02 May 2016 12:00:00,02 May 2016 21:00:00,1.17
"6101bb9b-c3fd-4592-bcd7-2b928477c019","894","9277127","Соња","Илијеска","54563","SportKlub 2","Premier League: Chelsea - Tottenham LIVE",02 May 2016 21:00:00,02 May 2016 23:00:00,66.60
"6101bb9b-c3fd-4592-bcd7-2b928477c019","894","9277127","Соња","Илијеска","54563","SportKlub 2","Ukrajinska liga: Shakhtar - Dynamo Kiev",02 May 2016 23:00:00,03 May 2016 00:45:00,105.00
"6101bb9b-c3fd-4592-bcd7-2b928477c019","894","9277127","Соња","Илијеска","54563","SportKlub 2","Pregled ruske lige",03 May 2016 00:45:00,03 May 2016 01:15:00,13.28
"6101bb9b-c3fd-4592-bcd7-2b928477c019","894","9277127","Соња","Илијеска","54563","SportKlub 2","Championship: Burnley - QPR",03 May 2016 07:15:00,03 May 2016 09:00:00,1.23
"6101bb9b-c3fd-4592-bcd7-2b928477c019","894","9277127","Соња","Илијеска","54563","SportKlub 2","Košarka - Pallacanestro LIVE",04 May 2016 20:30:00,04 May 2016 22:20:00,1.43
"6101bb9b-c3fd-4592-bcd7-2b928477c019","894","9277127","Соња","Илијеска","54563","SportKlub 2","Škotska liga: Inverness - Dundee United LIVE",06 May 2016 20:45:00,06 May 2016 22:45:00,1.70
"6101bb9b-c3fd-4592-bcd7-2b928477c019","894","9277127","Соња","Илијеска","54563","Telma","Дневникот на Втората светска војна – документарна прог...",03 May 2016 13:30:00,03 May 2016 14:20:00,2.97
"6101bb9b-c3fd-4592-bcd7-2b928477c019","894","9277127","Соња","Илијеска","54563","Telma","Код – информативен магазин - реприза",03 May 2016 14:40:00,03 May 2016 15:30:00,9.22
"6101bb9b-c3fd-4592-bcd7-2b928477c019","894","9277127","Соња","Илијеска","54563","Telma","Топ шоп",04 May 2016 13:00:00,04 May 2016 13:20:00,0.25
"6101bb9b-c3fd-4592-bcd7-2b928477c019","894","9277127","Соња","Илијеска","54563","Telma","Пријатели – хумористична серија - реприза",04 May 2016 13:20:00,04 May 2016 13:45:00,0.37
"6101bb9b-c3fd-4592-bcd7-2b928477c019","894","9277127","Соња","Илијеска","54563","Telma","Топшоп",04 May 2016 14:20:00,04 May 2016 14:40:00,1.22
"6101bb9b-c3fd-4592-bcd7-2b928477c019","894","9277127","Соња","Илијеска","54563","Telma","Фаличен пансион - сериски филм - реприза",04 May 2016 14:40:00,04 May 2016 15:30:00,2.32
"6101bb9b-c3fd-4592-bcd7-2b928477c019","894","9277127","Соња","Илијеска","54563","Telma","Ајде дома - реприза",05 May 2016 14:40:00,05 May 2016 15:30:00,12.32
"6101bb9b-c3fd-4592-bcd7-2b928477c019","894","9277127","Соња","Илијеска","54563","Telma","Топ тема – дебатна емисија",05 May 2016 19:15:00,05 May 2016 20:30:00,1.77
"6101bb9b-c3fd-4592-bcd7-2b928477c019","894","9277127","Соња","Илијеска","54563","Telma","Храна и вино – емисија за кулинарство - реприза",06 May 2016 12:35:00,06 May 2016 13:05:00,2.17
"6101bb9b-c3fd-4592-bcd7-2b928477c019","894","9277127","Соња","Илијеска","54563","Telma","Танцувајќи на работ – сериски филм",06 May 2016 21:30:00,06 May 2016 22:30:00,2.68
"6101bb9b-c3fd-4592-bcd7-2b928477c019","894","9277127","Соња","Илијеска","54563","Telma","Бандитки - игран филм",07 May 2016 20:10:00,07 May 2016 22:30:00,1.15
"6101bb9b-c3fd-4592-bcd7-2b928477c019","894","9277127","Соња","Илијеска","54563","Telma","Еден на еден - реприза",09 May 2016 14:15:00,09 May 2016 15:30:00,1.12
"6101bb9b-c3fd-4592-bcd7-2b928477c019","894","9277127","Соња","Илијеска","54563","Telma","Утринска на Телма",10 May 2016 10:45:00,10 May 2016 12:30:00,1.43
"6101bb9b-c3fd-4592-bcd7-2b928477c019","894","9277127","Соња","Илијеска","54563","TV1000","Filadelfija",02 May 2016 16:20:00,02 May 2016 18:30:00,27.60
"6101bb9b-c3fd-4592-bcd7-2b928477c019","894","9277127","Соња","Илијеска","54563","TV1000","Muzika srca",02 May 2016 18:30:00,02 May 2016 20:30:00,4.13
"6101bb9b-c3fd-4592-bcd7-2b928477c019","894","9277127","Соња","Илијеска","54563","TV1000","U ime pravde",04 May 2016 20:30:00,04 May 2016 22:30:00,2.47
"6101bb9b-c3fd-4592-bcd7-2b928477c019","894","9277127","Соња","Илијеска","54563","TV1000","Ulični orac - Legenda o Čun Liju",06 May 2016 18:50:00,06 May 2016 20:30:00,72.88
"6101bb9b-c3fd-4592-bcd7-2b928477c019","894","9277127","Соња","Илијеска","54563","TV1000","21 gram",06 May 2016 20:30:00,06 May 2016 22:30:00,101.90