"userId","accountId","refNumber","firstName","lastName","username","channel","programme emission","programme start","programme end","time (minutes)"
"b94658f2-b22a-47a0-b7aa-f79756672b3a","\","\","Влатко","Сетте","vlatko","24 Vesti","Работна сабота",01 May 2016 21:00:00,01 May 2016 22:00:00,0.72
"b94658f2-b22a-47a0-b7aa-f79756672b3a","\","\","Влатко","Сетте","vlatko","24 Vesti","Народна музика",02 May 2016 07:15:00,02 May 2016 08:00:00,1.15
"b94658f2-b22a-47a0-b7aa-f79756672b3a","\","\","Влатко","Сетте","vlatko","24 Vesti","Вести",02 May 2016 09:00:00,02 May 2016 09:10:00,0.62
"b94658f2-b22a-47a0-b7aa-f79756672b3a","\","\","Влатко","Сетте","vlatko","24 Vesti","24 Од се срце - живо",02 May 2016 09:10:00,02 May 2016 10:00:00,0.62
"b94658f2-b22a-47a0-b7aa-f79756672b3a","\","\","Влатко","Сетте","vlatko","24 Vesti","Телешоп",02 May 2016 10:10:00,02 May 2016 10:30:00,16.52
"b94658f2-b22a-47a0-b7aa-f79756672b3a","\","\","Влатко","Сетте","vlatko","24 Vesti","Културна матрица",02 May 2016 10:30:00,02 May 2016 11:00:00,30.00
"b94658f2-b22a-47a0-b7aa-f79756672b3a","\","\","Влатко","Сетте","vlatko","24 Vesti","Вести",02 May 2016 11:00:00,02 May 2016 11:02:00,2.00
"b94658f2-b22a-47a0-b7aa-f79756672b3a","\","\","Влатко","Сетте","vlatko","24 Vesti","Вин Вин - дебатна емисија",02 May 2016 11:02:00,02 May 2016 12:00:00,30.38
"b94658f2-b22a-47a0-b7aa-f79756672b3a","\","\","Влатко","Сетте","vlatko","24 Vesti","Вести",02 May 2016 12:00:00,02 May 2016 12:15:00,9.02
"b94658f2-b22a-47a0-b7aa-f79756672b3a","\","\","Влатко","Сетте","vlatko","24 Vesti","Поп Рок ритам - музичка емисија",02 May 2016 12:30:00,02 May 2016 13:00:00,0.70
"b94658f2-b22a-47a0-b7aa-f79756672b3a","\","\","Влатко","Сетте","vlatko","24 Vesti","Фактор Здравје",02 May 2016 15:10:00,02 May 2016 16:00:00,0.57
"b94658f2-b22a-47a0-b7aa-f79756672b3a","\","\","Влатко","Сетте","vlatko","24 Vesti","Вести 16",02 May 2016 16:00:00,02 May 2016 16:10:00,0.07
"b94658f2-b22a-47a0-b7aa-f79756672b3a","\","\","Влатко","Сетте","vlatko","24 Vesti","Документарен филм",02 May 2016 16:10:00,02 May 2016 17:00:00,0.55
"b94658f2-b22a-47a0-b7aa-f79756672b3a","\","\","Влатко","Сетте","vlatko","24 Vesti","Спортски вести",02 May 2016 17:45:00,02 May 2016 18:00:00,1.53
"b94658f2-b22a-47a0-b7aa-f79756672b3a","\","\","Влатко","Сетте","vlatko","24 Vesti","Топ форма - забавна емсија",02 May 2016 18:02:00,02 May 2016 18:30:00,1.18
"b94658f2-b22a-47a0-b7aa-f79756672b3a","\","\","Влатко","Сетте","vlatko","24 Vesti","Телешоп",02 May 2016 18:30:00,02 May 2016 19:00:00,1.23
"b94658f2-b22a-47a0-b7aa-f79756672b3a","\","\","Влатко","Сетте","vlatko","24 Vesti","Концерт",02 May 2016 20:40:00,02 May 2016 22:00:00,2.92
"b94658f2-b22a-47a0-b7aa-f79756672b3a","\","\","Влатко","Сетте","vlatko","24 Vesti","Патот до успехот - тематска емисија",03 May 2016 13:02:00,03 May 2016 14:00:00,4.60
"b94658f2-b22a-47a0-b7aa-f79756672b3a","\","\","Влатко","Сетте","vlatko","24 Vesti","24 За животот - контактна емисија",03 May 2016 14:10:00,03 May 2016 15:00:00,0.53
"b94658f2-b22a-47a0-b7aa-f79756672b3a","\","\","Влатко","Сетте","vlatko","24 Vesti","Очи в очи - контактна емисија - живо",03 May 2016 16:10:00,03 May 2016 17:00:00,0.83
"b94658f2-b22a-47a0-b7aa-f79756672b3a","\","\","Влатко","Сетте","vlatko","24 Vesti","Дневник 17",03 May 2016 17:00:00,03 May 2016 17:45:00,0.85
"b94658f2-b22a-47a0-b7aa-f79756672b3a","\","\","Влатко","Сетте","vlatko","24 Vesti","24 Вести 02:00",04 May 2016 02:00:00,04 May 2016 06:00:00,0.57
"b94658f2-b22a-47a0-b7aa-f79756672b3a","\","\","Влатко","Сетте","vlatko","24 Vesti","Отворено - дебатна емисија",04 May 2016 10:45:00,04 May 2016 12:00:00,2.55
"b94658f2-b22a-47a0-b7aa-f79756672b3a","\","\","Влатко","Сетте","vlatko","24 Vesti","Второ мислење - емисија за здрав живот",04 May 2016 13:02:00,04 May 2016 14:00:00,2.32
"b94658f2-b22a-47a0-b7aa-f79756672b3a","\","\","Влатко","Сетте","vlatko","24 Vesti","Очи в очи - контактна емисија во живо",04 May 2016 16:10:00,04 May 2016 17:00:00,20.67
"b94658f2-b22a-47a0-b7aa-f79756672b3a","\","\","Влатко","Сетте","vlatko","24 Vesti","Дневник 17",04 May 2016 17:00:00,04 May 2016 17:45:00,3.60
"b94658f2-b22a-47a0-b7aa-f79756672b3a","\","\","Влатко","Сетте","vlatko","24 Vesti","Спортски вести",04 May 2016 22:45:00,04 May 2016 23:00:00,0.57
"b94658f2-b22a-47a0-b7aa-f79756672b3a","\","\","Влатко","Сетте","vlatko","24 Vesti","Автоплус - емисија за автомобилизам",04 May 2016 23:15:00,05 May 2016 00:00:00,0.53
"b94658f2-b22a-47a0-b7aa-f79756672b3a","\","\","Влатко","Сетте","vlatko","24 Vesti","Вести",05 May 2016 07:00:00,05 May 2016 07:02:00,0.38
"b94658f2-b22a-47a0-b7aa-f79756672b3a","\","\","Влатко","Сетте","vlatko","24 Vesti","Телешоп",05 May 2016 07:02:00,05 May 2016 07:15:00,1.20
"b94658f2-b22a-47a0-b7aa-f79756672b3a","\","\","Влатко","Сетте","vlatko","24 Vesti","Германија денес - магазин",05 May 2016 07:45:00,05 May 2016 08:00:00,2.63
"b94658f2-b22a-47a0-b7aa-f79756672b3a","\","\","Влатко","Сетте","vlatko","24 Vesti","Трета порта",05 May 2016 10:30:00,05 May 2016 11:00:00,3.72
"b94658f2-b22a-47a0-b7aa-f79756672b3a","\","\","Влатко","Сетте","vlatko","24 Vesti","Вести",05 May 2016 11:00:00,05 May 2016 11:02:00,2.00
"b94658f2-b22a-47a0-b7aa-f79756672b3a","\","\","Влатко","Сетте","vlatko","24 Vesti","Анализа - дебатна емисија",05 May 2016 11:02:00,05 May 2016 12:00:00,43.60
"b94658f2-b22a-47a0-b7aa-f79756672b3a","\","\","Влатко","Сетте","vlatko","24 Vesti","Магична сцена - емисија за култура",05 May 2016 13:30:00,05 May 2016 14:00:00,2.27
"b94658f2-b22a-47a0-b7aa-f79756672b3a","\","\","Влатко","Сетте","vlatko","24 Vesti","Фактор Здравје – контактна емисија",05 May 2016 15:10:00,05 May 2016 16:00:00,0.63
"b94658f2-b22a-47a0-b7aa-f79756672b3a","\","\","Влатко","Сетте","vlatko","24 Vesti","Документарна програма",05 May 2016 18:02:00,05 May 2016 19:00:00,0.65
"b94658f2-b22a-47a0-b7aa-f79756672b3a","\","\","Влатко","Сетте","vlatko","24 Vesti","Дневник 20",05 May 2016 20:00:00,05 May 2016 20:45:00,15.38
"b94658f2-b22a-47a0-b7aa-f79756672b3a","\","\","Влатко","Сетте","vlatko","24 Vesti","Вин Вин - дебатна емисија",05 May 2016 21:00:00,05 May 2016 22:00:00,3.67
"b94658f2-b22a-47a0-b7aa-f79756672b3a","\","\","Влатко","Сетте","vlatko","24 Vesti","24 Вести 01:00",06 May 2016 01:00:00,06 May 2016 02:00:00,1.38
"b94658f2-b22a-47a0-b7aa-f79756672b3a","\","\","Влатко","Сетте","vlatko","24 Vesti","Анализа - дебатна емисија",06 May 2016 11:02:00,06 May 2016 12:00:00,3.95
"b94658f2-b22a-47a0-b7aa-f79756672b3a","\","\","Влатко","Сетте","vlatko","24 Vesti","Авто плус - емисија за автомобилизам",06 May 2016 13:02:00,06 May 2016 13:30:00,1.38
"b94658f2-b22a-47a0-b7aa-f79756672b3a","\","\","Влатко","Сетте","vlatko","24 Vesti","Очи в Очи - контактна емисија",06 May 2016 16:10:00,06 May 2016 17:00:00,0.60
"b94658f2-b22a-47a0-b7aa-f79756672b3a","\","\","Влатко","Сетте","vlatko","24 Vesti","24 Вести 02:00",07 May 2016 02:00:00,07 May 2016 06:00:00,3.47
"b94658f2-b22a-47a0-b7aa-f79756672b3a","\","\","Влатко","Сетте","vlatko","24 Vesti","Народна музика",07 May 2016 07:10:00,07 May 2016 08:30:00,8.72
"b94658f2-b22a-47a0-b7aa-f79756672b3a","\","\","Влатко","Сетте","vlatko","24 Vesti","Ретро во ретро",07 May 2016 12:30:00,07 May 2016 13:00:00,2.62
"b94658f2-b22a-47a0-b7aa-f79756672b3a","\","\","Влатко","Сетте","vlatko","24 Vesti","Работна Сабота - забавна емисија",07 May 2016 14:30:00,07 May 2016 15:30:00,7.58
"b94658f2-b22a-47a0-b7aa-f79756672b3a","\","\","Влатко","Сетте","vlatko","24 Vesti","Дневник 17",07 May 2016 17:00:00,07 May 2016 17:45:00,1.43
"b94658f2-b22a-47a0-b7aa-f79756672b3a","\","\","Влатко","Сетте","vlatko","24 Vesti","Вести - Макфакс",07 May 2016 18:00:00,07 May 2016 18:02:00,0.15
"b94658f2-b22a-47a0-b7aa-f79756672b3a","\","\","Влатко","Сетте","vlatko","24 Vesti","Патот до успехот",07 May 2016 18:02:00,07 May 2016 19:00:00,8.75
"b94658f2-b22a-47a0-b7aa-f79756672b3a","\","\","Влатко","Сетте","vlatko","24 Vesti","Најава на програмата",08 May 2016 07:02:00,08 May 2016 07:10:00,3.08
"b94658f2-b22a-47a0-b7aa-f79756672b3a","\","\","Влатко","Сетте","vlatko","24 Vesti","Народна музика",08 May 2016 07:10:00,08 May 2016 08:30:00,8.88
"b94658f2-b22a-47a0-b7aa-f79756672b3a","\","\","Влатко","Сетте","vlatko","24 Vesti","Патот до успехот",08 May 2016 12:30:00,08 May 2016 13:20:00,0.50
"b94658f2-b22a-47a0-b7aa-f79756672b3a","\","\","Влатко","Сетте","vlatko","24 Vesti","Вести 14",08 May 2016 14:00:00,08 May 2016 14:15:00,5.98
"b94658f2-b22a-47a0-b7aa-f79756672b3a","\","\","Влатко","Сетте","vlatko","24 Vesti","Концерт",08 May 2016 15:05:00,08 May 2016 16:00:00,1.68
"b94658f2-b22a-47a0-b7aa-f79756672b3a","\","\","Влатко","Сетте","vlatko","24 Vesti","Вести 16",08 May 2016 16:00:00,08 May 2016 16:10:00,6.15
"b94658f2-b22a-47a0-b7aa-f79756672b3a","\","\","Влатко","Сетте","vlatko","24 Vesti","Живот со стил – забавна емисија",08 May 2016 16:10:00,08 May 2016 17:00:00,1.60
"b94658f2-b22a-47a0-b7aa-f79756672b3a","\","\","Влатко","Сетте","vlatko","24 Vesti","Дневник 17",08 May 2016 17:00:00,08 May 2016 17:45:00,12.02
"b94658f2-b22a-47a0-b7aa-f79756672b3a","\","\","Влатко","Сетте","vlatko","24 Vesti","Спортски вести",08 May 2016 17:45:00,08 May 2016 18:00:00,1.15
"b94658f2-b22a-47a0-b7aa-f79756672b3a","\","\","Влатко","Сетте","vlatko","24 Vesti","Тренд",08 May 2016 18:02:00,08 May 2016 19:00:00,2.13
"b94658f2-b22a-47a0-b7aa-f79756672b3a","\","\","Влатко","Сетте","vlatko","24 Vesti","Дневник 20",08 May 2016 20:00:00,08 May 2016 21:00:00,1.65
"b94658f2-b22a-47a0-b7aa-f79756672b3a","\","\","Влатко","Сетте","vlatko","24 Vesti","Документарна програма",08 May 2016 23:15:00,09 May 2016 00:00:00,9.93
"b94658f2-b22a-47a0-b7aa-f79756672b3a","\","\","Влатко","Сетте","vlatko","24 Vesti","Очи в очи - контактана емисија",09 May 2016 08:05:00,09 May 2016 09:00:00,53.38
"b94658f2-b22a-47a0-b7aa-f79756672b3a","\","\","Влатко","Сетте","vlatko","24 Vesti","Вести",09 May 2016 09:00:00,09 May 2016 09:10:00,10.00
"b94658f2-b22a-47a0-b7aa-f79756672b3a","\","\","Влатко","Сетте","vlatko","24 Vesti","24 Од се срце - живо",09 May 2016 09:10:00,09 May 2016 10:00:00,50.00
"b94658f2-b22a-47a0-b7aa-f79756672b3a","\","\","Влатко","Сетте","vlatko","24 Vesti","Вести",09 May 2016 10:00:00,09 May 2016 10:10:00,10.00
"b94658f2-b22a-47a0-b7aa-f79756672b3a","\","\","Влатко","Сетте","vlatko","24 Vesti","Телешоп",09 May 2016 10:10:00,09 May 2016 10:30:00,17.42
"b94658f2-b22a-47a0-b7aa-f79756672b3a","\","\","Влатко","Сетте","vlatko","24 Vesti","Вести",09 May 2016 12:00:00,09 May 2016 12:15:00,9.93
"b94658f2-b22a-47a0-b7aa-f79756672b3a","\","\","Влатко","Сетте","vlatko","24 Vesti","Телешоп",09 May 2016 12:15:00,09 May 2016 12:30:00,15.00
"b94658f2-b22a-47a0-b7aa-f79756672b3a","\","\","Влатко","Сетте","vlatko","24 Vesti","Поп Рок ритам - музичка емисија",09 May 2016 12:30:00,09 May 2016 13:00:00,30.00
"b94658f2-b22a-47a0-b7aa-f79756672b3a","\","\","Влатко","Сетте","vlatko","24 Vesti","Вести",09 May 2016 13:00:00,09 May 2016 13:02:00,2.00
"b94658f2-b22a-47a0-b7aa-f79756672b3a","\","\","Влатко","Сетте","vlatko","24 Vesti","Тренд – реприза",09 May 2016 13:02:00,09 May 2016 14:00:00,30.47
"b94658f2-b22a-47a0-b7aa-f79756672b3a","\","\","Влатко","Сетте","vlatko","24 Vesti","Фактор Здравје – контактна емисија",09 May 2016 15:10:00,09 May 2016 16:00:00,3.55
"b94658f2-b22a-47a0-b7aa-f79756672b3a","\","\","Влатко","Сетте","vlatko","24 Vesti","Топ форма - забавна емсија",09 May 2016 18:02:00,09 May 2016 18:30:00,1.60
"b94658f2-b22a-47a0-b7aa-f79756672b3a","\","\","Влатко","Сетте","vlatko","24 Vesti","Гласот на Америка",09 May 2016 19:40:00,09 May 2016 20:00:00,0.62
"b94658f2-b22a-47a0-b7aa-f79756672b3a","\","\","Влатко","Сетте","vlatko","24 Vesti","Отворено - дебатна емисија",09 May 2016 20:40:00,09 May 2016 22:00:00,55.72
"b94658f2-b22a-47a0-b7aa-f79756672b3a","\","\","Влатко","Сетте","vlatko","24 Vesti","Дневник 22",09 May 2016 22:00:00,09 May 2016 22:45:00,45.00
"b94658f2-b22a-47a0-b7aa-f79756672b3a","\","\","Влатко","Сетте","vlatko","24 Vesti","Спортски вести",09 May 2016 22:45:00,09 May 2016 23:00:00,15.00
"b94658f2-b22a-47a0-b7aa-f79756672b3a","\","\","Влатко","Сетте","vlatko","24 Vesti","Вести",09 May 2016 23:00:00,09 May 2016 23:02:00,2.00
"b94658f2-b22a-47a0-b7aa-f79756672b3a","\","\","Влатко","Сетте","vlatko","24 Vesti","Телешоп",09 May 2016 23:02:00,09 May 2016 23:15:00,13.00
"b94658f2-b22a-47a0-b7aa-f79756672b3a","\","\","Влатко","Сетте","vlatko","24 Vesti","Поп рок ритам - музичка емисија",09 May 2016 23:15:00,10 May 2016 00:00:00,22.42
"b94658f2-b22a-47a0-b7aa-f79756672b3a","\","\","Влатко","Сетте","vlatko","24 Vesti","24 Вести 06:00",10 May 2016 06:00:00,10 May 2016 07:00:00,26.70
"b94658f2-b22a-47a0-b7aa-f79756672b3a","\","\","Влатко","Сетте","vlatko","Alfa","Браво шоу - забавна програма",01 May 2016 20:30:00,01 May 2016 22:00:00,0.53
"b94658f2-b22a-47a0-b7aa-f79756672b3a","\","\","Влатко","Сетте","vlatko","Alfa","Круг на знаење - квиз - реприза",02 May 2016 07:30:00,02 May 2016 08:00:00,10.48
"b94658f2-b22a-47a0-b7aa-f79756672b3a","\","\","Влатко","Сетте","vlatko","Alfa","Вкусот на традицијата - рецепт на денот",02 May 2016 08:00:00,02 May 2016 08:30:00,6.35
"b94658f2-b22a-47a0-b7aa-f79756672b3a","\","\","Влатко","Сетте","vlatko","Alfa","Прости ми - турска играна серија - реприза",02 May 2016 09:00:00,02 May 2016 10:45:00,2.53
"b94658f2-b22a-47a0-b7aa-f79756672b3a","\","\","Влатко","Сетте","vlatko","Alfa","Телешоп",02 May 2016 11:40:00,02 May 2016 12:00:00,0.60
"b94658f2-b22a-47a0-b7aa-f79756672b3a","\","\","Влатко","Сетте","vlatko","Alfa","Жешка кујна - кулинарско шоу - реприза",02 May 2016 15:20:00,02 May 2016 16:00:00,1.30
"b94658f2-b22a-47a0-b7aa-f79756672b3a","\","\","Влатко","Сетте","vlatko","Alfa","Бекстејџ - забавна програма",02 May 2016 16:00:00,02 May 2016 17:00:00,0.50
"b94658f2-b22a-47a0-b7aa-f79756672b3a","\","\","Влатко","Сетте","vlatko","Alfa","Вести",02 May 2016 17:30:00,02 May 2016 18:15:00,1.58
"b94658f2-b22a-47a0-b7aa-f79756672b3a","\","\","Влатко","Сетте","vlatko","Alfa","Прости ми - турска играна серија",02 May 2016 18:15:00,02 May 2016 20:00:00,0.62
"b94658f2-b22a-47a0-b7aa-f79756672b3a","\","\","Влатко","Сетте","vlatko","Alfa","Село гори, баба се чешла - хумористична серија",02 May 2016 20:00:00,02 May 2016 21:00:00,46.85
"b94658f2-b22a-47a0-b7aa-f79756672b3a","\","\","Влатко","Сетте","vlatko","Alfa","Судбина - турска играна серија",02 May 2016 22:00:00,02 May 2016 23:00:00,0.78
"b94658f2-b22a-47a0-b7aa-f79756672b3a","\","\","Влатко","Сетте","vlatko","Alfa","Збор по збор - контакта емисија - живо",03 May 2016 13:30:00,03 May 2016 14:30:00,1.17
"b94658f2-b22a-47a0-b7aa-f79756672b3a","\","\","Влатко","Сетте","vlatko","Alfa","Чаша љубов - забавна програма - реприза",03 May 2016 14:40:00,03 May 2016 16:15:00,1.27
"b94658f2-b22a-47a0-b7aa-f79756672b3a","\","\","Влатко","Сетте","vlatko","Alfa","Бекстејџ - забавна програма",03 May 2016 16:15:00,03 May 2016 17:00:00,2.13
"b94658f2-b22a-47a0-b7aa-f79756672b3a","\","\","Влатко","Сетте","vlatko","Alfa","Круг на знаење - квиз",03 May 2016 17:00:00,03 May 2016 17:30:00,27.55
"b94658f2-b22a-47a0-b7aa-f79756672b3a","\","\","Влатко","Сетте","vlatko","Alfa","Судбина - турска играна серија - реприза",04 May 2016 10:45:00,04 May 2016 11:40:00,1.20
"b94658f2-b22a-47a0-b7aa-f79756672b3a","\","\","Влатко","Сетте","vlatko","Alfa","Збор по збор - контакта емисија - живо",04 May 2016 13:30:00,04 May 2016 14:30:00,0.58
"b94658f2-b22a-47a0-b7aa-f79756672b3a","\","\","Влатко","Сетте","vlatko","Alfa","Стар Лајф - забавна програма - реприза",04 May 2016 15:20:00,04 May 2016 16:15:00,0.55
"b94658f2-b22a-47a0-b7aa-f79756672b3a","\","\","Влатко","Сетте","vlatko","Alfa","Бекстејџ - забавна програма",04 May 2016 16:15:00,04 May 2016 17:00:00,0.60
"b94658f2-b22a-47a0-b7aa-f79756672b3a","\","\","Влатко","Сетте","vlatko","Alfa","Вести",04 May 2016 17:30:00,04 May 2016 18:15:00,1.08
"b94658f2-b22a-47a0-b7aa-f79756672b3a","\","\","Влатко","Сетте","vlatko","Alfa","Судбина - турска играна серија - реприза",05 May 2016 10:45:00,05 May 2016 11:30:00,1.12
"b94658f2-b22a-47a0-b7aa-f79756672b3a","\","\","Влатко","Сетте","vlatko","Alfa","Збор по збор - контакта емисија - живо",05 May 2016 13:30:00,05 May 2016 14:30:00,1.73
"b94658f2-b22a-47a0-b7aa-f79756672b3a","\","\","Влатко","Сетте","vlatko","Alfa","Документарна програма",05 May 2016 14:40:00,05 May 2016 15:00:00,0.57
"b94658f2-b22a-47a0-b7aa-f79756672b3a","\","\","Влатко","Сетте","vlatko","Alfa","Вкусот на традицијата - емисија за кулинарство - репри...",05 May 2016 15:00:00,05 May 2016 16:15:00,0.60
"b94658f2-b22a-47a0-b7aa-f79756672b3a","\","\","Влатко","Сетте","vlatko","Alfa","Бекстејџ - забавна програма",05 May 2016 16:15:00,05 May 2016 17:00:00,10.53
"b94658f2-b22a-47a0-b7aa-f79756672b3a","\","\","Влатко","Сетте","vlatko","Alfa","Круг на знаење - квиз",05 May 2016 17:00:00,05 May 2016 17:30:00,30.00
"b94658f2-b22a-47a0-b7aa-f79756672b3a","\","\","Влатко","Сетте","vlatko","Alfa","Вести",05 May 2016 17:30:00,05 May 2016 18:15:00,35.28
"b94658f2-b22a-47a0-b7aa-f79756672b3a","\","\","Влатко","Сетте","vlatko","Alfa","Село гори, баба се чешла - хумористична серија",05 May 2016 20:00:00,05 May 2016 21:00:00,21.27
"b94658f2-b22a-47a0-b7aa-f79756672b3a","\","\","Влатко","Сетте","vlatko","Alfa","Зачадена меана - забавна програма",05 May 2016 21:00:00,05 May 2016 22:00:00,10.55
"b94658f2-b22a-47a0-b7aa-f79756672b3a","\","\","Влатко","Сетте","vlatko","Alfa","Бекстејџ - забавна програма",06 May 2016 00:30:00,06 May 2016 01:30:00,0.75
"b94658f2-b22a-47a0-b7aa-f79756672b3a","\","\","Влатко","Сетте","vlatko","Alfa","Судбина - турска играна серија - реприза",06 May 2016 10:45:00,06 May 2016 11:30:00,1.18
"b94658f2-b22a-47a0-b7aa-f79756672b3a","\","\","Влатко","Сетте","vlatko","Alfa","Вести",06 May 2016 11:30:00,06 May 2016 11:40:00,0.65
"b94658f2-b22a-47a0-b7aa-f79756672b3a","\","\","Влатко","Сетте","vlatko","Alfa","Алфа ординација - контактна емисија - живо",06 May 2016 12:00:00,06 May 2016 13:30:00,3.98
"b94658f2-b22a-47a0-b7aa-f79756672b3a","\","\","Влатко","Сетте","vlatko","Alfa","Збор по збор - контакта емисија - живо",06 May 2016 13:30:00,06 May 2016 14:30:00,7.75
"b94658f2-b22a-47a0-b7aa-f79756672b3a","\","\","Влатко","Сетте","vlatko","Alfa","Зајди, зајди - музичка емисија - реприза",06 May 2016 14:40:00,06 May 2016 16:15:00,10.43
"b94658f2-b22a-47a0-b7aa-f79756672b3a","\","\","Влатко","Сетте","vlatko","Alfa","Бекстејџ - забавна програма",06 May 2016 16:15:00,06 May 2016 17:00:00,18.72
"b94658f2-b22a-47a0-b7aa-f79756672b3a","\","\","Влатко","Сетте","vlatko","Alfa","Круг на знаење - квиз",06 May 2016 17:00:00,06 May 2016 17:30:00,30.00
"b94658f2-b22a-47a0-b7aa-f79756672b3a","\","\","Влатко","Сетте","vlatko","Alfa","Вести",06 May 2016 17:30:00,06 May 2016 18:15:00,45.00
"b94658f2-b22a-47a0-b7aa-f79756672b3a","\","\","Влатко","Сетте","vlatko","Alfa","Прости ми - турска играна серија",06 May 2016 18:15:00,06 May 2016 20:00:00,64.83
"b94658f2-b22a-47a0-b7aa-f79756672b3a","\","\","Влатко","Сетте","vlatko","Alfa","Село гори, баба се чешла - хумористична серија",06 May 2016 20:00:00,06 May 2016 21:00:00,60.00
"b94658f2-b22a-47a0-b7aa-f79756672b3a","\","\","Влатко","Сетте","vlatko","Alfa","Работна акција - играно документарна програма",06 May 2016 21:00:00,06 May 2016 22:00:00,51.65
"b94658f2-b22a-47a0-b7aa-f79756672b3a","\","\","Влатко","Сетте","vlatko","Alfa","Судбина - турска играна серија",06 May 2016 22:00:00,06 May 2016 23:00:00,60.00
"b94658f2-b22a-47a0-b7aa-f79756672b3a","\","\","Влатко","Сетте","vlatko","Alfa","Отфрлена - играна серија",06 May 2016 23:00:00,06 May 2016 23:50:00,5.78
"b94658f2-b22a-47a0-b7aa-f79756672b3a","\","\","Влатко","Сетте","vlatko","Alfa","Алфа 04:00",07 May 2016 04:00:00,07 May 2016 06:00:00,1.07
"b94658f2-b22a-47a0-b7aa-f79756672b3a","\","\","Влатко","Сетте","vlatko","Alfa","Алфа 06:00",07 May 2016 06:00:00,07 May 2016 07:00:00,0.58
"b94658f2-b22a-47a0-b7aa-f79756672b3a","\","\","Влатко","Сетте","vlatko","Alfa","Чаша љубов – забавна програма - реприза",07 May 2016 07:00:00,07 May 2016 08:30:00,0.58
"b94658f2-b22a-47a0-b7aa-f79756672b3a","\","\","Влатко","Сетте","vlatko","Alfa","Чаша љубов – забавна програма",07 May 2016 16:00:00,07 May 2016 17:30:00,0.58
"b94658f2-b22a-47a0-b7aa-f79756672b3a","\","\","Влатко","Сетте","vlatko","Alfa","Вкусот на традицијата – емисија за кулинарство",08 May 2016 12:00:00,08 May 2016 13:00:00,0.53
"b94658f2-b22a-47a0-b7aa-f79756672b3a","\","\","Влатко","Сетте","vlatko","Alfa","Зајди, зајди – музичка емисија",08 May 2016 13:00:00,08 May 2016 14:30:00,34.65
"b94658f2-b22a-47a0-b7aa-f79756672b3a","\","\","Влатко","Сетте","vlatko","Alfa","Во недела попладне – контактно забавна програма",08 May 2016 15:30:00,08 May 2016 17:30:00,0.85
"b94658f2-b22a-47a0-b7aa-f79756672b3a","\","\","Влатко","Сетте","vlatko","Alfa","Вести",08 May 2016 17:30:00,08 May 2016 18:10:00,0.52
"b94658f2-b22a-47a0-b7aa-f79756672b3a","\","\","Влатко","Сетте","vlatko","Alfa","игран филм",08 May 2016 19:00:00,08 May 2016 20:30:00,0.62
"b94658f2-b22a-47a0-b7aa-f79756672b3a","\","\","Влатко","Сетте","vlatko","Alfa","Алфа 06:00",09 May 2016 06:00:00,09 May 2016 07:30:00,6.22
"b94658f2-b22a-47a0-b7aa-f79756672b3a","\","\","Влатко","Сетте","vlatko","Alfa","Круг на знаење – квиз - реприза",09 May 2016 07:30:00,09 May 2016 08:00:00,30.00
"b94658f2-b22a-47a0-b7aa-f79756672b3a","\","\","Влатко","Сетте","vlatko","Alfa","Вкусот на традицијата – рецепт на денот",09 May 2016 08:00:00,09 May 2016 08:30:00,6.98
"b94658f2-b22a-47a0-b7aa-f79756672b3a","\","\","Влатко","Сетте","vlatko","Alfa","Збор по збор – контактна емисија - живо",09 May 2016 13:30:00,09 May 2016 14:30:00,3.95
"b94658f2-b22a-47a0-b7aa-f79756672b3a","\","\","Влатко","Сетте","vlatko","Alfa","Жешка кујна – кулинарско шоу - реприза",09 May 2016 15:20:00,09 May 2016 16:00:00,0.58
"b94658f2-b22a-47a0-b7aa-f79756672b3a","\","\","Влатко","Сетте","vlatko","Alfa","Круг на знаење- квиз",09 May 2016 17:00:00,09 May 2016 17:30:00,17.55
"b94658f2-b22a-47a0-b7aa-f79756672b3a","\","\","Влатко","Сетте","vlatko","Alfa","Вести",09 May 2016 17:30:00,09 May 2016 18:15:00,32.95
"b94658f2-b22a-47a0-b7aa-f79756672b3a","\","\","Влатко","Сетте","vlatko","Alfa","Село гори, баба се чешла – хумористична серија",09 May 2016 20:00:00,09 May 2016 21:00:00,32.75
"b94658f2-b22a-47a0-b7aa-f79756672b3a","\","\","Влатко","Сетте","vlatko","Alfa","Пеколна кујна - играно документарна програма",09 May 2016 21:00:00,09 May 2016 22:00:00,4.65
"b94658f2-b22a-47a0-b7aa-f79756672b3a","\","\","Влатко","Сетте","vlatko","Alfa","Алфа 06:00",10 May 2016 06:00:00,10 May 2016 07:30:00,0.57
"b94658f2-b22a-47a0-b7aa-f79756672b3a","\","\","Влатко","Сетте","vlatko","Fox","Квантико",01 May 2016 18:10:00,01 May 2016 19:01:00,1.17
"b94658f2-b22a-47a0-b7aa-f79756672b3a","\","\","Влатко","Сетте","vlatko","Fox","Народот против О’Џеј Симпсон: Американска криминална п...",01 May 2016 20:52:00,01 May 2016 22:10:00,0.55
"b94658f2-b22a-47a0-b7aa-f79756672b3a","\","\","Влатко","Сетте","vlatko","Fox","НЦИС",02 May 2016 17:05:00,02 May 2016 18:00:00,0.60
"b94658f2-b22a-47a0-b7aa-f79756672b3a","\","\","Влатко","Сетте","vlatko","Fox","Современо семејство",02 May 2016 18:00:00,02 May 2016 18:30:00,0.73
"b94658f2-b22a-47a0-b7aa-f79756672b3a","\","\","Влатко","Сетте","vlatko","Fox","Симпсонови",02 May 2016 19:00:00,02 May 2016 19:30:00,0.52
"b94658f2-b22a-47a0-b7aa-f79756672b3a","\","\","Влатко","Сетте","vlatko","Fox","11.22.63",03 May 2016 13:30:00,03 May 2016 14:25:00,0.57
"b94658f2-b22a-47a0-b7aa-f79756672b3a","\","\","Влатко","Сетте","vlatko","Fox","Симпсонови",04 May 2016 19:00:00,04 May 2016 19:30:00,1.50
"b94658f2-b22a-47a0-b7aa-f79756672b3a","\","\","Влатко","Сетте","vlatko","Fox","Голдбергови",05 May 2016 20:00:00,05 May 2016 20:30:00,0.75
"b94658f2-b22a-47a0-b7aa-f79756672b3a","\","\","Влатко","Сетте","vlatko","Fox","Империја",06 May 2016 13:30:00,06 May 2016 14:25:00,0.65
"b94658f2-b22a-47a0-b7aa-f79756672b3a","\","\","Влатко","Сетте","vlatko","Mtv 1","Танец - Велигденски концерт - пренос",01 May 2016 20:30:00,01 May 2016 22:05:00,2.25
"b94658f2-b22a-47a0-b7aa-f79756672b3a","\","\","Влатко","Сетте","vlatko","Mtv 1","Праведниот цар - македонски народни приказни - реприза",02 May 2016 06:18:00,02 May 2016 06:45:00,0.57
"b94658f2-b22a-47a0-b7aa-f79756672b3a","\","\","Влатко","Сетте","vlatko","Mtv 1","Кунг фу Панда,2 - анимиран филм - реприза",02 May 2016 08:35:00,02 May 2016 10:00:00,0.60
"b94658f2-b22a-47a0-b7aa-f79756672b3a","\","\","Влатко","Сетте","vlatko","Mtv 1","Вести",02 May 2016 10:00:00,02 May 2016 10:20:00,0.57
"b94658f2-b22a-47a0-b7aa-f79756672b3a","\","\","Влатко","Сетте","vlatko","Mtv 1","Дора истражува: Велигденска авантура на Дора - анимира...",02 May 2016 11:40:00,02 May 2016 12:05:00,2.47
"b94658f2-b22a-47a0-b7aa-f79756672b3a","\","\","Влатко","Сетте","vlatko","Mtv 1","Велигден - реприза",02 May 2016 12:40:00,02 May 2016 13:00:00,0.60
"b94658f2-b22a-47a0-b7aa-f79756672b3a","\","\","Влатко","Сетте","vlatko","Mtv 1","Љубојна - концерт",02 May 2016 13:45:00,02 May 2016 16:10:00,0.83
"b94658f2-b22a-47a0-b7aa-f79756672b3a","\","\","Влатко","Сетте","vlatko","Mtv 1","Стисни плеј - музички магазин - реприза",02 May 2016 16:10:00,02 May 2016 17:00:00,1.20
"b94658f2-b22a-47a0-b7aa-f79756672b3a","\","\","Влатко","Сетте","vlatko","Mtv 1","Велигденски концерт на ансамбл „Танец“ - реприза",02 May 2016 17:45:00,02 May 2016 19:30:00,3.82
"b94658f2-b22a-47a0-b7aa-f79756672b3a","\","\","Влатко","Сетте","vlatko","Mtv 1","Дневник 2",02 May 2016 19:30:00,02 May 2016 20:00:00,0.77
"b94658f2-b22a-47a0-b7aa-f79756672b3a","\","\","Влатко","Сетте","vlatko","Mtv 1","Музичко интермецо",03 May 2016 13:20:00,03 May 2016 14:05:00,1.17
"b94658f2-b22a-47a0-b7aa-f79756672b3a","\","\","Влатко","Сетте","vlatko","Mtv 1","Дневник 1",03 May 2016 17:00:00,03 May 2016 17:30:00,2.22
"b94658f2-b22a-47a0-b7aa-f79756672b3a","\","\","Влатко","Сетте","vlatko","Mtv 1","Улица на ужасот - сериски филм - реприза",03 May 2016 21:45:00,03 May 2016 22:40:00,1.17
"b94658f2-b22a-47a0-b7aa-f79756672b3a","\","\","Влатко","Сетте","vlatko","Mtv 1","Супер ѕвезда - реприза",04 May 2016 05:25:00,04 May 2016 06:15:00,0.68
"b94658f2-b22a-47a0-b7aa-f79756672b3a","\","\","Влатко","Сетте","vlatko","Mtv 1","Дора и пријателите: Дора во земјата на часовниците - а...",04 May 2016 11:30:00,04 May 2016 11:55:00,0.82
"b94658f2-b22a-47a0-b7aa-f79756672b3a","\","\","Влатко","Сетте","vlatko","Mtv 1","Аграр - агромагазин - реприза",04 May 2016 13:20:00,04 May 2016 13:55:00,1.28
"b94658f2-b22a-47a0-b7aa-f79756672b3a","\","\","Влатко","Сетте","vlatko","Mtv 1","Мој доктор: Улкусна болест - реприза",04 May 2016 15:20:00,04 May 2016 16:00:00,1.87
"b94658f2-b22a-47a0-b7aa-f79756672b3a","\","\","Влатко","Сетте","vlatko","Mtv 1","Планетата Земја - документарна серија - реприза",04 May 2016 16:00:00,04 May 2016 17:00:00,0.70
"b94658f2-b22a-47a0-b7aa-f79756672b3a","\","\","Влатко","Сетте","vlatko","Mtv 1","Лига на шампионите - Фудбал - студио",04 May 2016 20:15:00,04 May 2016 20:45:00,1.25
"b94658f2-b22a-47a0-b7aa-f79756672b3a","\","\","Влатко","Сетте","vlatko","Mtv 1","Реал Мадрид - Манчестер Сити - Лига на Шампионите - фу...",04 May 2016 20:45:00,04 May 2016 22:45:00,58.13
"b94658f2-b22a-47a0-b7aa-f79756672b3a","\","\","Влатко","Сетте","vlatko","Mtv 1","Лига на шампионите - Фудбал - студио",04 May 2016 22:45:00,04 May 2016 23:05:00,1.48
"b94658f2-b22a-47a0-b7aa-f79756672b3a","\","\","Влатко","Сетте","vlatko","Mtv 1","Голем одмор - детско шоу",06 May 2016 10:30:00,06 May 2016 11:25:00,0.55
"b94658f2-b22a-47a0-b7aa-f79756672b3a","\","\","Влатко","Сетте","vlatko","Mtv 1","Напред, Диего!: Диего спасува бебе волк - анимирана се...",06 May 2016 11:25:00,06 May 2016 11:50:00,0.63
"b94658f2-b22a-47a0-b7aa-f79756672b3a","\","\","Влатко","Сетте","vlatko","Mtv 1","Вести",06 May 2016 13:00:00,06 May 2016 13:25:00,2.73
"b94658f2-b22a-47a0-b7aa-f79756672b3a","\","\","Влатко","Сетте","vlatko","Mtv 1","Црната листа - играна серија",06 May 2016 21:00:00,06 May 2016 21:45:00,1.22
"b94658f2-b22a-47a0-b7aa-f79756672b3a","\","\","Влатко","Сетте","vlatko","Mtv 1","Музичко интермецо",07 May 2016 05:30:00,07 May 2016 06:05:00,1.07
"b94658f2-b22a-47a0-b7aa-f79756672b3a","\","\","Влатко","Сетте","vlatko","Mtv 1","Ѓер - Будуќност - ракомет",07 May 2016 15:15:00,07 May 2016 16:45:00,59.28
"b94658f2-b22a-47a0-b7aa-f79756672b3a","\","\","Влатко","Сетте","vlatko","Mtv 1","Вести",08 May 2016 13:00:00,08 May 2016 13:25:00,0.55
"b94658f2-b22a-47a0-b7aa-f79756672b3a","\","\","Влатко","Сетте","vlatko","Mtv 1","ЛШ Ракомет - натпревар за 3 место (жени)",08 May 2016 15:15:00,08 May 2016 16:45:00,1.17
"b94658f2-b22a-47a0-b7aa-f79756672b3a","\","\","Влатко","Сетте","vlatko","Sitel","Твоето лице звучи познато - музичко шоу",01 May 2016 20:45:00,01 May 2016 23:45:00,108.42
"b94658f2-b22a-47a0-b7aa-f79756672b3a","\","\","Влатко","Сетте","vlatko","Sitel","Дневник",01 May 2016 23:45:00,02 May 2016 00:10:00,14.43
"b94658f2-b22a-47a0-b7aa-f79756672b3a","\","\","Влатко","Сетте","vlatko","Sitel","Се или нешто - квиз шоу",02 May 2016 06:00:00,02 May 2016 06:45:00,0.57
"b94658f2-b22a-47a0-b7aa-f79756672b3a","\","\","Влатко","Сетте","vlatko","Sitel","Ја сакам Македонија - утринска програма",02 May 2016 07:10:00,02 May 2016 08:30:00,21.55
"b94658f2-b22a-47a0-b7aa-f79756672b3a","\","\","Влатко","Сетте","vlatko","Sitel","На дневен ред - контактна програма",02 May 2016 08:30:00,02 May 2016 09:00:00,30.00
"b94658f2-b22a-47a0-b7aa-f79756672b3a","\","\","Влатко","Сетте","vlatko","Sitel","Вести",02 May 2016 09:00:00,02 May 2016 09:10:00,3.85
"b94658f2-b22a-47a0-b7aa-f79756672b3a","\","\","Влатко","Сетте","vlatko","Sitel","На дневен ред - контактна програма",02 May 2016 09:10:00,02 May 2016 10:00:00,0.57
"b94658f2-b22a-47a0-b7aa-f79756672b3a","\","\","Влатко","Сетте","vlatko","Sitel","Македонски стари приказни",02 May 2016 10:05:00,02 May 2016 10:35:00,1.15
"b94658f2-b22a-47a0-b7aa-f79756672b3a","\","\","Влатко","Сетте","vlatko","Sitel","Топ шоп",02 May 2016 11:25:00,02 May 2016 11:50:00,1.07
"b94658f2-b22a-47a0-b7aa-f79756672b3a","\","\","Влатко","Сетте","vlatko","Sitel","Македонски стари приказни",02 May 2016 11:50:00,02 May 2016 12:00:00,3.48
"b94658f2-b22a-47a0-b7aa-f79756672b3a","\","\","Влатко","Сетте","vlatko","Sitel","Македонски стари приказни",02 May 2016 12:40:00,02 May 2016 13:50:00,67.65
"b94658f2-b22a-47a0-b7aa-f79756672b3a","\","\","Влатко","Сетте","vlatko","Sitel","Топ шоп",02 May 2016 13:50:00,02 May 2016 14:15:00,25.00
"b94658f2-b22a-47a0-b7aa-f79756672b3a","\","\","Влатко","Сетте","vlatko","Sitel","Јосиф : блиску до Исус - игран филм - драма",02 May 2016 14:15:00,02 May 2016 16:00:00,74.82
"b94658f2-b22a-47a0-b7aa-f79756672b3a","\","\","Влатко","Сетте","vlatko","Sitel","Вести",02 May 2016 16:00:00,02 May 2016 16:29:00,13.55
"b94658f2-b22a-47a0-b7aa-f79756672b3a","\","\","Влатко","Сетте","vlatko","Sitel","Се или нешто - квиз шоу",02 May 2016 18:00:00,02 May 2016 19:00:00,2.18
"b94658f2-b22a-47a0-b7aa-f79756672b3a","\","\","Влатко","Сетте","vlatko","Sitel","Во виорот на судбината - играна серија",02 May 2016 19:45:00,02 May 2016 20:45:00,0.58
"b94658f2-b22a-47a0-b7aa-f79756672b3a","\","\","Влатко","Сетте","vlatko","Sitel","Пинк ѕвездички - талент шоу",02 May 2016 21:15:00,02 May 2016 23:50:00,68.13
"b94658f2-b22a-47a0-b7aa-f79756672b3a","\","\","Влатко","Сетте","vlatko","Sitel","Македонски стари приказни",03 May 2016 12:40:00,03 May 2016 13:55:00,0.97
"b94658f2-b22a-47a0-b7aa-f79756672b3a","\","\","Влатко","Сетте","vlatko","Sitel","Брза кујна - кулинарско шоу",03 May 2016 17:10:00,03 May 2016 18:00:00,2.12
"b94658f2-b22a-47a0-b7aa-f79756672b3a","\","\","Влатко","Сетте","vlatko","Sitel","Во виорот на судбината - играна серија",03 May 2016 19:45:00,03 May 2016 21:30:00,73.02
"b94658f2-b22a-47a0-b7aa-f79756672b3a","\","\","Влатко","Сетте","vlatko","Sitel","Црната роза - играна серија",03 May 2016 21:30:00,03 May 2016 23:00:00,54.45
"b94658f2-b22a-47a0-b7aa-f79756672b3a","\","\","Влатко","Сетте","vlatko","Sitel","Се или нешто - квиз шоу",04 May 2016 06:00:00,04 May 2016 06:45:00,41.85
"b94658f2-b22a-47a0-b7aa-f79756672b3a","\","\","Влатко","Сетте","vlatko","Sitel","Ја сакам Македонија - утринска програма",04 May 2016 06:45:00,04 May 2016 07:00:00,15.00
"b94658f2-b22a-47a0-b7aa-f79756672b3a","\","\","Влатко","Сетте","vlatko","Sitel","Вести",04 May 2016 07:00:00,04 May 2016 07:10:00,10.00
"b94658f2-b22a-47a0-b7aa-f79756672b3a","\","\","Влатко","Сетте","vlatko","Sitel","Ја сакам Македонија - утринска програма",04 May 2016 07:10:00,04 May 2016 08:30:00,18.87
"b94658f2-b22a-47a0-b7aa-f79756672b3a","\","\","Влатко","Сетте","vlatko","Sitel","Тајната на дивата река - играна серија",04 May 2016 10:35:00,04 May 2016 11:25:00,0.55
"b94658f2-b22a-47a0-b7aa-f79756672b3a","\","\","Влатко","Сетте","vlatko","Sitel","Македонски стари приказни",04 May 2016 12:40:00,04 May 2016 13:55:00,0.62
"b94658f2-b22a-47a0-b7aa-f79756672b3a","\","\","Влатко","Сетте","vlatko","Sitel","Црната роза - играна серија",04 May 2016 15:30:00,04 May 2016 16:00:00,2.45
"b94658f2-b22a-47a0-b7aa-f79756672b3a","\","\","Влатко","Сетте","vlatko","Sitel","Црната роза - играна серија",04 May 2016 21:30:00,04 May 2016 23:00:00,0.55
"b94658f2-b22a-47a0-b7aa-f79756672b3a","\","\","Влатко","Сетте","vlatko","Sitel","Јади бурек - контактна програма",06 May 2016 00:20:00,06 May 2016 01:55:00,1.13
"b94658f2-b22a-47a0-b7aa-f79756672b3a","\","\","Влатко","Сетте","vlatko","Sitel","Тајната на дивата река - играна серија",06 May 2016 10:35:00,06 May 2016 11:25:00,1.63
"b94658f2-b22a-47a0-b7aa-f79756672b3a","\","\","Влатко","Сетте","vlatko","Sitel","Топ шоп",06 May 2016 11:25:00,06 May 2016 11:50:00,0.55
"b94658f2-b22a-47a0-b7aa-f79756672b3a","\","\","Влатко","Сетте","vlatko","Sitel","Македонски стари приказни",06 May 2016 12:40:00,06 May 2016 13:55:00,1.32
"b94658f2-b22a-47a0-b7aa-f79756672b3a","\","\","Влатко","Сетте","vlatko","Sitel","Во виорот на судбината - играна серија",06 May 2016 14:25:00,06 May 2016 15:30:00,27.07
"b94658f2-b22a-47a0-b7aa-f79756672b3a","\","\","Влатко","Сетте","vlatko","Sitel","Во виорот на судбината - играна серија",06 May 2016 19:45:00,06 May 2016 21:30:00,9.18
"b94658f2-b22a-47a0-b7aa-f79756672b3a","\","\","Влатко","Сетте","vlatko","Sitel","Во виорот на судбината - играна серија",07 May 2016 16:30:00,07 May 2016 17:45:00,44.72
"b94658f2-b22a-47a0-b7aa-f79756672b3a","\","\","Влатко","Сетте","vlatko","Sitel","Македонски стари приказни",08 May 2016 11:30:00,08 May 2016 16:00:00,3.87
"b94658f2-b22a-47a0-b7aa-f79756672b3a","\","\","Влатко","Сетте","vlatko","Sitel","Се за љубов - реално шоу",08 May 2016 17:20:00,08 May 2016 19:00:00,21.67
"b94658f2-b22a-47a0-b7aa-f79756672b3a","\","\","Влатко","Сетте","vlatko","SportKlub 1","Тренд",01 May 2016 18:02:00,01 May 2016 19:00:00,1.20
"b94658f2-b22a-47a0-b7aa-f79756672b3a","\","\","Влатко","Сетте","vlatko","SportKlub 1","Работна сабота",01 May 2016 21:00:00,01 May 2016 22:00:00,0.62
"b94658f2-b22a-47a0-b7aa-f79756672b3a","\","\","Влатко","Сетте","vlatko","SportKlub 1","Фактор Здравје",02 May 2016 15:10:00,02 May 2016 16:00:00,0.60
"b94658f2-b22a-47a0-b7aa-f79756672b3a","\","\","Влатко","Сетте","vlatko","SportKlub 1","Документарен филм",02 May 2016 16:10:00,02 May 2016 17:00:00,0.87
"b94658f2-b22a-47a0-b7aa-f79756672b3a","\","\","Влатко","Сетте","vlatko","SportKlub 1","Топ форма - забавна емсија",02 May 2016 18:02:00,02 May 2016 18:30:00,0.72
"b94658f2-b22a-47a0-b7aa-f79756672b3a","\","\","Влатко","Сетте","vlatko","SportKlub 1","Концерт",02 May 2016 20:40:00,02 May 2016 22:00:00,0.52
"b94658f2-b22a-47a0-b7aa-f79756672b3a","\","\","Влатко","Сетте","vlatko","SportKlub 1","Дневник 22",02 May 2016 22:00:00,02 May 2016 22:45:00,0.50
"b94658f2-b22a-47a0-b7aa-f79756672b3a","\","\","Влатко","Сетте","vlatko","SportKlub 1","Дневник 17",03 May 2016 17:00:00,03 May 2016 17:45:00,0.77
"b94658f2-b22a-47a0-b7aa-f79756672b3a","\","\","Влатко","Сетте","vlatko","SportKlub 1","24 Вести 02:00",04 May 2016 02:00:00,04 May 2016 06:00:00,0.60
"b94658f2-b22a-47a0-b7aa-f79756672b3a","\","\","Влатко","Сетте","vlatko","SportKlub 1","Второ мислење - емисија за здрав живот",04 May 2016 13:02:00,04 May 2016 14:00:00,1.22
"b94658f2-b22a-47a0-b7aa-f79756672b3a","\","\","Влатко","Сетте","vlatko","SportKlub 1","Вести 19",04 May 2016 19:00:00,04 May 2016 19:15:00,0.57
"b94658f2-b22a-47a0-b7aa-f79756672b3a","\","\","Влатко","Сетте","vlatko","SportKlub 1","Дневник 20",05 May 2016 20:00:00,05 May 2016 20:45:00,0.63
"b94658f2-b22a-47a0-b7aa-f79756672b3a","\","\","Влатко","Сетте","vlatko","SportKlub 1","24 Вести 01:00",06 May 2016 01:00:00,06 May 2016 02:00:00,43.92
"b94658f2-b22a-47a0-b7aa-f79756672b3a","\","\","Влатко","Сетте","vlatko","SportKlub 1","24 Вести 02:00",06 May 2016 02:00:00,06 May 2016 06:00:00,111.42
"b94658f2-b22a-47a0-b7aa-f79756672b3a","\","\","Влатко","Сетте","vlatko","SportKlub 1","24 Вести 06:00",06 May 2016 06:00:00,06 May 2016 07:00:00,0.50
"b94658f2-b22a-47a0-b7aa-f79756672b3a","\","\","Влатко","Сетте","vlatko","SportKlub 1","Анализа - дебатна емисија",06 May 2016 11:02:00,06 May 2016 12:00:00,0.62
"b94658f2-b22a-47a0-b7aa-f79756672b3a","\","\","Влатко","Сетте","vlatko","SportKlub 1","Временска прогноза",06 May 2016 12:20:00,06 May 2016 12:30:00,1.23
"b94658f2-b22a-47a0-b7aa-f79756672b3a","\","\","Влатко","Сетте","vlatko","SportKlub 1","Дневник 20",07 May 2016 20:00:00,07 May 2016 21:00:00,51.07
"b94658f2-b22a-47a0-b7aa-f79756672b3a","\","\","Влатко","Сетте","vlatko","SportKlub 1","24 Вести 06:00",08 May 2016 06:00:00,08 May 2016 07:00:00,1.18
"b94658f2-b22a-47a0-b7aa-f79756672b3a","\","\","Влатко","Сетте","vlatko","SportKlub 1","Тренд",08 May 2016 18:02:00,08 May 2016 19:00:00,25.02
"b94658f2-b22a-47a0-b7aa-f79756672b3a","\","\","Влатко","Сетте","vlatko","SportKlub 1","Вести 19",08 May 2016 19:00:00,08 May 2016 19:10:00,10.00
"b94658f2-b22a-47a0-b7aa-f79756672b3a","\","\","Влатко","Сетте","vlatko","SportKlub 1","Јас сум Самир од Дамаск - документарна програма",08 May 2016 19:10:00,08 May 2016 20:00:00,50.00
"b94658f2-b22a-47a0-b7aa-f79756672b3a","\","\","Влатко","Сетте","vlatko","SportKlub 1","Дневник 20",08 May 2016 20:00:00,08 May 2016 21:00:00,58.05
"b94658f2-b22a-47a0-b7aa-f79756672b3a","\","\","Влатко","Сетте","vlatko","SportKlub 1","Работна сабота",08 May 2016 21:00:00,08 May 2016 22:00:00,11.50
"b94658f2-b22a-47a0-b7aa-f79756672b3a","\","\","Влатко","Сетте","vlatko","SportKlub 2","ATP Masters & WTA Premier Madrid LIVE",02 May 2016 12:00:00,02 May 2016 21:00:00,1.28
"b94658f2-b22a-47a0-b7aa-f79756672b3a","\","\","Влатко","Сетте","vlatko","SportKlub 2","Premier League: Chelsea - Tottenham LIVE",02 May 2016 21:00:00,02 May 2016 23:00:00,49.20
"b94658f2-b22a-47a0-b7aa-f79756672b3a","\","\","Влатко","Сетте","vlatko","SportKlub 2","Ukrajinska liga: Shakhtar - Dynamo Kiev",02 May 2016 23:00:00,03 May 2016 00:45:00,11.88
"b94658f2-b22a-47a0-b7aa-f79756672b3a","\","\","Влатко","Сетте","vlatko","SportKlub 2","Škotska liga: Dundee - Dundee United",03 May 2016 05:30:00,03 May 2016 07:15:00,0.57
"b94658f2-b22a-47a0-b7aa-f79756672b3a","\","\","Влатко","Сетте","vlatko","SportKlub 2","ATP Masters & WTA Premier Madrid LIVE",03 May 2016 12:00:00,03 May 2016 22:00:00,0.73
"b94658f2-b22a-47a0-b7aa-f79756672b3a","\","\","Влатко","Сетте","vlatko","SportKlub 2","ATP Masters & WTA Premier Madrid",04 May 2016 02:10:00,04 May 2016 06:00:00,0.52
"b94658f2-b22a-47a0-b7aa-f79756672b3a","\","\","Влатко","Сетте","vlatko","SportKlub 2","WTA Premier 1/8 Finala & ATP Masters Madrid LIVE",04 May 2016 12:00:00,04 May 2016 20:30:00,0.63
"b94658f2-b22a-47a0-b7aa-f79756672b3a","\","\","Влатко","Сетте","vlatko","SportKlub 2","WTA Premier 1/4 Finale & ATP Masters 1/8 Finala Madrid",06 May 2016 08:15:00,06 May 2016 12:15:00,0.93
"b94658f2-b22a-47a0-b7aa-f79756672b3a","\","\","Влатко","Сетте","vlatko","SportKlub 2","Liga prvaka 1/2 Finale: Bayern - Atletico Madrid",06 May 2016 12:15:00,06 May 2016 14:00:00,0.63
"b94658f2-b22a-47a0-b7aa-f79756672b3a","\","\","Влатко","Сетте","vlatko","SportKlub 2","Premier League: Sunderland - Chelsea",08 May 2016 05:00:00,08 May 2016 06:45:00,0.60
"b94658f2-b22a-47a0-b7aa-f79756672b3a","\","\","Влатко","Сетте","vlatko","Telma","Ќе биде што ќе биде – игран филм",01 May 2016 20:30:00,01 May 2016 22:30:00,1.10
"b94658f2-b22a-47a0-b7aa-f79756672b3a","\","\","Влатко","Сетте","vlatko","Telma","Документарна програма",02 May 2016 05:30:00,02 May 2016 06:30:00,5.92
"b94658f2-b22a-47a0-b7aa-f79756672b3a","\","\","Влатко","Сетте","vlatko","Telma","Утринска на Телма",02 May 2016 08:00:00,02 May 2016 09:40:00,2.82
"b94658f2-b22a-47a0-b7aa-f79756672b3a","\","\","Влатко","Сетте","vlatko","Telma","Топ шоп",02 May 2016 09:40:00,02 May 2016 10:00:00,0.62
"b94658f2-b22a-47a0-b7aa-f79756672b3a","\","\","Влатко","Сетте","vlatko","Telma","Утринска на Телма",02 May 2016 10:00:00,02 May 2016 10:40:00,1.20
"b94658f2-b22a-47a0-b7aa-f79756672b3a","\","\","Влатко","Сетте","vlatko","Telma","Утринска на Телма",02 May 2016 10:45:00,02 May 2016 12:00:00,2.37
"b94658f2-b22a-47a0-b7aa-f79756672b3a","\","\","Влатко","Сетте","vlatko","Telma","Фаличен пансион – хумористична серија - реприза",02 May 2016 14:40:00,02 May 2016 15:30:00,0.80
"b94658f2-b22a-47a0-b7aa-f79756672b3a","\","\","Влатко","Сетте","vlatko","Telma","Вести",02 May 2016 15:30:00,02 May 2016 16:00:00,10.82
"b94658f2-b22a-47a0-b7aa-f79756672b3a","\","\","Влатко","Сетте","vlatko","Telma","Фчерашни новости - реприза",02 May 2016 16:05:00,02 May 2016 16:35:00,19.40
"b94658f2-b22a-47a0-b7aa-f79756672b3a","\","\","Влатко","Сетте","vlatko","Telma","Дневникот на Втората светска војна – документарна прог...",02 May 2016 16:35:00,02 May 2016 17:45:00,12.57
"b94658f2-b22a-47a0-b7aa-f79756672b3a","\","\","Влатко","Сетте","vlatko","Telma","Храна и вино – емисија за кулинарство",02 May 2016 17:45:00,02 May 2016 18:30:00,1.98
"b94658f2-b22a-47a0-b7aa-f79756672b3a","\","\","Влатко","Сетте","vlatko","Telma","Вести",02 May 2016 18:30:00,02 May 2016 19:05:00,17.90
"b94658f2-b22a-47a0-b7aa-f79756672b3a","\","\","Влатко","Сетте","vlatko","Telma","Топ тема – дебатна емисија",02 May 2016 19:15:00,02 May 2016 20:35:00,15.97
"b94658f2-b22a-47a0-b7aa-f79756672b3a","\","\","Влатко","Сетте","vlatko","Telma","Храна и вино – емисија за кулинарство - реприза",03 May 2016 12:35:00,03 May 2016 13:00:00,0.42
"b94658f2-b22a-47a0-b7aa-f79756672b3a","\","\","Влатко","Сетте","vlatko","Telma","Информа - Младински вести - реприза",03 May 2016 13:00:00,03 May 2016 13:10:00,10.00
"b94658f2-b22a-47a0-b7aa-f79756672b3a","\","\","Влатко","Сетте","vlatko","Telma","Топ шоп",03 May 2016 13:10:00,03 May 2016 13:30:00,20.00
"b94658f2-b22a-47a0-b7aa-f79756672b3a","\","\","Влатко","Сетте","vlatko","Telma","Дневникот на Втората светска војна – документарна прог...",03 May 2016 13:30:00,03 May 2016 14:20:00,39.83
"b94658f2-b22a-47a0-b7aa-f79756672b3a","\","\","Влатко","Сетте","vlatko","Telma","Код – информативен магазин - реприза",03 May 2016 14:40:00,03 May 2016 15:30:00,7.73
"b94658f2-b22a-47a0-b7aa-f79756672b3a","\","\","Влатко","Сетте","vlatko","Telma","Вести",03 May 2016 15:30:00,03 May 2016 15:55:00,9.55
"b94658f2-b22a-47a0-b7aa-f79756672b3a","\","\","Влатко","Сетте","vlatko","Telma","Пријатели – хумористична серија",03 May 2016 17:15:00,03 May 2016 17:50:00,1.52
"b94658f2-b22a-47a0-b7aa-f79756672b3a","\","\","Влатко","Сетте","vlatko","Telma","Лица за отсрел – сериски филм",03 May 2016 21:30:00,03 May 2016 22:30:00,0.50
"b94658f2-b22a-47a0-b7aa-f79756672b3a","\","\","Влатко","Сетте","vlatko","Telma","Вести",03 May 2016 22:30:00,03 May 2016 23:05:00,0.12
"b94658f2-b22a-47a0-b7aa-f79756672b3a","\","\","Влатко","Сетте","vlatko","Telma","Утринска на Телма - реприза",04 May 2016 02:30:00,04 May 2016 04:30:00,1.10
"b94658f2-b22a-47a0-b7aa-f79756672b3a","\","\","Влатко","Сетте","vlatko","Telma","Утринска на Телма",04 May 2016 10:35:00,04 May 2016 12:00:00,0.63
"b94658f2-b22a-47a0-b7aa-f79756672b3a","\","\","Влатко","Сетте","vlatko","Telma","Пријатели – хумористична серија - реприза",04 May 2016 13:20:00,04 May 2016 13:45:00,0.62
"b94658f2-b22a-47a0-b7aa-f79756672b3a","\","\","Влатко","Сетте","vlatko","Telma","Пријатели – хумористична серија",04 May 2016 17:05:00,04 May 2016 17:45:00,11.12
"b94658f2-b22a-47a0-b7aa-f79756672b3a","\","\","Влатко","Сетте","vlatko","Telma","Храна и вино – емисија за кулинарство",04 May 2016 17:45:00,04 May 2016 18:30:00,13.58
"b94658f2-b22a-47a0-b7aa-f79756672b3a","\","\","Влатко","Сетте","vlatko","Telma","Топ тема – дебатна емисија",04 May 2016 19:15:00,04 May 2016 20:30:00,22.05
"b94658f2-b22a-47a0-b7aa-f79756672b3a","\","\","Влатко","Сетте","vlatko","Telma","Разотривање - сериски филм",04 May 2016 20:30:00,04 May 2016 21:30:00,14.12
"b94658f2-b22a-47a0-b7aa-f79756672b3a","\","\","Влатко","Сетте","vlatko","Telma","Вести",04 May 2016 22:30:00,04 May 2016 23:05:00,1.42
"b94658f2-b22a-47a0-b7aa-f79756672b3a","\","\","Влатко","Сетте","vlatko","Telma","Аниела – романска играна серија",05 May 2016 07:20:00,05 May 2016 08:00:00,0.53
"b94658f2-b22a-47a0-b7aa-f79756672b3a","\","\","Влатко","Сетте","vlatko","Telma","Утринска на Телма",05 May 2016 10:35:00,05 May 2016 11:00:00,0.50
"b94658f2-b22a-47a0-b7aa-f79756672b3a","\","\","Влатко","Сетте","vlatko","Telma","Пријатели – хумористична серија - реприза",05 May 2016 13:20:00,05 May 2016 13:45:00,9.62
"b94658f2-b22a-47a0-b7aa-f79756672b3a","\","\","Влатко","Сетте","vlatko","Telma","Ајде дома - реприза",05 May 2016 14:40:00,05 May 2016 15:30:00,46.87
"b94658f2-b22a-47a0-b7aa-f79756672b3a","\","\","Влатко","Сетте","vlatko","Telma","Вести",05 May 2016 15:30:00,05 May 2016 16:00:00,3.87
"b94658f2-b22a-47a0-b7aa-f79756672b3a","\","\","Влатко","Сетте","vlatko","Telma","Вести",05 May 2016 18:30:00,05 May 2016 19:15:00,0.75
"b94658f2-b22a-47a0-b7aa-f79756672b3a","\","\","Влатко","Сетте","vlatko","Telma","Топ тема – дебатна емисија",05 May 2016 19:15:00,05 May 2016 20:30:00,18.25
"b94658f2-b22a-47a0-b7aa-f79756672b3a","\","\","Влатко","Сетте","vlatko","Telma","Хорор викенд – игран филм",06 May 2016 00:15:00,06 May 2016 02:20:00,0.57
"b94658f2-b22a-47a0-b7aa-f79756672b3a","\","\","Влатко","Сетте","vlatko","Telma","Утринска на Телма",06 May 2016 10:35:00,06 May 2016 12:00:00,2.93
"b94658f2-b22a-47a0-b7aa-f79756672b3a","\","\","Влатко","Сетте","vlatko","Telma","Информа – Младински вести - реприза",06 May 2016 13:05:00,06 May 2016 13:15:00,0.50
"b94658f2-b22a-47a0-b7aa-f79756672b3a","\","\","Влатко","Сетте","vlatko","Telma","Топшоп",06 May 2016 13:15:00,06 May 2016 13:30:00,13.05
"b94658f2-b22a-47a0-b7aa-f79756672b3a","\","\","Влатко","Сетте","vlatko","Telma","Дневникот на Втора светска војна – документарна програ...",06 May 2016 16:00:00,06 May 2016 17:15:00,1.17
"b94658f2-b22a-47a0-b7aa-f79756672b3a","\","\","Влатко","Сетте","vlatko","Telma","Разоткривање - сериски филм",06 May 2016 20:30:00,06 May 2016 21:30:00,1.15
"b94658f2-b22a-47a0-b7aa-f79756672b3a","\","\","Влатко","Сетте","vlatko","Telma","Забавна македонска музика",07 May 2016 05:30:00,07 May 2016 06:00:00,2.17
"b94658f2-b22a-47a0-b7aa-f79756672b3a","\","\","Влатко","Сетте","vlatko","Telma","Документарна програма",07 May 2016 06:00:00,07 May 2016 06:30:00,8.27
"b94658f2-b22a-47a0-b7aa-f79756672b3a","\","\","Влатко","Сетте","vlatko","Telma","Телма 06:30",07 May 2016 06:30:00,07 May 2016 07:00:00,30.38
"b94658f2-b22a-47a0-b7aa-f79756672b3a","\","\","Влатко","Сетте","vlatko","Telma","Македонска забавна музика",07 May 2016 07:00:00,07 May 2016 07:30:00,30.00
"b94658f2-b22a-47a0-b7aa-f79756672b3a","\","\","Влатко","Сетте","vlatko","Telma","Македонска народна музика",07 May 2016 07:30:00,07 May 2016 08:00:00,26.00
"b94658f2-b22a-47a0-b7aa-f79756672b3a","\","\","Влатко","Сетте","vlatko","Telma","Телма Амбуланта - реприза",07 May 2016 08:00:00,07 May 2016 09:00:00,17.13
"b94658f2-b22a-47a0-b7aa-f79756672b3a","\","\","Влатко","Сетте","vlatko","Telma","Автомагазин – нова сезона",07 May 2016 14:45:00,07 May 2016 15:30:00,0.72
"b94658f2-b22a-47a0-b7aa-f79756672b3a","\","\","Влатко","Сетте","vlatko","Telma","Кога патот ќе скршне – игран филм",07 May 2016 16:00:00,07 May 2016 17:30:00,1.03
"b94658f2-b22a-47a0-b7aa-f79756672b3a","\","\","Влатко","Сетте","vlatko","Telma","Влада – сериски филм",07 May 2016 17:30:00,07 May 2016 18:30:00,3.82
"b94658f2-b22a-47a0-b7aa-f79756672b3a","\","\","Влатко","Сетте","vlatko","Telma","Вести",07 May 2016 18:30:00,07 May 2016 19:05:00,31.58
"b94658f2-b22a-47a0-b7aa-f79756672b3a","\","\","Влатко","Сетте","vlatko","Telma","Документарна програма",08 May 2016 06:00:00,08 May 2016 06:30:00,5.97
"b94658f2-b22a-47a0-b7aa-f79756672b3a","\","\","Влатко","Сетте","vlatko","Telma","Вести - реприза",08 May 2016 06:30:00,08 May 2016 07:00:00,2.78
"b94658f2-b22a-47a0-b7aa-f79756672b3a","\","\","Влатко","Сетте","vlatko","Telma","Храна и вино – емисија за кулинарство - реприза",08 May 2016 12:25:00,08 May 2016 13:25:00,30.18
"b94658f2-b22a-47a0-b7aa-f79756672b3a","\","\","Влатко","Сетте","vlatko","Telma","Ајде дома нова сезона",08 May 2016 14:45:00,08 May 2016 15:30:00,3.62
"b94658f2-b22a-47a0-b7aa-f79756672b3a","\","\","Влатко","Сетте","vlatko","Telma","Вести",08 May 2016 15:30:00,08 May 2016 16:00:00,10.37
"b94658f2-b22a-47a0-b7aa-f79756672b3a","\","\","Влатко","Сетте","vlatko","Telma","Влада – сериски филм",08 May 2016 17:30:00,08 May 2016 18:30:00,2.48
"b94658f2-b22a-47a0-b7aa-f79756672b3a","\","\","Влатко","Сетте","vlatko","Telma","Вести",08 May 2016 18:30:00,08 May 2016 19:05:00,4.97
"b94658f2-b22a-47a0-b7aa-f79756672b3a","\","\","Влатко","Сетте","vlatko","Telma","Код – информативен магазин",08 May 2016 19:40:00,08 May 2016 20:30:00,1.70
"b94658f2-b22a-47a0-b7aa-f79756672b3a","\","\","Влатко","Сетте","vlatko","Telma","Човекот и неговото куче – игран филм",08 May 2016 20:30:00,08 May 2016 22:30:00,78.90
"b94658f2-b22a-47a0-b7aa-f79756672b3a","\","\","Влатко","Сетте","vlatko","Telma","Вести",08 May 2016 22:30:00,08 May 2016 22:55:00,11.78
"b94658f2-b22a-47a0-b7aa-f79756672b3a","\","\","Влатко","Сетте","vlatko","Telma","Храна и вино – емисија за кулинарство - реприза",09 May 2016 13:25:00,09 May 2016 13:55:00,18.15
"b94658f2-b22a-47a0-b7aa-f79756672b3a","\","\","Влатко","Сетте","vlatko","Telma","Топшоп",09 May 2016 13:55:00,09 May 2016 14:15:00,20.00
"b94658f2-b22a-47a0-b7aa-f79756672b3a","\","\","Влатко","Сетте","vlatko","Telma","Еден на еден - реприза",09 May 2016 14:15:00,09 May 2016 15:30:00,61.77
"b94658f2-b22a-47a0-b7aa-f79756672b3a","\","\","Влатко","Сетте","vlatko","Telma","Вести",09 May 2016 15:30:00,09 May 2016 16:00:00,3.80
"b94658f2-b22a-47a0-b7aa-f79756672b3a","\","\","Влатко","Сетте","vlatko","Telma","Топ тема – дебатна емисија",09 May 2016 19:15:00,09 May 2016 20:35:00,32.18
"b94658f2-b22a-47a0-b7aa-f79756672b3a","\","\","Влатко","Сетте","vlatko","Telma","Вести - реприза",10 May 2016 06:30:00,10 May 2016 07:00:00,19.22
"b94658f2-b22a-47a0-b7aa-f79756672b3a","\","\","Влатко","Сетте","vlatko","TV1000","TV 1000 21:00",01 May 2016 21:00:00,02 May 2016 01:00:00,0.55
"b94658f2-b22a-47a0-b7aa-f79756672b3a","\","\","Влатко","Сетте","vlatko","TV1000","Na prvi pogled",02 May 2016 14:10:00,02 May 2016 16:20:00,1.90
"b94658f2-b22a-47a0-b7aa-f79756672b3a","\","\","Влатко","Сетте","vlatko","TV1000","Filadelfija",02 May 2016 16:20:00,02 May 2016 18:30:00,0.53
"b94658f2-b22a-47a0-b7aa-f79756672b3a","\","\","Влатко","Сетте","vlatko","TV1000","Muzika srca",02 May 2016 18:30:00,02 May 2016 20:30:00,1.10
"b94658f2-b22a-47a0-b7aa-f79756672b3a","\","\","Влатко","Сетте","vlatko","TV1000","Kako se pravi američki jorgan",04 May 2016 18:30:00,04 May 2016 20:30:00,1.28
"b94658f2-b22a-47a0-b7aa-f79756672b3a","\","\","Влатко","Сетте","vlatko","TV1000","U ime pravde",06 May 2016 00:10:00,06 May 2016 02:05:00,0.50
"b94658f2-b22a-47a0-b7aa-f79756672b3a","\","\","Влатко","Сетте","vlatko","TV1000","Svakodnevica",06 May 2016 10:00:00,06 May 2016 11:50:00,0.52
"b94658f2-b22a-47a0-b7aa-f79756672b3a","\","\","Влатко","Сетте","vlatko","TV1000","Vampirski pas",06 May 2016 13:40:00,06 May 2016 15:10:00,0.57